{"frames": {

"chara-select-down.png":
{
	"frame": {"x":1,"y":63,"w":321,"h":321},
	"rotated": false,
	"trimmed": false,
	"spriteSourceSize": {"x":0,"y":0,"w":321,"h":321},
	"sourceSize": {"w":321,"h":321}
},
"chara-select-hover.png":
{
	"frame": {"x":1,"y":386,"w":321,"h":321},
	"rotated": false,
	"trimmed": false,
	"spriteSourceSize": {"x":0,"y":0,"w":321,"h":321},
	"sourceSize": {"w":321,"h":321}
},
"chara-select-inactive.png":
{
	"frame": {"x":1,"y":709,"w":321,"h":321},
	"rotated": false,
	"trimmed": false,
	"spriteSourceSize": {"x":0,"y":0,"w":321,"h":321},
	"sourceSize": {"w":321,"h":321}
},
"chara-select-normal.png":
{
	"frame": {"x":1,"y":1032,"w":321,"h":321},
	"rotated": false,
	"trimmed": false,
	"spriteSourceSize": {"x":0,"y":0,"w":321,"h":321},
	"sourceSize": {"w":321,"h":321}
},
"win.png":
{
	"frame": {"x":1,"y":1,"w":200,"h":60},
	"rotated": false,
	"trimmed": false,
	"spriteSourceSize": {"x":0,"y":0,"w":200,"h":60},
	"sourceSize": {"w":200,"h":60}
}},
"meta": {
	"app": "https://www.codeandweb.com/texturepacker",
	"version": "1.0",
	"image": "main.png",
	"format": "RGBA8888",
	"size": {"w":323,"h":1354},
	"scale": "0.5",
	"smartupdate": "$TexturePacker:SmartUpdate:9257308d3325a248f8c41b28c74a0d38:b9e138926fba20dc3ee601d9476ec6bc:535436d3b4b8acceac19278eadc6b40b$"
}
}
