{"frames": {

"symbol1_double-gray.png":
{
	"frame": {"x":1,"y":1519,"w":200,"h":336},
	"rotated": false,
	"trimmed": false,
	"spriteSourceSize": {"x":0,"y":0,"w":200,"h":336},
	"sourceSize": {"w":200,"h":336}
},
"symbol1_double.png":
{
	"frame": {"x":405,"y":1,"w":200,"h":336},
	"rotated": false,
	"trimmed": false,
	"spriteSourceSize": {"x":0,"y":0,"w":200,"h":336},
	"sourceSize": {"w":200,"h":336}
},
"symbol1_simple.png":
{
	"frame": {"x":203,"y":1689,"w":195,"h":162},
	"rotated": false,
	"trimmed": true,
	"spriteSourceSize": {"x":0,"y":5,"w":195,"h":162},
	"sourceSize": {"w":200,"h":168}
},
"symbol1_single-gray.png":
{
	"frame": {"x":405,"y":1015,"w":200,"h":168},
	"rotated": false,
	"trimmed": false,
	"spriteSourceSize": {"x":0,"y":0,"w":200,"h":168},
	"sourceSize": {"w":200,"h":168}
},
"symbol1_single.png":
{
	"frame": {"x":607,"y":677,"w":200,"h":168},
	"rotated": false,
	"trimmed": false,
	"spriteSourceSize": {"x":0,"y":0,"w":200,"h":168},
	"sourceSize": {"w":200,"h":168}
},
"symbol1_triple.png":
{
	"frame": {"x":1,"y":1,"w":200,"h":504},
	"rotated": false,
	"trimmed": false,
	"spriteSourceSize": {"x":0,"y":0,"w":200,"h":504},
	"sourceSize": {"w":200,"h":504}
},
"symbol2_double-gray.png":
{
	"frame": {"x":203,"y":1013,"w":200,"h":336},
	"rotated": false,
	"trimmed": false,
	"spriteSourceSize": {"x":0,"y":0,"w":200,"h":336},
	"sourceSize": {"w":200,"h":336}
},
"symbol2_double.png":
{
	"frame": {"x":405,"y":339,"w":200,"h":336},
	"rotated": false,
	"trimmed": false,
	"spriteSourceSize": {"x":0,"y":0,"w":200,"h":336},
	"sourceSize": {"w":200,"h":336}
},
"symbol2_simple.png":
{
	"frame": {"x":796,"y":1527,"w":187,"h":162},
	"rotated": false,
	"trimmed": true,
	"spriteSourceSize": {"x":7,"y":6,"w":187,"h":162},
	"sourceSize": {"w":200,"h":168}
},
"symbol2_single-gray.png":
{
	"frame": {"x":809,"y":677,"w":200,"h":168},
	"rotated": false,
	"trimmed": false,
	"spriteSourceSize": {"x":0,"y":0,"w":200,"h":168},
	"sourceSize": {"w":200,"h":168}
},
"symbol2_single.png":
{
	"frame": {"x":405,"y":1185,"w":200,"h":168},
	"rotated": false,
	"trimmed": false,
	"spriteSourceSize": {"x":0,"y":0,"w":200,"h":168},
	"sourceSize": {"w":200,"h":168}
},
"symbol2_triple.png":
{
	"frame": {"x":1,"y":507,"w":200,"h":504},
	"rotated": false,
	"trimmed": false,
	"spriteSourceSize": {"x":0,"y":0,"w":200,"h":504},
	"sourceSize": {"w":200,"h":504}
},
"symbol3_double-gray.png":
{
	"frame": {"x":607,"y":1,"w":200,"h":336},
	"rotated": false,
	"trimmed": false,
	"spriteSourceSize": {"x":0,"y":0,"w":200,"h":336},
	"sourceSize": {"w":200,"h":336}
},
"symbol3_double.png":
{
	"frame": {"x":809,"y":1,"w":200,"h":336},
	"rotated": false,
	"trimmed": false,
	"spriteSourceSize": {"x":0,"y":0,"w":200,"h":336},
	"sourceSize": {"w":200,"h":336}
},
"symbol3_simple.png":
{
	"frame": {"x":400,"y":1695,"w":188,"h":157},
	"rotated": false,
	"trimmed": true,
	"spriteSourceSize": {"x":12,"y":6,"w":188,"h":157},
	"sourceSize": {"w":200,"h":168}
},
"symbol3_single-gray.png":
{
	"frame": {"x":607,"y":847,"w":200,"h":168},
	"rotated": false,
	"trimmed": false,
	"spriteSourceSize": {"x":0,"y":0,"w":200,"h":168},
	"sourceSize": {"w":200,"h":168}
},
"symbol3_single.png":
{
	"frame": {"x":809,"y":847,"w":200,"h":168},
	"rotated": false,
	"trimmed": false,
	"spriteSourceSize": {"x":0,"y":0,"w":200,"h":168},
	"sourceSize": {"w":200,"h":168}
},
"symbol3_triple.png":
{
	"frame": {"x":203,"y":1,"w":200,"h":504},
	"rotated": false,
	"trimmed": false,
	"spriteSourceSize": {"x":0,"y":0,"w":200,"h":504},
	"sourceSize": {"w":200,"h":504}
},
"symbol4_double-gray.png":
{
	"frame": {"x":203,"y":1351,"w":200,"h":336},
	"rotated": false,
	"trimmed": false,
	"spriteSourceSize": {"x":0,"y":0,"w":200,"h":336},
	"sourceSize": {"w":200,"h":336}
},
"symbol4_double.png":
{
	"frame": {"x":405,"y":677,"w":200,"h":336},
	"rotated": false,
	"trimmed": false,
	"spriteSourceSize": {"x":0,"y":0,"w":200,"h":336},
	"sourceSize": {"w":200,"h":336}
},
"symbol4_simple.png":
{
	"frame": {"x":607,"y":1692,"w":185,"h":162},
	"rotated": false,
	"trimmed": true,
	"spriteSourceSize": {"x":0,"y":6,"w":185,"h":162},
	"sourceSize": {"w":200,"h":168}
},
"symbol4_single-gray.png":
{
	"frame": {"x":405,"y":1355,"w":200,"h":168},
	"rotated": false,
	"trimmed": false,
	"spriteSourceSize": {"x":0,"y":0,"w":200,"h":168},
	"sourceSize": {"w":200,"h":168}
},
"symbol4_single.png":
{
	"frame": {"x":607,"y":1017,"w":200,"h":168},
	"rotated": false,
	"trimmed": false,
	"spriteSourceSize": {"x":0,"y":0,"w":200,"h":168},
	"sourceSize": {"w":200,"h":168}
},
"symbol4_triple.png":
{
	"frame": {"x":1,"y":1013,"w":200,"h":504},
	"rotated": false,
	"trimmed": false,
	"spriteSourceSize": {"x":0,"y":0,"w":200,"h":504},
	"sourceSize": {"w":200,"h":504}
},
"symbol5_double-gray.png":
{
	"frame": {"x":607,"y":339,"w":200,"h":336},
	"rotated": false,
	"trimmed": false,
	"spriteSourceSize": {"x":0,"y":0,"w":200,"h":336},
	"sourceSize": {"w":200,"h":336}
},
"symbol5_double.png":
{
	"frame": {"x":809,"y":339,"w":200,"h":336},
	"rotated": false,
	"trimmed": false,
	"spriteSourceSize": {"x":0,"y":0,"w":200,"h":336},
	"sourceSize": {"w":200,"h":336}
},
"symbol5_simple.png":
{
	"frame": {"x":796,"y":1691,"w":167,"h":162},
	"rotated": false,
	"trimmed": true,
	"spriteSourceSize": {"x":14,"y":1,"w":167,"h":162},
	"sourceSize": {"w":200,"h":168}
},
"symbol5_single-gray.png":
{
	"frame": {"x":809,"y":1017,"w":200,"h":168},
	"rotated": false,
	"trimmed": false,
	"spriteSourceSize": {"x":0,"y":0,"w":200,"h":168},
	"sourceSize": {"w":200,"h":168}
},
"symbol5_single.png":
{
	"frame": {"x":607,"y":1187,"w":200,"h":168},
	"rotated": false,
	"trimmed": false,
	"spriteSourceSize": {"x":0,"y":0,"w":200,"h":168},
	"sourceSize": {"w":200,"h":168}
},
"symbol5_triple.png":
{
	"frame": {"x":203,"y":507,"w":200,"h":504},
	"rotated": false,
	"trimmed": false,
	"spriteSourceSize": {"x":0,"y":0,"w":200,"h":504},
	"sourceSize": {"w":200,"h":504}
},
"symbol6_simple.png":
{
	"frame": {"x":607,"y":1527,"w":187,"h":163},
	"rotated": false,
	"trimmed": true,
	"spriteSourceSize": {"x":1,"y":5,"w":187,"h":163},
	"sourceSize": {"w":200,"h":168}
},
"symbol_bonus.png":
{
	"frame": {"x":809,"y":1187,"w":200,"h":168},
	"rotated": false,
	"trimmed": false,
	"spriteSourceSize": {"x":0,"y":0,"w":200,"h":168},
	"sourceSize": {"w":200,"h":168}
},
"symbol_bonus_blur.png":
{
	"frame": {"x":607,"y":1357,"w":200,"h":168},
	"rotated": false,
	"trimmed": false,
	"spriteSourceSize": {"x":0,"y":0,"w":200,"h":168},
	"sourceSize": {"w":200,"h":168}
},
"symbol_wild.png":
{
	"frame": {"x":809,"y":1357,"w":200,"h":168},
	"rotated": false,
	"trimmed": false,
	"spriteSourceSize": {"x":0,"y":0,"w":200,"h":168},
	"sourceSize": {"w":200,"h":168}
},
"symbol_wild_blur.png":
{
	"frame": {"x":405,"y":1525,"w":200,"h":168},
	"rotated": false,
	"trimmed": false,
	"spriteSourceSize": {"x":0,"y":0,"w":200,"h":168},
	"sourceSize": {"w":200,"h":168}
}},
"meta": {
	"app": "https://www.codeandweb.com/texturepacker",
	"version": "1.0",
	"image": "symbols.png",
	"format": "RGBA8888",
	"size": {"w":1010,"h":1856},
	"scale": "0.5",
	"smartupdate": "$TexturePacker:SmartUpdate:a6fa3e71af8ca0351037c70fede37274:552a6f75b90e9c77a133db2e8c4b39be:52d0177126e04c5f0346411608750823$"
}
}
