{
"skeleton": { "hash": "C6nIW2exDE/U/BU3t+1Cb5K19xo", "spine": "3.6.53", "width": 4305, "height": 1825 },
"bones": [
	{ "name": "root" },
	{ "name": "bone01", "parent": "root", "length": 200 },
	{ "name": "bone02", "parent": "bone01", "length": 200 },
	{ "name": "bone03", "parent": "bone01", "length": 200 },
	{ "name": "ume", "parent": "root", "length": 100 },
	{ "name": "umeA1", "parent": "ume", "length": 100 },
	{ "name": "umeA2", "parent": "ume", "length": 100 },
	{ "name": "umeA3", "parent": "ume", "length": 100 },
	{ "name": "umeA4", "parent": "ume", "length": 100 },
	{ "name": "umeA5", "parent": "ume", "length": 100 },
	{ "name": "umeA6", "parent": "ume", "length": 100 },
	{ "name": "umeA7", "parent": "ume", "length": 100 },
	{ "name": "umeA8", "parent": "ume", "length": 100 },
	{ "name": "umeA9", "parent": "ume", "length": 100 },
	{ "name": "umeA10", "parent": "ume", "length": 100 },
	{ "name": "umeB1", "parent": "ume", "length": 100, "y": -4.12 },
	{ "name": "umeB2", "parent": "ume", "length": 100, "y": -4.12 },
	{ "name": "umeB3", "parent": "ume", "length": 100, "y": -4.12 },
	{ "name": "umeB4", "parent": "ume", "length": 100, "y": -4.12 },
	{ "name": "umeB5", "parent": "ume", "length": 100, "y": -4.12 },
	{ "name": "umeB6", "parent": "ume", "length": 100, "y": -4.12 },
	{ "name": "umeB7", "parent": "ume", "length": 100, "y": -4.12 },
	{ "name": "umeB8", "parent": "ume", "length": 100, "y": -4.12 },
	{ "name": "umeB9", "parent": "ume", "length": 100, "y": -4.12 },
	{ "name": "umeB10", "parent": "ume", "length": 100, "y": -4.12 }
],
"slots": [
	{ "name": "bonus_bgd_enkei_002", "bone": "bone01", "attachment": "bonus_bgd_enkei_000" },
	{ "name": "bonus_bgd_enkei_001", "bone": "bone01", "attachment": "bonus_bgd_enkei_000" },
	{ "name": "bonus_bgd_enkei_000", "bone": "bone01", "attachment": "bonus_bgd_enkei_000" },
	{ "name": "bonus_bgd_entaku_000", "bone": "bone01", "attachment": "bonus_bgd_entaku_000" },
	{ "name": "bonus_bgd_entaku_001", "bone": "bone01", "attachment": "bonus_bgd_entaku_000" },
	{ "name": "bonus_bgd_tobira_A00", "bone": "bone02", "attachment": "bonus_bgd_tobira_000" },
	{ "name": "bonus_bgd_tobira_A01", "bone": "bone03", "attachment": "bonus_bgd_tobira_000" },
	{ "name": "bonus_bgd_tourou_001", "bone": "bone01", "attachment": "bonus_bgd_tourou_000" },
	{ "name": "bonus_bgd_tourou_000", "bone": "bone01", "attachment": "bonus_bgd_tourou_000" },
	{ "name": "bonus_eff_ume_000", "bone": "umeA1", "attachment": "bonus_eff_ume_000" },
	{ "name": "bonus_eff_ume_10", "bone": "umeA2", "attachment": "bonus_eff_ume_000" },
	{ "name": "bonus_eff_ume_11", "bone": "umeA3", "attachment": "bonus_eff_ume_000" },
	{ "name": "bonus_eff_ume_12", "bone": "umeA4", "attachment": "bonus_eff_ume_000" },
	{ "name": "bonus_eff_ume_13", "bone": "umeA5", "attachment": "bonus_eff_ume_000" },
	{ "name": "bonus_eff_ume_14", "bone": "umeA6", "attachment": "bonus_eff_ume_000" },
	{ "name": "bonus_eff_ume_15", "bone": "umeA7", "attachment": "bonus_eff_ume_000" },
	{ "name": "bonus_eff_ume_16", "bone": "umeA8", "attachment": "bonus_eff_ume_000" },
	{ "name": "bonus_eff_ume_17", "bone": "umeA9", "attachment": "bonus_eff_ume_000" },
	{ "name": "bonus_eff_ume_18", "bone": "umeA10", "attachment": "bonus_eff_ume_000" },
	{ "name": "bonus_eff_ume_0", "bone": "umeB1", "attachment": "bonus_eff_ume_000" },
	{ "name": "bonus_eff_ume_1", "bone": "umeB2", "attachment": "bonus_eff_ume_000" },
	{ "name": "bonus_eff_ume_2", "bone": "umeB3", "attachment": "bonus_eff_ume_000" },
	{ "name": "bonus_eff_ume_3", "bone": "umeB4", "attachment": "bonus_eff_ume_000" },
	{ "name": "bonus_eff_ume_4", "bone": "umeB5", "attachment": "bonus_eff_ume_000" },
	{ "name": "bonus_eff_ume_5", "bone": "umeB6", "attachment": "bonus_eff_ume_000" },
	{ "name": "bonus_eff_ume_6", "bone": "umeB7", "attachment": "bonus_eff_ume_000" },
	{ "name": "bonus_eff_ume_7", "bone": "umeB8", "attachment": "bonus_eff_ume_000" },
	{ "name": "bonus_eff_ume_8", "bone": "umeB9", "attachment": "bonus_eff_ume_000" },
	{ "name": "bonus_eff_ume_9", "bone": "umeB10", "attachment": "bonus_eff_ume_000" },
	{ "name": "bonus_bgd_tobira_B00", "bone": "bone01", "attachment": "bonus_bgd_tobira_001" },
	{ "name": "bonus_bgd_tobira_B01", "bone": "bone01", "attachment": "bonus_bgd_tobira_001" }
],
"skins": {
	"default": {
		"bonus_bgd_enkei_000": {
			"bonus_bgd_enkei_000": { "x": -1414, "y": 390, "width": 800, "height": 360 }
		},
		"bonus_bgd_enkei_001": {
			"bonus_bgd_enkei_000": { "y": 390, "width": 800, "height": 360 }
		},
		"bonus_bgd_enkei_002": {
			"bonus_bgd_enkei_000": { "x": 1414, "y": 390, "width": 800, "height": 360 }
		},
		"bonus_bgd_entaku_000": {
			"bonus_bgd_entaku_000": { "x": -706, "width": 1414, "height": 1460 }
		},
		"bonus_bgd_entaku_001": {
			"bonus_bgd_entaku_000": { "x": 706, "scaleX": -1, "width": 1414, "height": 1460 }
		},
		"bonus_bgd_tobira_A00": {
			"bonus_bgd_tobira_000": { "width": 692, "height": 1460 }
		},
		"bonus_bgd_tobira_A01": {
			"bonus_bgd_tobira_000": { "scaleX": -1, "width": 692, "height": 1460 }
		},
		"bonus_bgd_tobira_B00": {
			"bonus_bgd_tobira_001": { "x": -1720, "scaleX": 1.25, "scaleY": 1.25, "width": 692, "height": 1460 }
		},
		"bonus_bgd_tobira_B01": {
			"bonus_bgd_tobira_001": { "x": 1720, "scaleX": -1.25, "scaleY": 1.25, "width": 692, "height": 1460 }
		},
		"bonus_bgd_tourou_000": {
			"bonus_bgd_tourou_000": { "x": -860, "y": 300, "width": 865, "height": 960 }
		},
		"bonus_bgd_tourou_001": {
			"bonus_bgd_tourou_000": { "x": 860, "y": 300, "scaleX": -1, "width": 865, "height": 960 }
		},
		"bonus_eff_ume_0": {
			"bonus_eff_ume_000": { "width": 50, "height": 50 }
		},
		"bonus_eff_ume_000": {
			"bonus_eff_ume_000": { "width": 50, "height": 50 }
		},
		"bonus_eff_ume_1": {
			"bonus_eff_ume_000": { "width": 50, "height": 50 }
		},
		"bonus_eff_ume_10": {
			"bonus_eff_ume_000": { "width": 50, "height": 50 }
		},
		"bonus_eff_ume_11": {
			"bonus_eff_ume_000": { "width": 50, "height": 50 }
		},
		"bonus_eff_ume_12": {
			"bonus_eff_ume_000": { "width": 50, "height": 50 }
		},
		"bonus_eff_ume_13": {
			"bonus_eff_ume_000": { "width": 50, "height": 50 }
		},
		"bonus_eff_ume_14": {
			"bonus_eff_ume_000": { "width": 50, "height": 50 }
		},
		"bonus_eff_ume_15": {
			"bonus_eff_ume_000": { "width": 50, "height": 50 }
		},
		"bonus_eff_ume_16": {
			"bonus_eff_ume_000": { "width": 50, "height": 50 }
		},
		"bonus_eff_ume_17": {
			"bonus_eff_ume_000": { "width": 50, "height": 50 }
		},
		"bonus_eff_ume_18": {
			"bonus_eff_ume_000": { "width": 50, "height": 50 }
		},
		"bonus_eff_ume_2": {
			"bonus_eff_ume_000": { "width": 50, "height": 50 }
		},
		"bonus_eff_ume_3": {
			"bonus_eff_ume_000": { "width": 50, "height": 50 }
		},
		"bonus_eff_ume_4": {
			"bonus_eff_ume_000": { "width": 50, "height": 50 }
		},
		"bonus_eff_ume_5": {
			"bonus_eff_ume_000": { "width": 50, "height": 50 }
		},
		"bonus_eff_ume_6": {
			"bonus_eff_ume_000": { "width": 50, "height": 50 }
		},
		"bonus_eff_ume_7": {
			"bonus_eff_ume_000": { "width": 50, "height": 50 }
		},
		"bonus_eff_ume_8": {
			"bonus_eff_ume_000": { "width": 50, "height": 50 }
		},
		"bonus_eff_ume_9": {
			"bonus_eff_ume_000": { "width": 50, "height": 50 }
		}
	}
},
"animations": {
	"in_loop": {
		"bones": {
			"bone02": {
				"translate": [
					{
						"time": 0,
						"x": -960,
						"y": 0,
						"curve": [ 0.25, 0, 0.75, 1 ]
					},
					{ "time": 1.5, "x": -1500, "y": 0, "curve": "stepped" },
					{ "time": 6.5, "x": -1500, "y": 0 }
				]
			},
			"bone03": {
				"translate": [
					{
						"time": 0,
						"x": 960,
						"y": 0,
						"curve": [ 0.25, 0, 0.75, 1 ]
					},
					{
						"time": 1.5,
						"x": 1499.72,
						"y": 0,
						"curve": [ 0.25, 0, 0.75, 1 ]
					},
					{ "time": 6.5, "x": 1500, "y": 0 }
				]
			},
			"bone01": {
				"translate": [
					{ "time": 0, "x": 0, "y": 0, "curve": "stepped" },
					{ "time": 1.5, "x": 0, "y": 0, "curve": "stepped" },
					{ "time": 6.5, "x": 0, "y": 0 }
				]
			},
			"umeA1": {
				"rotate": [
					{ "time": 0, "angle": 24 },
					{ "time": 0.3, "angle": 2.4, "curve": "stepped" },
					{ "time": 0.3333, "angle": 0 },
					{ "time": 1.5, "angle": -84 },
					{ "time": 2.8333, "angle": 180 },
					{ "time": 5, "angle": 24 },
					{ "time": 5.3, "angle": 2.4, "curve": "stepped" },
					{ "time": 5.3333, "angle": 0 },
					{ "time": 6.5, "angle": -84 }
				],
				"translate": [
					{
						"time": 0,
						"x": -219.45,
						"y": -628.87,
						"curve": [ 0.39, 0.39, 0.726, 0.73 ]
					},
					{ "time": 0.3, "x": -238.76, "y": -747.9, "curve": "stepped" },
					{
						"time": 0.3333,
						"x": 4.12,
						"y": 749.58,
						"curve": [ 0.259, 0, 0.609, 0.39 ]
					},
					{
						"time": 1.5,
						"x": -26.98,
						"y": 557.82,
						"curve": [ 0.355, 0.26, 0.822, 0.79 ]
					},
					{
						"time": 5,
						"x": -219.45,
						"y": -628.87,
						"curve": [ 0.39, 0.39, 0.726, 0.73 ]
					},
					{ "time": 5.3, "x": -238.76, "y": -747.9, "curve": "stepped" },
					{
						"time": 5.3333,
						"x": 4.12,
						"y": 749.58,
						"curve": [ 0.259, 0, 0.609, 0.39 ]
					},
					{ "time": 6.5, "x": -26.98, "y": 557.82 }
				],
				"scale": [
					{ "time": 0, "x": 0.333, "y": 1 },
					{ "time": 0.3, "x": 0.933, "y": 1, "curve": "stepped" },
					{ "time": 0.3333, "x": 1, "y": 1 },
					{ "time": 0.8333, "x": 0, "y": 1 },
					{ "time": 1.3333, "x": 1, "y": 1 },
					{ "time": 1.5, "x": 0.667, "y": 1 },
					{ "time": 1.8333, "x": 0, "y": 1 },
					{ "time": 2.3333, "x": 1, "y": 1 },
					{ "time": 2.8333, "x": 0, "y": 1 },
					{ "time": 3.3333, "x": 1, "y": 1 },
					{ "time": 3.8333, "x": 0, "y": 1 },
					{ "time": 4.3333, "x": 1, "y": 1 },
					{ "time": 4.8333, "x": 0, "y": 1 },
					{ "time": 5, "x": 0.333, "y": 1 },
					{ "time": 5.3, "x": 0.933, "y": 1, "curve": "stepped" },
					{ "time": 5.3333, "x": 1, "y": 1 },
					{ "time": 5.8333, "x": 0, "y": 1 },
					{ "time": 6.3333, "x": 1, "y": 1 },
					{ "time": 6.5, "x": 0.667, "y": 1 }
				]
			},
			"umeA2": {
				"rotate": [
					{ "time": 0, "angle": 60 },
					{ "time": 0.8, "angle": 2.4, "curve": "stepped" },
					{ "time": 0.8333, "angle": 0 },
					{ "time": 1.5, "angle": -48 },
					{ "time": 3.3333, "angle": 180 },
					{ "time": 5, "angle": 60 },
					{ "time": 5.8, "angle": 2.4, "curve": "stepped" },
					{ "time": 5.8333, "angle": 0 },
					{ "time": 6.5, "angle": -48 }
				],
				"translate": [
					{
						"time": 0,
						"x": 545.05,
						"y": -434.54,
						"curve": [ 0.438, 0.43, 0.783, 0.78 ]
					},
					{ "time": 0.8, "x": 595.47, "y": -747.98, "curve": "stepped" },
					{
						"time": 0.8333,
						"x": 354.58,
						"y": 749.58,
						"curve": [ 0.283, 0, 0.622, 0.36 ]
					},
					{
						"time": 1.5,
						"x": 367.29,
						"y": 670.53,
						"curve": [ 0.299, 0.17, 0.76, 0.71 ]
					},
					{
						"time": 5,
						"x": 545.05,
						"y": -434.54,
						"curve": [ 0.438, 0.43, 0.783, 0.78 ]
					},
					{ "time": 5.8, "x": 595.47, "y": -747.98, "curve": "stepped" },
					{
						"time": 5.8333,
						"x": 354.58,
						"y": 749.58,
						"curve": [ 0.283, 0, 0.622, 0.36 ]
					},
					{ "time": 6.5, "x": 367.29, "y": 670.53 }
				],
				"scale": [
					{ "time": 0, "x": 0.667, "y": 1 },
					{ "time": 0.3333, "x": 0, "y": 1 },
					{ "time": 0.8, "x": 0.933, "y": 1, "curve": "stepped" },
					{ "time": 0.8333, "x": 1, "y": 1 },
					{ "time": 1.3333, "x": 0, "y": 1 },
					{ "time": 1.5, "x": 0.333, "y": 1 },
					{ "time": 1.8333, "x": 1, "y": 1 },
					{ "time": 2.3333, "x": 0, "y": 1 },
					{ "time": 2.8333, "x": 1, "y": 1 },
					{ "time": 3.3333, "x": 0, "y": 1 },
					{ "time": 3.8333, "x": 1, "y": 1 },
					{ "time": 4.3333, "x": 0, "y": 1 },
					{ "time": 4.8333, "x": 1, "y": 1 },
					{ "time": 5, "x": 0.667, "y": 1 },
					{ "time": 5.3333, "x": 0, "y": 1 },
					{ "time": 5.8, "x": 0.933, "y": 1, "curve": "stepped" },
					{ "time": 5.8333, "x": 1, "y": 1 },
					{ "time": 6.3333, "x": 0, "y": 1 },
					{ "time": 6.5, "x": 0.333, "y": 1 }
				]
			},
			"umeA3": {
				"rotate": [
					{ "time": 0, "angle": 96 },
					{ "time": 1.3, "angle": 2.4, "curve": "stepped" },
					{ "time": 1.3333, "angle": 0 },
					{ "time": 1.5, "angle": -12 },
					{ "time": 3.8333, "angle": 180 },
					{ "time": 5, "angle": 96 },
					{ "time": 6.3, "angle": 2.4, "curve": "stepped" },
					{ "time": 6.3333, "angle": 0 },
					{ "time": 6.5, "angle": -12 }
				],
				"translate": [
					{
						"time": 0,
						"x": 1080.23,
						"y": -246.13,
						"curve": [ 0.456, 0.44, 0.817, 0.81 ]
					},
					{ "time": 1.3, "x": 1090.62, "y": -748.01, "curve": "stepped" },
					{
						"time": 1.3333,
						"x": 1059.61,
						"y": 749.58,
						"curve": [ 0.318, 0, 0.652, 0.34 ]
					},
					{
						"time": 1.5,
						"x": 1059.82,
						"y": 739.27,
						"curve": [ 0.245, 0.05, 0.705, 0.61 ]
					},
					{
						"time": 5,
						"x": 1080.23,
						"y": -246.13,
						"curve": [ 0.456, 0.44, 0.817, 0.81 ]
					},
					{ "time": 6.3, "x": 1090.62, "y": -748.01, "curve": "stepped" },
					{
						"time": 6.3333,
						"x": 1059.61,
						"y": 749.58,
						"curve": [ 0.318, 0, 0.652, 0.34 ]
					},
					{ "time": 6.5, "x": 1059.82, "y": 739.27 }
				],
				"scale": [
					{ "time": 0, "x": 0.333, "y": 1 },
					{ "time": 0.3333, "x": 1, "y": 1 },
					{ "time": 0.8333, "x": 0, "y": 1 },
					{ "time": 1.3, "x": 0.933, "y": 1, "curve": "stepped" },
					{ "time": 1.3333, "x": 1, "y": 1 },
					{ "time": 1.5, "x": 0.667, "y": 1 },
					{ "time": 1.8333, "x": 0, "y": 1 },
					{ "time": 2.3333, "x": 1, "y": 1 },
					{ "time": 2.8333, "x": 0, "y": 1 },
					{ "time": 3.3333, "x": 1, "y": 1 },
					{ "time": 3.8333, "x": 0, "y": 1 },
					{ "time": 4.3333, "x": 1, "y": 1 },
					{ "time": 4.8333, "x": 0, "y": 1 },
					{ "time": 5, "x": 0.333, "y": 1 },
					{ "time": 5.3333, "x": 1, "y": 1 },
					{ "time": 5.8333, "x": 0, "y": 1 },
					{ "time": 6.3, "x": 0.933, "y": 1, "curve": "stepped" },
					{ "time": 6.3333, "x": 1, "y": 1 },
					{ "time": 6.5, "x": 0.667, "y": 1 }
				]
			},
			"umeA4": {
				"rotate": [
					{ "time": 0, "angle": 132 },
					{ "time": 1.5, "angle": 24 },
					{ "time": 1.8, "angle": 2.4, "curve": "stepped" },
					{ "time": 1.8333, "angle": 0 },
					{ "time": 4.3333, "angle": 180 },
					{ "time": 5, "angle": 132 },
					{ "time": 6.5, "angle": 24 }
				],
				"translate": [
					{
						"time": 0,
						"x": 847.23,
						"y": -67.67,
						"curve": [ 0.421, 0.4, 0.783, 0.77 ]
					},
					{
						"time": 1.5,
						"x": 868.7,
						"y": -636.03,
						"curve": [ 0.387, 0.39, 0.722, 0.72 ]
					},
					{ "time": 1.8, "x": 873.17, "y": -754.36, "curve": "stepped" },
					{
						"time": 1.8333,
						"x": 816.35,
						"y": 749.58,
						"curve": [ 0.225, 0, 0.662, 0.54 ]
					},
					{
						"time": 5,
						"x": 847.23,
						"y": -67.67,
						"curve": [ 0.421, 0.4, 0.783, 0.77 ]
					},
					{ "time": 6.5, "x": 868.7, "y": -636.03 }
				],
				"scale": [
					{ "time": 0, "x": 0.667, "y": 1 },
					{ "time": 0.3333, "x": 0, "y": 1 },
					{ "time": 0.8333, "x": 1, "y": 1 },
					{ "time": 1.3333, "x": 0, "y": 1 },
					{ "time": 1.5, "x": 0.333, "y": 1 },
					{ "time": 1.8, "x": 0.933, "y": 1, "curve": "stepped" },
					{ "time": 1.8333, "x": 1, "y": 1 },
					{ "time": 2.3333, "x": 0, "y": 1 },
					{ "time": 2.8333, "x": 1, "y": 1 },
					{ "time": 3.3333, "x": 0, "y": 1 },
					{ "time": 3.8333, "x": 1, "y": 1 },
					{ "time": 4.3333, "x": 0, "y": 1 },
					{ "time": 4.8333, "x": 1, "y": 1 },
					{ "time": 5, "x": 0.667, "y": 1 },
					{ "time": 5.3333, "x": 0, "y": 1 },
					{ "time": 5.8333, "x": 1, "y": 1 },
					{ "time": 6.3333, "x": 0, "y": 1 },
					{ "time": 6.5, "x": 0.333, "y": 1 }
				]
			},
			"umeA5": {
				"rotate": [
					{ "time": 0, "angle": 168 },
					{ "time": 1.5, "angle": 60 },
					{ "time": 2.3, "angle": 2.4, "curve": "stepped" },
					{ "time": 2.3333, "angle": 0 },
					{ "time": 4.8333, "angle": 180 },
					{ "time": 5, "angle": 168 },
					{ "time": 6.5, "angle": 60 }
				],
				"translate": [
					{
						"time": 0,
						"x": -597.55,
						"y": 109.85,
						"curve": [ 0.385, 0.36, 0.743, 0.73 ]
					},
					{
						"time": 1.5,
						"x": -734.69,
						"y": -436.76,
						"curve": [ 0.438, 0.43, 0.783, 0.78 ]
					},
					{ "time": 2.3, "x": -812.78, "y": -747.98, "curve": "stepped" },
					{
						"time": 2.3333,
						"x": -437.04,
						"y": 749.58,
						"curve": [ 0.227, 0, 0.636, 0.49 ]
					},
					{
						"time": 5,
						"x": -597.55,
						"y": 109.85,
						"curve": [ 0.385, 0.36, 0.743, 0.73 ]
					},
					{ "time": 6.5, "x": -734.69, "y": -436.76 }
				],
				"scale": [
					{ "time": 0, "x": 0.333, "y": 1 },
					{ "time": 0.3333, "x": 1, "y": 1 },
					{ "time": 0.8333, "x": 0, "y": 1 },
					{ "time": 1.3333, "x": 1, "y": 1 },
					{ "time": 1.5, "x": 0.667, "y": 1 },
					{ "time": 1.8333, "x": 0, "y": 1 },
					{ "time": 2.3, "x": 0.933, "y": 1, "curve": "stepped" },
					{ "time": 2.3333, "x": 1, "y": 1 },
					{ "time": 2.8333, "x": 0, "y": 1 },
					{ "time": 3.3333, "x": 1, "y": 1 },
					{ "time": 3.8333, "x": 0, "y": 1 },
					{ "time": 4.3333, "x": 1, "y": 1 },
					{ "time": 4.8333, "x": 0, "y": 1 },
					{ "time": 5, "x": 0.333, "y": 1 },
					{ "time": 5.3333, "x": 1, "y": 1 },
					{ "time": 5.8333, "x": 0, "y": 1 },
					{ "time": 6.3333, "x": 1, "y": 1 },
					{ "time": 6.5, "x": 0.667, "y": 1 }
				]
			},
			"umeA6": {
				"rotate": [
					{ "time": 0, "angle": -156 },
					{ "time": 0.3333, "angle": 180 },
					{ "time": 1.5, "angle": 96 },
					{ "time": 2.8, "angle": 2.4, "curve": "stepped" },
					{ "time": 2.8333, "angle": 0 },
					{ "time": 5, "angle": -156 },
					{ "time": 5.3333, "angle": 180 },
					{ "time": 6.5, "angle": 96 }
				],
				"translate": [
					{
						"time": 0,
						"x": -599.55,
						"y": 274.18,
						"curve": [ 0.357, 0.33, 0.713, 0.69 ]
					},
					{
						"time": 1.5,
						"x": -515.37,
						"y": -248.14,
						"curve": [ 0.456, 0.44, 0.817, 0.81 ]
					},
					{ "time": 2.8, "x": -434.82, "y": -747.93, "curve": "stepped" },
					{
						"time": 2.8333,
						"x": -676.17,
						"y": 749.58,
						"curve": [ 0.233, 0, 0.617, 0.45 ]
					},
					{
						"time": 5,
						"x": -599.55,
						"y": 274.18,
						"curve": [ 0.357, 0.33, 0.713, 0.69 ]
					},
					{ "time": 6.5, "x": -515.37, "y": -248.14 }
				],
				"scale": [
					{ "time": 0, "x": 0.667, "y": 1 },
					{ "time": 0.3333, "x": 0, "y": 1 },
					{ "time": 0.8333, "x": 1, "y": 1 },
					{ "time": 1.3333, "x": 0, "y": 1 },
					{ "time": 1.5, "x": 0.333, "y": 1 },
					{ "time": 1.8333, "x": 1, "y": 1 },
					{ "time": 2.3333, "x": 0, "y": 1 },
					{ "time": 2.8, "x": 0.933, "y": 1, "curve": "stepped" },
					{ "time": 2.8333, "x": 1, "y": 1 },
					{ "time": 3.3333, "x": 0, "y": 1 },
					{ "time": 3.8333, "x": 1, "y": 1 },
					{ "time": 4.3333, "x": 0, "y": 1 },
					{ "time": 4.8333, "x": 1, "y": 1 },
					{ "time": 5, "x": 0.667, "y": 1 },
					{ "time": 5.3333, "x": 0, "y": 1 },
					{ "time": 5.8333, "x": 1, "y": 1 },
					{ "time": 6.3333, "x": 0, "y": 1 },
					{ "time": 6.5, "x": 0.333, "y": 1 }
				]
			},
			"umeA7": {
				"rotate": [
					{ "time": 0, "angle": -120 },
					{ "time": 0.8333, "angle": 180 },
					{ "time": 1.5, "angle": 132 },
					{ "time": 3.3, "angle": 2.4, "curve": "stepped" },
					{ "time": 3.3333, "angle": 0 },
					{ "time": 5, "angle": -120 },
					{ "time": 5.8333, "angle": 180 },
					{ "time": 6.5, "angle": 132 }
				],
				"translate": [
					{
						"time": 0,
						"x": 575.19,
						"y": 424.61,
						"curve": [ 0.334, 0.29, 0.689, 0.66 ]
					},
					{
						"time": 1.5,
						"x": 491.19,
						"y": -66.09,
						"curve": [ 0.458, 0.44, 0.838, 0.83 ]
					},
					{ "time": 3.3, "x": 374.48, "y": -747.89, "curve": "stepped" },
					{
						"time": 3.3333,
						"x": 630.82,
						"y": 749.58,
						"curve": [ 0.243, 0, 0.608, 0.42 ]
					},
					{
						"time": 5,
						"x": 575.19,
						"y": 424.61,
						"curve": [ 0.334, 0.29, 0.689, 0.66 ]
					},
					{ "time": 6.5, "x": 491.19, "y": -66.09 }
				],
				"scale": [
					{ "time": 0, "x": 0.333, "y": 1 },
					{ "time": 0.3333, "x": 1, "y": 1 },
					{ "time": 0.8333, "x": 0, "y": 1 },
					{ "time": 1.3333, "x": 1, "y": 1 },
					{ "time": 1.5, "x": 0.667, "y": 1 },
					{ "time": 1.8333, "x": 0, "y": 1 },
					{ "time": 2.3333, "x": 1, "y": 1 },
					{ "time": 2.8333, "x": 0, "y": 1 },
					{ "time": 3.3, "x": 0.933, "y": 1, "curve": "stepped" },
					{ "time": 3.3333, "x": 1, "y": 1 },
					{ "time": 3.8333, "x": 0, "y": 1 },
					{ "time": 4.3333, "x": 1, "y": 1 },
					{ "time": 4.8333, "x": 0, "y": 1 },
					{ "time": 5, "x": 0.333, "y": 1 },
					{ "time": 5.3333, "x": 1, "y": 1 },
					{ "time": 5.8333, "x": 0, "y": 1 },
					{ "time": 6.3333, "x": 1, "y": 1 },
					{ "time": 6.5, "x": 0.667, "y": 1 }
				]
			},
			"umeA8": {
				"rotate": [
					{ "time": 0, "angle": -84 },
					{ "time": 1.3333, "angle": 180 },
					{ "time": 1.5, "angle": 168 },
					{ "time": 3.8, "angle": 2.4, "curve": "stepped" },
					{ "time": 3.8333, "angle": 0 },
					{ "time": 5, "angle": -84 },
					{ "time": 6.3333, "angle": 180 },
					{ "time": 6.5, "angle": 168 }
				],
				"translate": [
					{
						"time": 0,
						"x": -1170.63,
						"y": 558.66,
						"curve": [ 0.313, 0.25, 0.668, 0.62 ]
					},
					{
						"time": 1.5,
						"x": -1150.49,
						"y": 109.15,
						"curve": [ 0.449, 0.41, 0.851, 0.84 ]
					},
					{ "time": 3.8, "x": -1112.1, "y": -747.83, "curve": "stepped" },
					{
						"time": 3.8333,
						"x": -1179.18,
						"y": 749.58,
						"curve": [ 0.259, 0, 0.609, 0.39 ]
					},
					{
						"time": 5,
						"x": -1170.63,
						"y": 558.66,
						"curve": [ 0.313, 0.25, 0.668, 0.62 ]
					},
					{ "time": 6.5, "x": -1150.49, "y": 109.15 }
				],
				"scale": [
					{ "time": 0, "x": 0.667, "y": 1 },
					{ "time": 0.3333, "x": 0, "y": 1 },
					{ "time": 0.8333, "x": 1, "y": 1 },
					{ "time": 1.3333, "x": 0, "y": 1 },
					{ "time": 1.5, "x": 0.333, "y": 1 },
					{ "time": 1.8333, "x": 1, "y": 1 },
					{ "time": 2.3333, "x": 0, "y": 1 },
					{ "time": 2.8333, "x": 1, "y": 1 },
					{ "time": 3.3333, "x": 0, "y": 1 },
					{ "time": 3.8, "x": 0.933, "y": 1, "curve": "stepped" },
					{ "time": 3.8333, "x": 1, "y": 1 },
					{ "time": 4.3333, "x": 0, "y": 1 },
					{ "time": 4.8333, "x": 1, "y": 1 },
					{ "time": 5, "x": 0.667, "y": 1 },
					{ "time": 5.3333, "x": 0, "y": 1 },
					{ "time": 5.8333, "x": 1, "y": 1 },
					{ "time": 6.3333, "x": 0, "y": 1 },
					{ "time": 6.5, "x": 0.333, "y": 1 }
				]
			},
			"umeA9": {
				"rotate": [
					{ "time": 0, "angle": -48 },
					{ "time": 1.5, "angle": -156 },
					{ "time": 1.8333, "angle": 180 },
					{ "time": 4.3, "angle": 2.4, "curve": "stepped" },
					{ "time": 4.3333, "angle": 0 },
					{ "time": 5, "angle": -48 },
					{ "time": 6.5, "angle": -156 }
				],
				"translate": [
					{
						"time": 0,
						"x": 207.58,
						"y": 668.42,
						"curve": [ 0.289, 0.19, 0.645, 0.57 ]
					},
					{
						"time": 1.5,
						"x": 194.57,
						"y": 276.1,
						"curve": [ 0.431, 0.38, 0.861, 0.85 ]
					},
					{ "time": 4.3, "x": 160.62, "y": -747.78, "curve": "stepped" },
					{
						"time": 4.3333,
						"x": 210.27,
						"y": 749.58,
						"curve": [ 0.283, 0, 0.622, 0.36 ]
					},
					{
						"time": 5,
						"x": 207.58,
						"y": 668.42,
						"curve": [ 0.289, 0.19, 0.645, 0.57 ]
					},
					{ "time": 6.5, "x": 194.57, "y": 276.1 }
				],
				"scale": [
					{ "time": 0, "x": 0.333, "y": 1 },
					{ "time": 0.3333, "x": 1, "y": 1 },
					{ "time": 0.8333, "x": 0, "y": 1 },
					{ "time": 1.3333, "x": 1, "y": 1 },
					{ "time": 1.5, "x": 0.667, "y": 1 },
					{ "time": 1.8333, "x": 0, "y": 1 },
					{ "time": 2.3333, "x": 1, "y": 1 },
					{ "time": 2.8333, "x": 0, "y": 1 },
					{ "time": 3.3333, "x": 1, "y": 1 },
					{ "time": 3.8333, "x": 0, "y": 1 },
					{ "time": 4.3, "x": 0.933, "y": 1, "curve": "stepped" },
					{ "time": 4.3333, "x": 1, "y": 1 },
					{ "time": 4.8333, "x": 0, "y": 1 },
					{ "time": 5, "x": 0.333, "y": 1 },
					{ "time": 5.3333, "x": 1, "y": 1 },
					{ "time": 5.8333, "x": 0, "y": 1 },
					{ "time": 6.3333, "x": 1, "y": 1 },
					{ "time": 6.5, "x": 0.667, "y": 1 }
				]
			},
			"umeA10": {
				"rotate": [
					{ "time": 0, "angle": -12 },
					{ "time": 1.5, "angle": -120 },
					{ "time": 2.3333, "angle": 180 },
					{ "time": 4.8, "angle": 2.4, "curve": "stepped" },
					{ "time": 4.8333, "angle": 0 },
					{ "time": 5, "angle": -12 },
					{ "time": 6.5, "angle": -120 }
				],
				"translate": [
					{
						"time": 0,
						"x": -916.77,
						"y": 735.7,
						"curve": [ 0.26, 0.07, 0.618, 0.47 ]
					},
					{
						"time": 1.5,
						"x": -857.41,
						"y": 425.8,
						"curve": [ 0.405, 0.33, 0.866, 0.85 ]
					},
					{ "time": 4.8, "x": -632.59, "y": -747.83, "curve": "stepped" },
					{
						"time": 4.8333,
						"x": -919.43,
						"y": 749.58,
						"curve": [ 0.318, 0, 0.652, 0.34 ]
					},
					{
						"time": 5,
						"x": -916.77,
						"y": 735.7,
						"curve": [ 0.26, 0.07, 0.618, 0.47 ]
					},
					{ "time": 6.5, "x": -857.41, "y": 425.8 }
				],
				"scale": [
					{ "time": 0, "x": 0.667, "y": 1 },
					{ "time": 0.3333, "x": 0, "y": 1 },
					{ "time": 0.8333, "x": 1, "y": 1 },
					{ "time": 1.3333, "x": 0, "y": 1 },
					{ "time": 1.5, "x": 0.333, "y": 1 },
					{ "time": 1.8333, "x": 1, "y": 1 },
					{ "time": 2.3333, "x": 0, "y": 1 },
					{ "time": 2.8333, "x": 1, "y": 1 },
					{ "time": 3.3333, "x": 0, "y": 1 },
					{ "time": 3.8333, "x": 1, "y": 1 },
					{ "time": 4.3333, "x": 0, "y": 1 },
					{ "time": 4.8, "x": 0.933, "y": 1, "curve": "stepped" },
					{ "time": 4.8333, "x": 1, "y": 1 },
					{ "time": 5, "x": 0.667, "y": 1 },
					{ "time": 5.3333, "x": 0, "y": 1 },
					{ "time": 5.8333, "x": 1, "y": 1 },
					{ "time": 6.3333, "x": 0, "y": 1 },
					{ "time": 6.5, "x": 0.333, "y": 1 }
				]
			},
			"umeB1": {
				"rotate": [
					{ "time": 0, "angle": 0 },
					{ "time": 1.5, "angle": -108 },
					{ "time": 2.5, "angle": 180 },
					{ "time": 5, "angle": 0 },
					{ "time": 6.5, "angle": -108 }
				],
				"translate": [
					{
						"time": 0,
						"x": -1030.22,
						"y": 749.58,
						"curve": [ 0.248, 0, 0.607, 0.41 ]
					},
					{
						"time": 1.5,
						"x": -1027.34,
						"y": 473.74,
						"curve": [ 0.397, 0.31, 0.874, 0.86 ]
					},
					{
						"time": 5,
						"x": -1030.22,
						"y": 749.58,
						"curve": [ 0.248, 0, 0.607, 0.41 ]
					},
					{ "time": 6.5, "x": -1027.34, "y": 473.74 }
				],
				"scale": [
					{ "time": 0, "x": 2, "y": 2 },
					{ "time": 0.5, "x": 0, "y": 2 },
					{ "time": 1, "x": 2, "y": 2 },
					{ "time": 1.5, "x": 0, "y": 2 },
					{ "time": 2, "x": 2, "y": 2 },
					{ "time": 2.5, "x": 0, "y": 2 },
					{ "time": 3, "x": 2, "y": 2 },
					{ "time": 3.5, "x": 0, "y": 2 },
					{ "time": 4, "x": 2, "y": 2 },
					{ "time": 4.5, "x": 0, "y": 2 },
					{ "time": 5, "x": 2, "y": 2 },
					{ "time": 5.5, "x": 0, "y": 2 },
					{ "time": 6, "x": 2, "y": 2 },
					{ "time": 6.5, "x": 0, "y": 2 }
				]
			},
			"umeB2": {
				"rotate": [
					{ "time": 0, "angle": -144 },
					{ "time": 0.5, "angle": 180 },
					{ "time": 1.5, "angle": 108 },
					{ "time": 2.9667, "angle": 2.4, "curve": "stepped" },
					{ "time": 3, "angle": 0 },
					{ "time": 5, "angle": -144 },
					{ "time": 5.5, "angle": 180 },
					{ "time": 6.5, "angle": 108 }
				],
				"translate": [
					{
						"time": 0,
						"x": -708.69,
						"y": 325.31,
						"curve": [ 0.349, 0.31, 0.705, 0.68 ]
					},
					{
						"time": 1.5,
						"x": -580.63,
						"y": -186.83,
						"curve": [ 0.458, 0.44, 0.825, 0.82 ]
					},
					{ "time": 2.9667, "x": -440.33, "y": -747.93, "curve": "stepped" },
					{
						"time": 3,
						"x": -814.77,
						"y": 749.58,
						"curve": [ 0.236, 0, 0.613, 0.44 ]
					},
					{
						"time": 5,
						"x": -708.69,
						"y": 325.31,
						"curve": [ 0.349, 0.31, 0.705, 0.68 ]
					},
					{ "time": 6.5, "x": -580.63, "y": -186.83 }
				],
				"scale": [
					{ "time": 0, "x": 2, "y": 2 },
					{ "time": 0.5, "x": 0, "y": 2 },
					{ "time": 1, "x": 2, "y": 2 },
					{ "time": 1.5, "x": 0, "y": 2 },
					{ "time": 2, "x": 2, "y": 2 },
					{ "time": 2.5, "x": 0, "y": 2 },
					{ "time": 2.9667, "x": 1.867, "y": 2, "curve": "stepped" },
					{ "time": 3, "x": 2, "y": 2 },
					{ "time": 3.5, "x": 0, "y": 2 },
					{ "time": 4, "x": 2, "y": 2 },
					{ "time": 4.5, "x": 0, "y": 2 },
					{ "time": 5, "x": 2, "y": 2 },
					{ "time": 5.5, "x": 0, "y": 2 },
					{ "time": 6, "x": 2, "y": 2 },
					{ "time": 6.5, "x": 0, "y": 2 }
				]
			},
			"umeB3": {
				"rotate": [
					{ "time": 0, "angle": 36 },
					{ "time": 0.4667, "angle": 2.4, "curve": "stepped" },
					{ "time": 0.5, "angle": 0 },
					{ "time": 1.5, "angle": -72 },
					{ "time": 3, "angle": 180 },
					{ "time": 5, "angle": 36 },
					{ "time": 5.4667, "angle": 2.4, "curve": "stepped" },
					{ "time": 5.5, "angle": 0 },
					{ "time": 6.5, "angle": -72 }
				],
				"translate": [
					{
						"time": 0,
						"x": -719.67,
						"y": -563.46,
						"curve": [ 0.411, 0.41, 0.749, 0.75 ]
					},
					{ "time": 0.4667, "x": -741.42, "y": -747.93, "curve": "stepped" },
					{
						"time": 0.5,
						"x": -564.85,
						"y": 749.58,
						"curve": [ 0.266, 0, 0.612, 0.38 ]
					},
					{
						"time": 1.5,
						"x": -582.76,
						"y": 597.67,
						"curve": [ 0.336, 0.23, 0.8, 0.76 ]
					},
					{
						"time": 5,
						"x": -719.67,
						"y": -563.46,
						"curve": [ 0.411, 0.41, 0.749, 0.75 ]
					},
					{ "time": 5.4667, "x": -741.42, "y": -747.93, "curve": "stepped" },
					{
						"time": 5.5,
						"x": -564.85,
						"y": 749.58,
						"curve": [ 0.266, 0, 0.612, 0.38 ]
					},
					{ "time": 6.5, "x": -582.76, "y": 597.67 }
				],
				"scale": [
					{ "time": 0, "x": 0, "y": 2 },
					{ "time": 0.4667, "x": 1.867, "y": 2, "curve": "stepped" },
					{ "time": 0.5, "x": 2, "y": 2 },
					{ "time": 1, "x": 0, "y": 2 },
					{ "time": 1.5, "x": 2, "y": 2 },
					{ "time": 2, "x": 0, "y": 2 },
					{ "time": 2.5, "x": 2, "y": 2 },
					{ "time": 3, "x": 0, "y": 2 },
					{ "time": 3.5, "x": 2, "y": 2 },
					{ "time": 4, "x": 0, "y": 2 },
					{ "time": 4.5, "x": 2, "y": 2 },
					{ "time": 5, "x": 0, "y": 2 },
					{ "time": 5.4667, "x": 1.867, "y": 2, "curve": "stepped" },
					{ "time": 5.5, "x": 2, "y": 2 },
					{ "time": 6, "x": 0, "y": 2 },
					{ "time": 6.5, "x": 2, "y": 2 }
				]
			},
			"umeB4": {
				"rotate": [
					{ "time": 0, "angle": 108 },
					{ "time": 1.4667, "angle": 2.4, "curve": "stepped" },
					{ "time": 1.5, "angle": 0 },
					{ "time": 4, "angle": 180 },
					{ "time": 5, "angle": 108 },
					{ "time": 6.4667, "angle": 2.4, "curve": "stepped" },
					{ "time": 6.5, "angle": 0 }
				],
				"translate": [
					{
						"time": 0,
						"x": -200.34,
						"y": -184.62,
						"curve": [ 0.458, 0.44, 0.825, 0.82 ]
					},
					{ "time": 1.4667, "x": -183.21, "y": -748.01, "curve": "stepped" },
					{
						"time": 1.5,
						"x": -228.75,
						"y": 749.58,
						"curve": [ 0.226, 0, 0.687, 0.57 ]
					},
					{
						"time": 5,
						"x": -200.34,
						"y": -184.62,
						"curve": [ 0.458, 0.44, 0.825, 0.82 ]
					},
					{ "time": 6.4667, "x": -183.21, "y": -748.01, "curve": "stepped" },
					{ "time": 6.5, "x": -228.75, "y": 749.58 }
				],
				"scale": [
					{ "time": 0, "x": 0, "y": 2 },
					{ "time": 0.5, "x": 2, "y": 2 },
					{ "time": 1, "x": 0, "y": 2 },
					{ "time": 1.4667, "x": 1.867, "y": 2, "curve": "stepped" },
					{ "time": 1.5, "x": 2, "y": 2 },
					{ "time": 2, "x": 0, "y": 2 },
					{ "time": 2.5, "x": 2, "y": 2 },
					{ "time": 3, "x": 0, "y": 2 },
					{ "time": 3.5, "x": 2, "y": 2 },
					{ "time": 4, "x": 0, "y": 2 },
					{ "time": 4.5, "x": 2, "y": 2 },
					{ "time": 5, "x": 0, "y": 2 },
					{ "time": 5.5, "x": 2, "y": 2 },
					{ "time": 6, "x": 0, "y": 2 },
					{ "time": 6.4667, "x": 1.867, "y": 2, "curve": "stepped" },
					{ "time": 6.5, "x": 2, "y": 2 }
				]
			},
			"umeB5": {
				"rotate": [
					{ "time": 0, "angle": 72 },
					{ "time": 0.9667, "angle": 2.4, "curve": "stepped" },
					{ "time": 1, "angle": 0 },
					{ "time": 1.5, "angle": -36 },
					{ "time": 3.5, "angle": 180 },
					{ "time": 5, "angle": 72 },
					{ "time": 5.9667, "angle": 2.4, "curve": "stepped" },
					{ "time": 6, "angle": 0 },
					{ "time": 6.5, "angle": -36 }
				],
				"translate": [
					{
						"time": 0,
						"x": -2.32,
						"y": -370.79,
						"curve": [ 0.446, 0.44, 0.796, 0.79 ]
					},
					{ "time": 0.9667, "x": 23.14, "y": -747.98, "curve": "stepped" },
					{
						"time": 1,
						"x": -77.93,
						"y": 749.58,
						"curve": [ 0.293, 0, 0.63, 0.35 ]
					},
					{
						"time": 1.5,
						"x": -74.46,
						"y": 698.14,
						"curve": [ 0.281, 0.13, 0.742, 0.68 ]
					},
					{
						"time": 5,
						"x": -2.32,
						"y": -370.79,
						"curve": [ 0.446, 0.44, 0.796, 0.79 ]
					},
					{ "time": 5.9667, "x": 23.14, "y": -747.98, "curve": "stepped" },
					{
						"time": 6,
						"x": -77.93,
						"y": 749.58,
						"curve": [ 0.293, 0, 0.63, 0.35 ]
					},
					{ "time": 6.5, "x": -74.46, "y": 698.14 }
				],
				"scale": [
					{ "time": 0, "x": 2, "y": 2 },
					{ "time": 0.5, "x": 0, "y": 2 },
					{ "time": 0.9667, "x": 1.867, "y": 2, "curve": "stepped" },
					{ "time": 1, "x": 2, "y": 2 },
					{ "time": 1.5, "x": 0, "y": 2 },
					{ "time": 2, "x": 2, "y": 2 },
					{ "time": 2.5, "x": 0, "y": 2 },
					{ "time": 3, "x": 2, "y": 2 },
					{ "time": 3.5, "x": 0, "y": 2 },
					{ "time": 4, "x": 2, "y": 2 },
					{ "time": 4.5, "x": 0, "y": 2 },
					{ "time": 5, "x": 2, "y": 2 },
					{ "time": 5.5, "x": 0, "y": 2 },
					{ "time": 5.9667, "x": 1.867, "y": 2, "curve": "stepped" },
					{ "time": 6, "x": 2, "y": 2 },
					{ "time": 6.5, "x": 0, "y": 2 }
				]
			},
			"umeB6": {
				"rotate": [
					{ "time": 0, "angle": -108 },
					{ "time": 1, "angle": 180 },
					{ "time": 1.5, "angle": 144 },
					{ "time": 3.4667, "angle": 2.4, "curve": "stepped" },
					{ "time": 3.5, "angle": 0 },
					{ "time": 5, "angle": -108 },
					{ "time": 6, "angle": 180 },
					{ "time": 6.5, "angle": 144 }
				],
				"translate": [
					{
						"time": 0,
						"x": 171.46,
						"y": 473.74,
						"curve": [ 0.327, 0.28, 0.682, 0.65 ]
					},
					{
						"time": 1.5,
						"x": 222.94,
						"y": -5.52,
						"curve": [ 0.456, 0.43, 0.843, 0.84 ]
					},
					{ "time": 3.4667, "x": 302.68, "y": -747.85, "curve": "stepped" },
					{
						"time": 3.5,
						"x": 141.83,
						"y": 749.58,
						"curve": [ 0.248, 0, 0.607, 0.41 ]
					},
					{
						"time": 5,
						"x": 171.46,
						"y": 473.74,
						"curve": [ 0.327, 0.28, 0.682, 0.65 ]
					},
					{ "time": 6.5, "x": 222.94, "y": -5.52 }
				],
				"scale": [
					{ "time": 0, "x": 0, "y": 2 },
					{ "time": 0.5, "x": 2, "y": 2 },
					{ "time": 1, "x": 0, "y": 2 },
					{ "time": 1.5, "x": 2, "y": 2 },
					{ "time": 2, "x": 0, "y": 2 },
					{ "time": 2.5, "x": 2, "y": 2 },
					{ "time": 3, "x": 0, "y": 2 },
					{ "time": 3.4667, "x": 1.867, "y": 2, "curve": "stepped" },
					{ "time": 3.5, "x": 2, "y": 2 },
					{ "time": 4, "x": 0, "y": 2 },
					{ "time": 4.5, "x": 2, "y": 2 },
					{ "time": 5, "x": 0, "y": 2 },
					{ "time": 5.5, "x": 2, "y": 2 },
					{ "time": 6, "x": 0, "y": 2 },
					{ "time": 6.5, "x": 2, "y": 2 }
				]
			},
			"umeB7": {
				"rotate": [
					{ "time": 1.5, "angle": 180 },
					{ "time": 3.9667, "angle": 2.4, "curve": "stepped" },
					{ "time": 4, "angle": 0 },
					{ "time": 6.5, "angle": 180 }
				],
				"translate": [
					{
						"time": 0,
						"x": 482,
						"y": 601.12,
						"curve": [ 0.305, 0.23, 0.66, 0.61 ]
					},
					{
						"time": 1.5,
						"x": 569.35,
						"y": 167.71,
						"curve": [ 0.444, 0.4, 0.855, 0.85 ]
					},
					{ "time": 3.9667, "x": 753.87, "y": -747.79, "curve": "stepped" },
					{
						"time": 4,
						"x": 452.07,
						"y": 749.58,
						"curve": [ 0.266, 0, 0.612, 0.38 ]
					},
					{
						"time": 5,
						"x": 482,
						"y": 601.12,
						"curve": [ 0.305, 0.23, 0.66, 0.61 ]
					},
					{ "time": 6.5, "x": 569.35, "y": 167.71 }
				],
				"scale": [
					{ "time": 0, "x": 2, "y": 2 },
					{ "time": 0.5, "x": 0, "y": 2 },
					{ "time": 1, "x": 2, "y": 2 },
					{ "time": 1.5, "x": 0, "y": 2 },
					{ "time": 2, "x": 2, "y": 2 },
					{ "time": 2.5, "x": 0, "y": 2 },
					{ "time": 3, "x": 2, "y": 2 },
					{ "time": 3.5, "x": 0, "y": 2 },
					{ "time": 3.9667, "x": 1.867, "y": 2, "curve": "stepped" },
					{ "time": 4, "x": 2, "y": 2 },
					{ "time": 4.5, "x": 0, "y": 2 },
					{ "time": 5, "x": 2, "y": 2 },
					{ "time": 5.5, "x": 0, "y": 2 },
					{ "time": 6, "x": 2, "y": 2 },
					{ "time": 6.5, "x": 0, "y": 2 }
				]
			},
			"umeB8": {
				"rotate": [
					{ "time": 0, "angle": 36 },
					{ "time": 0.4667, "angle": 2.4, "curve": "stepped" },
					{ "time": 0.5, "angle": 0 },
					{ "time": 1.5, "angle": -72 },
					{ "time": 3, "angle": 180 },
					{ "time": 5, "angle": 36 },
					{ "time": 5.4667, "angle": 2.4, "curve": "stepped" },
					{ "time": 5.5, "angle": 0 },
					{ "time": 6.5, "angle": -72 }
				],
				"translate": [
					{
						"time": 0,
						"x": 583.7,
						"y": -563.46,
						"curve": [ 0.411, 0.41, 0.749, 0.75 ]
					},
					{ "time": 0.4667, "x": 564.05, "y": -747.93, "curve": "stepped" },
					{
						"time": 0.5,
						"x": 723.54,
						"y": 749.58,
						"curve": [ 0.266, 0, 0.612, 0.38 ]
					},
					{
						"time": 1.5,
						"x": 707.36,
						"y": 597.67,
						"curve": [ 0.336, 0.23, 0.8, 0.76 ]
					},
					{
						"time": 5,
						"x": 583.7,
						"y": -563.46,
						"curve": [ 0.411, 0.41, 0.749, 0.75 ]
					},
					{ "time": 5.4667, "x": 564.05, "y": -747.93, "curve": "stepped" },
					{
						"time": 5.5,
						"x": 723.54,
						"y": 749.58,
						"curve": [ 0.266, 0, 0.612, 0.38 ]
					},
					{ "time": 6.5, "x": 707.36, "y": 597.67 }
				],
				"scale": [
					{ "time": 0, "x": 0, "y": 2 },
					{ "time": 0.4667, "x": 1.867, "y": 2, "curve": "stepped" },
					{ "time": 0.5, "x": 2, "y": 2 },
					{ "time": 1, "x": 0, "y": 2 },
					{ "time": 1.5, "x": 2, "y": 2 },
					{ "time": 2, "x": 0, "y": 2 },
					{ "time": 2.5, "x": 2, "y": 2 },
					{ "time": 3, "x": 0, "y": 2 },
					{ "time": 3.5, "x": 2, "y": 2 },
					{ "time": 4, "x": 0, "y": 2 },
					{ "time": 4.5, "x": 2, "y": 2 },
					{ "time": 5, "x": 0, "y": 2 },
					{ "time": 5.4667, "x": 1.867, "y": 2, "curve": "stepped" },
					{ "time": 5.5, "x": 2, "y": 2 },
					{ "time": 6, "x": 0, "y": 2 },
					{ "time": 6.5, "x": 2, "y": 2 }
				]
			},
			"umeB9": {
				"rotate": [
					{ "time": 0, "angle": -36 },
					{ "time": 1.5, "angle": -144 },
					{ "time": 2, "angle": 180 },
					{ "time": 4.4667, "angle": 2.4, "curve": "stepped" },
					{ "time": 4.5, "angle": 0 },
					{ "time": 5, "angle": -36 },
					{ "time": 6.5, "angle": -144 }
				],
				"translate": [
					{
						"time": 0,
						"x": 966.49,
						"y": 700.11,
						"curve": [ 0.28, 0.16, 0.637, 0.54 ]
					},
					{
						"time": 1.5,
						"x": 978.76,
						"y": 331.08,
						"curve": [ 0.424, 0.37, 0.863, 0.85 ]
					},
					{ "time": 4.4667, "x": 1014.65, "y": -747.75, "curve": "stepped" },
					{
						"time": 4.5,
						"x": 964.84,
						"y": 749.58,
						"curve": [ 0.293, 0, 0.63, 0.35 ]
					},
					{
						"time": 5,
						"x": 966.49,
						"y": 700.11,
						"curve": [ 0.28, 0.16, 0.637, 0.54 ]
					},
					{ "time": 6.5, "x": 978.76, "y": 331.08 }
				],
				"scale": [
					{ "time": 0, "x": 0, "y": 2 },
					{ "time": 0.5, "x": 2, "y": 2 },
					{ "time": 1, "x": 0, "y": 2 },
					{ "time": 1.5, "x": 2, "y": 2 },
					{ "time": 2, "x": 0, "y": 2 },
					{ "time": 2.5, "x": 2, "y": 2 },
					{ "time": 3, "x": 0, "y": 2 },
					{ "time": 3.5, "x": 2, "y": 2 },
					{ "time": 4, "x": 0, "y": 2 },
					{ "time": 4.4667, "x": 1.867, "y": 2, "curve": "stepped" },
					{ "time": 4.5, "x": 2, "y": 2 },
					{ "time": 5, "x": 0, "y": 2 },
					{ "time": 5.5, "x": 2, "y": 2 },
					{ "time": 6, "x": 0, "y": 2 },
					{ "time": 6.5, "x": 2, "y": 2 }
				]
			},
			"umeB10": {
				"rotate": [
					{ "time": 0, "angle": 180 },
					{ "time": 1.5, "angle": 72 },
					{ "time": 2.4667, "angle": 2.4, "curve": "stepped" },
					{ "time": 2.5, "angle": 0 },
					{ "time": 5, "angle": 180 },
					{ "time": 6.5, "angle": 72 }
				],
				"translate": [
					{
						"time": 0,
						"x": 1189.32,
						"y": 164.63,
						"curve": [ 0.375, 0.35, 0.732, 0.72 ]
					},
					{
						"time": 1.5,
						"x": 1185.73,
						"y": -373.66,
						"curve": [ 0.446, 0.44, 0.796, 0.79 ]
					},
					{ "time": 2.4667, "x": 1183.23, "y": -747.98, "curve": "stepped" },
					{
						"time": 2.5,
						"x": 1193.22,
						"y": 749.58,
						"curve": [ 0.229, 0, 0.629, 0.48 ]
					},
					{
						"time": 5,
						"x": 1189.32,
						"y": 164.63,
						"curve": [ 0.375, 0.35, 0.732, 0.72 ]
					},
					{ "time": 6.5, "x": 1185.73, "y": -373.66 }
				],
				"scale": [
					{ "time": 0, "x": 0, "y": 2 },
					{ "time": 0.5, "x": 2, "y": 2 },
					{ "time": 1, "x": 0, "y": 2 },
					{ "time": 1.5, "x": 2, "y": 2 },
					{ "time": 2, "x": 0, "y": 2 },
					{ "time": 2.4667, "x": 1.867, "y": 2, "curve": "stepped" },
					{ "time": 2.5, "x": 2, "y": 2 },
					{ "time": 3, "x": 0, "y": 2 },
					{ "time": 3.5, "x": 2, "y": 2 },
					{ "time": 4, "x": 0, "y": 2 },
					{ "time": 4.5, "x": 2, "y": 2 },
					{ "time": 5, "x": 0, "y": 2 },
					{ "time": 5.5, "x": 2, "y": 2 },
					{ "time": 6, "x": 0, "y": 2 },
					{ "time": 6.5, "x": 2, "y": 2 }
				]
			}
		}
	},
	"loop": {
		"bones": {
			"bone01": {
				"translate": [
					{ "time": 0, "x": 0, "y": 0, "curve": "stepped" },
					{ "time": 3.3333, "x": 0, "y": 0 }
				]
			},
			"bone02": {
				"translate": [
					{ "time": 0, "x": -1500, "y": 0 }
				]
			},
			"bone03": {
				"translate": [
					{ "time": 0, "x": 1500, "y": 0 }
				]
			},
			"umeA1": {
				"rotate": [
					{ "time": 0, "angle": 24 },
					{ "time": 0.3, "angle": 2.4, "curve": "stepped" },
					{ "time": 0.3333, "angle": 0 },
					{ "time": 2.8333, "angle": 180 },
					{ "time": 5, "angle": 24 }
				],
				"translate": [
					{
						"time": 0,
						"x": -219.45,
						"y": -628.87,
						"curve": [ 0.39, 0.39, 0.726, 0.73 ]
					},
					{ "time": 0.3, "x": -238.76, "y": -747.9, "curve": "stepped" },
					{
						"time": 0.3333,
						"x": 4.12,
						"y": 749.58,
						"curve": [ 0.241, 0, 0.818, 0.76 ]
					},
					{ "time": 5, "x": -219.45, "y": -628.87 }
				],
				"scale": [
					{ "time": 0, "x": 0.333, "y": 1 },
					{ "time": 0.3, "x": 0.933, "y": 1, "curve": "stepped" },
					{ "time": 0.3333, "x": 1, "y": 1 },
					{ "time": 0.8333, "x": 0, "y": 1 },
					{ "time": 1.3333, "x": 1, "y": 1 },
					{ "time": 1.8333, "x": 0, "y": 1 },
					{ "time": 2.3333, "x": 1, "y": 1 },
					{ "time": 2.8333, "x": 0, "y": 1 },
					{ "time": 3.3333, "x": 1, "y": 1 },
					{ "time": 3.8333, "x": 0, "y": 1 },
					{ "time": 4.3333, "x": 1, "y": 1 },
					{ "time": 4.8333, "x": 0, "y": 1 },
					{ "time": 5, "x": 0.333, "y": 1 }
				]
			},
			"umeB1": {
				"rotate": [
					{ "time": 0, "angle": 0 },
					{ "time": 2.5, "angle": 180 },
					{ "time": 5, "angle": 0 }
				],
				"translate": [
					{
						"time": 0,
						"x": -1030.22,
						"y": 749.58,
						"curve": [ 0.25, 0, 0.874, 0.83 ]
					},
					{ "time": 5, "x": -1014.44, "y": -761.11 }
				],
				"scale": [
					{ "time": 0, "x": 2, "y": 2 },
					{ "time": 0.5, "x": 0, "y": 2 },
					{ "time": 1, "x": 2, "y": 2 },
					{ "time": 1.5, "x": 0, "y": 2 },
					{ "time": 2, "x": 2, "y": 2 },
					{ "time": 2.5, "x": 0, "y": 2 },
					{ "time": 3, "x": 2, "y": 2 },
					{ "time": 3.5, "x": 0, "y": 2 },
					{ "time": 4, "x": 2, "y": 2 },
					{ "time": 4.5, "x": 0, "y": 2 },
					{ "time": 5, "x": 2, "y": 2 }
				]
			},
			"umeB2": {
				"rotate": [
					{ "time": 0, "angle": -144 },
					{ "time": 0.5, "angle": 180 },
					{ "time": 2.9667, "angle": 2.4, "curve": "stepped" },
					{ "time": 3, "angle": 0 },
					{ "time": 5, "angle": -144 }
				],
				"translate": [
					{
						"time": 0,
						"x": -708.69,
						"y": 325.31,
						"curve": [ 0.424, 0.37, 0.863, 0.85 ]
					},
					{ "time": 2.9667, "x": -440.33, "y": -747.93, "curve": "stepped" },
					{
						"time": 3,
						"x": -814.77,
						"y": 749.58,
						"curve": [ 0.236, 0, 0.613, 0.44 ]
					},
					{ "time": 5, "x": -708.69, "y": 325.31 }
				],
				"scale": [
					{ "time": 0, "x": 2, "y": 2 },
					{ "time": 0.5, "x": 0, "y": 2 },
					{ "time": 1, "x": 2, "y": 2 },
					{ "time": 1.5, "x": 0, "y": 2 },
					{ "time": 2, "x": 2, "y": 2 },
					{ "time": 2.5, "x": 0, "y": 2 },
					{ "time": 2.9667, "x": 1.867, "y": 2, "curve": "stepped" },
					{ "time": 3, "x": 2, "y": 2 },
					{ "time": 3.5, "x": 0, "y": 2 },
					{ "time": 4, "x": 2, "y": 2 },
					{ "time": 4.5, "x": 0, "y": 2 },
					{ "time": 5, "x": 2, "y": 2 }
				]
			},
			"umeB3": {
				"rotate": [
					{ "time": 0, "angle": 36 },
					{ "time": 0.4667, "angle": 2.4, "curve": "stepped" },
					{ "time": 0.5, "angle": 0 },
					{ "time": 3, "angle": 180 },
					{ "time": 5, "angle": 36 }
				],
				"translate": [
					{
						"time": 0,
						"x": -719.67,
						"y": -563.46,
						"curve": [ 0.411, 0.41, 0.749, 0.75 ]
					},
					{ "time": 0.4667, "x": -741.42, "y": -747.93, "curve": "stepped" },
					{
						"time": 0.5,
						"x": -564.85,
						"y": 749.58,
						"curve": [ 0.237, 0, 0.794, 0.73 ]
					},
					{ "time": 5, "x": -719.67, "y": -563.46 }
				],
				"scale": [
					{ "time": 0, "x": 0, "y": 2 },
					{ "time": 0.4667, "x": 1.867, "y": 2, "curve": "stepped" },
					{ "time": 0.5, "x": 2, "y": 2 },
					{ "time": 1, "x": 0, "y": 2 },
					{ "time": 1.5, "x": 2, "y": 2 },
					{ "time": 2, "x": 0, "y": 2 },
					{ "time": 2.5, "x": 2, "y": 2 },
					{ "time": 3, "x": 0, "y": 2 },
					{ "time": 3.5, "x": 2, "y": 2 },
					{ "time": 4, "x": 0, "y": 2 },
					{ "time": 4.5, "x": 2, "y": 2 },
					{ "time": 5, "x": 0, "y": 2 }
				]
			},
			"umeB4": {
				"rotate": [
					{ "time": 0, "angle": 108 },
					{ "time": 1.4667, "angle": 2.4, "curve": "stepped" },
					{ "time": 1.5, "angle": 0 },
					{ "time": 4, "angle": 180 },
					{ "time": 5, "angle": 108 }
				],
				"translate": [
					{
						"time": 0,
						"x": -200.34,
						"y": -184.62,
						"curve": [ 0.458, 0.44, 0.825, 0.82 ]
					},
					{ "time": 1.4667, "x": -183.21, "y": -748.01, "curve": "stepped" },
					{
						"time": 1.5,
						"x": -228.75,
						"y": 749.58,
						"curve": [ 0.226, 0, 0.687, 0.57 ]
					},
					{ "time": 5, "x": -200.34, "y": -184.62 }
				],
				"scale": [
					{ "time": 0, "x": 0, "y": 2 },
					{ "time": 0.5, "x": 2, "y": 2 },
					{ "time": 1, "x": 0, "y": 2 },
					{ "time": 1.4667, "x": 1.867, "y": 2, "curve": "stepped" },
					{ "time": 1.5, "x": 2, "y": 2 },
					{ "time": 2, "x": 0, "y": 2 },
					{ "time": 2.5, "x": 2, "y": 2 },
					{ "time": 3, "x": 0, "y": 2 },
					{ "time": 3.5, "x": 2, "y": 2 },
					{ "time": 4, "x": 0, "y": 2 },
					{ "time": 4.5, "x": 2, "y": 2 },
					{ "time": 5, "x": 0, "y": 2 }
				]
			},
			"umeB5": {
				"rotate": [
					{ "time": 0, "angle": 72 },
					{ "time": 0.9667, "angle": 2.4, "curve": "stepped" },
					{ "time": 1, "angle": 0 },
					{ "time": 3.5, "angle": 180 },
					{ "time": 5, "angle": 72 }
				],
				"translate": [
					{
						"time": 0,
						"x": -2.32,
						"y": -370.79,
						"curve": [ 0.446, 0.44, 0.796, 0.79 ]
					},
					{ "time": 0.9667, "x": 23.14, "y": -747.98, "curve": "stepped" },
					{
						"time": 1,
						"x": -77.93,
						"y": 749.58,
						"curve": [ 0.229, 0, 0.734, 0.64 ]
					},
					{ "time": 5, "x": -2.32, "y": -370.79 }
				],
				"scale": [
					{ "time": 0, "x": 2, "y": 2 },
					{ "time": 0.5, "x": 0, "y": 2 },
					{ "time": 0.9667, "x": 1.867, "y": 2, "curve": "stepped" },
					{ "time": 1, "x": 2, "y": 2 },
					{ "time": 1.5, "x": 0, "y": 2 },
					{ "time": 2, "x": 2, "y": 2 },
					{ "time": 2.5, "x": 0, "y": 2 },
					{ "time": 3, "x": 2, "y": 2 },
					{ "time": 3.5, "x": 0, "y": 2 },
					{ "time": 4, "x": 2, "y": 2 },
					{ "time": 4.5, "x": 0, "y": 2 },
					{ "time": 5, "x": 2, "y": 2 }
				]
			},
			"umeB6": {
				"rotate": [
					{ "time": 0, "angle": -108 },
					{ "time": 1, "angle": 180 },
					{ "time": 3.4667, "angle": 2.4, "curve": "stepped" },
					{ "time": 3.5, "angle": 0 },
					{ "time": 5, "angle": -108 }
				],
				"translate": [
					{
						"time": 0,
						"x": 171.46,
						"y": 473.74,
						"curve": [ 0.395, 0.31, 0.868, 0.85 ]
					},
					{ "time": 3.4667, "x": 302.68, "y": -747.85, "curve": "stepped" },
					{
						"time": 3.5,
						"x": 141.83,
						"y": 749.58,
						"curve": [ 0.248, 0, 0.607, 0.41 ]
					},
					{ "time": 5, "x": 171.46, "y": 473.74 }
				],
				"scale": [
					{ "time": 0, "x": 0, "y": 2 },
					{ "time": 0.5, "x": 2, "y": 2 },
					{ "time": 1, "x": 0, "y": 2 },
					{ "time": 1.5, "x": 2, "y": 2 },
					{ "time": 2, "x": 0, "y": 2 },
					{ "time": 2.5, "x": 2, "y": 2 },
					{ "time": 3, "x": 0, "y": 2 },
					{ "time": 3.4667, "x": 1.867, "y": 2, "curve": "stepped" },
					{ "time": 3.5, "x": 2, "y": 2 },
					{ "time": 4, "x": 0, "y": 2 },
					{ "time": 4.5, "x": 2, "y": 2 },
					{ "time": 5, "x": 0, "y": 2 }
				]
			},
			"umeB7": {
				"rotate": [
					{ "time": 1.5, "angle": 180 },
					{ "time": 3.9667, "angle": 2.4, "curve": "stepped" },
					{ "time": 4, "angle": 0 }
				],
				"translate": [
					{
						"time": 0,
						"x": 482,
						"y": 601.12,
						"curve": [ 0.357, 0.24, 0.87, 0.85 ]
					},
					{ "time": 3.9667, "x": 753.87, "y": -747.79, "curve": "stepped" },
					{
						"time": 4,
						"x": 452.07,
						"y": 749.58,
						"curve": [ 0.266, 0, 0.612, 0.38 ]
					},
					{ "time": 5, "x": 482, "y": 601.12 }
				],
				"scale": [
					{ "time": 0, "x": 2, "y": 2 },
					{ "time": 0.5, "x": 0, "y": 2 },
					{ "time": 1, "x": 2, "y": 2 },
					{ "time": 1.5, "x": 0, "y": 2 },
					{ "time": 2, "x": 2, "y": 2 },
					{ "time": 2.5, "x": 0, "y": 2 },
					{ "time": 3, "x": 2, "y": 2 },
					{ "time": 3.5, "x": 0, "y": 2 },
					{ "time": 3.9667, "x": 1.867, "y": 2, "curve": "stepped" },
					{ "time": 4, "x": 2, "y": 2 },
					{ "time": 4.5, "x": 0, "y": 2 },
					{ "time": 5, "x": 2, "y": 2 }
				]
			},
			"umeB8": {
				"rotate": [
					{ "time": 0, "angle": 36 },
					{ "time": 0.4667, "angle": 2.4, "curve": "stepped" },
					{ "time": 0.5, "angle": 0 },
					{ "time": 3, "angle": 180 },
					{ "time": 5, "angle": 36 }
				],
				"translate": [
					{
						"time": 0,
						"x": 583.7,
						"y": -563.46,
						"curve": [ 0.411, 0.41, 0.749, 0.75 ]
					},
					{ "time": 0.4667, "x": 564.05, "y": -747.93, "curve": "stepped" },
					{
						"time": 0.5,
						"x": 723.54,
						"y": 749.58,
						"curve": [ 0.237, 0, 0.794, 0.73 ]
					},
					{ "time": 5, "x": 583.7, "y": -563.46 }
				],
				"scale": [
					{ "time": 0, "x": 0, "y": 2 },
					{ "time": 0.4667, "x": 1.867, "y": 2, "curve": "stepped" },
					{ "time": 0.5, "x": 2, "y": 2 },
					{ "time": 1, "x": 0, "y": 2 },
					{ "time": 1.5, "x": 2, "y": 2 },
					{ "time": 2, "x": 0, "y": 2 },
					{ "time": 2.5, "x": 2, "y": 2 },
					{ "time": 3, "x": 0, "y": 2 },
					{ "time": 3.5, "x": 2, "y": 2 },
					{ "time": 4, "x": 0, "y": 2 },
					{ "time": 4.5, "x": 2, "y": 2 },
					{ "time": 5, "x": 0, "y": 2 }
				]
			},
			"umeB9": {
				"rotate": [
					{ "time": 0, "angle": -36 },
					{ "time": 2, "angle": 180 },
					{ "time": 4.4667, "angle": 2.4, "curve": "stepped" },
					{ "time": 4.5, "angle": 0 },
					{ "time": 5, "angle": -36 }
				],
				"translate": [
					{
						"time": 0,
						"x": 966.49,
						"y": 700.11,
						"curve": [ 0.31, 0.14, 0.87, 0.84 ]
					},
					{ "time": 4.4667, "x": 1014.65, "y": -747.75, "curve": "stepped" },
					{
						"time": 4.5,
						"x": 964.84,
						"y": 749.58,
						"curve": [ 0.293, 0, 0.63, 0.35 ]
					},
					{ "time": 5, "x": 966.49, "y": 700.11 }
				],
				"scale": [
					{ "time": 0, "x": 0, "y": 2 },
					{ "time": 0.5, "x": 2, "y": 2 },
					{ "time": 1, "x": 0, "y": 2 },
					{ "time": 1.5, "x": 2, "y": 2 },
					{ "time": 2, "x": 0, "y": 2 },
					{ "time": 2.5, "x": 2, "y": 2 },
					{ "time": 3, "x": 0, "y": 2 },
					{ "time": 3.5, "x": 2, "y": 2 },
					{ "time": 4, "x": 0, "y": 2 },
					{ "time": 4.4667, "x": 1.867, "y": 2, "curve": "stepped" },
					{ "time": 4.5, "x": 2, "y": 2 },
					{ "time": 5, "x": 0, "y": 2 }
				]
			},
			"umeB10": {
				"rotate": [
					{ "time": 0, "angle": 180 },
					{ "time": 2.4667, "angle": 2.4, "curve": "stepped" },
					{ "time": 2.5, "angle": 0 },
					{ "time": 5, "angle": 180 }
				],
				"translate": [
					{
						"time": 0,
						"x": 1189.32,
						"y": 164.63,
						"curve": [ 0.444, 0.4, 0.855, 0.85 ]
					},
					{ "time": 2.4667, "x": 1183.23, "y": -747.98, "curve": "stepped" },
					{
						"time": 2.5,
						"x": 1193.22,
						"y": 749.58,
						"curve": [ 0.229, 0, 0.629, 0.48 ]
					},
					{ "time": 5, "x": 1189.32, "y": 164.63 }
				],
				"scale": [
					{ "time": 0, "x": 0, "y": 2 },
					{ "time": 0.5, "x": 2, "y": 2 },
					{ "time": 1, "x": 0, "y": 2 },
					{ "time": 1.5, "x": 2, "y": 2 },
					{ "time": 2, "x": 0, "y": 2 },
					{ "time": 2.4667, "x": 1.867, "y": 2, "curve": "stepped" },
					{ "time": 2.5, "x": 2, "y": 2 },
					{ "time": 3, "x": 0, "y": 2 },
					{ "time": 3.5, "x": 2, "y": 2 },
					{ "time": 4, "x": 0, "y": 2 },
					{ "time": 4.5, "x": 2, "y": 2 },
					{ "time": 5, "x": 0, "y": 2 }
				]
			},
			"umeA2": {
				"rotate": [
					{ "time": 0, "angle": 60 },
					{ "time": 0.8, "angle": 2.4, "curve": "stepped" },
					{ "time": 0.8333, "angle": 0 },
					{ "time": 3.3333, "angle": 180 },
					{ "time": 5, "angle": 60 }
				],
				"translate": [
					{
						"time": 0,
						"x": 545.05,
						"y": -434.54,
						"curve": [ 0.438, 0.43, 0.783, 0.78 ]
					},
					{ "time": 0.8, "x": 595.47, "y": -747.98, "curve": "stepped" },
					{
						"time": 0.8333,
						"x": 354.58,
						"y": 749.58,
						"curve": [ 0.232, 0, 0.752, 0.67 ]
					},
					{ "time": 5, "x": 545.05, "y": -434.54 }
				],
				"scale": [
					{ "time": 0, "x": 0.667, "y": 1 },
					{ "time": 0.3333, "x": 0, "y": 1 },
					{ "time": 0.8, "x": 0.933, "y": 1, "curve": "stepped" },
					{ "time": 0.8333, "x": 1, "y": 1 },
					{ "time": 1.3333, "x": 0, "y": 1 },
					{ "time": 1.8333, "x": 1, "y": 1 },
					{ "time": 2.3333, "x": 0, "y": 1 },
					{ "time": 2.8333, "x": 1, "y": 1 },
					{ "time": 3.3333, "x": 0, "y": 1 },
					{ "time": 3.8333, "x": 1, "y": 1 },
					{ "time": 4.3333, "x": 0, "y": 1 },
					{ "time": 4.8333, "x": 1, "y": 1 },
					{ "time": 5, "x": 0.667, "y": 1 }
				]
			},
			"umeA3": {
				"rotate": [
					{ "time": 0, "angle": 96 },
					{ "time": 1.3, "angle": 2.4, "curve": "stepped" },
					{ "time": 1.3333, "angle": 0 },
					{ "time": 3.8333, "angle": 180 },
					{ "time": 5, "angle": 96 }
				],
				"translate": [
					{
						"time": 0,
						"x": 1080.23,
						"y": -246.13,
						"curve": [ 0.456, 0.44, 0.817, 0.81 ]
					},
					{ "time": 1.3, "x": 1090.62, "y": -748.01, "curve": "stepped" },
					{
						"time": 1.3333,
						"x": 1059.61,
						"y": 749.58,
						"curve": [ 0.226, 0, 0.701, 0.6 ]
					},
					{ "time": 5, "x": 1080.23, "y": -246.13 }
				],
				"scale": [
					{ "time": 0, "x": 0.333, "y": 1 },
					{ "time": 0.3333, "x": 1, "y": 1 },
					{ "time": 0.8333, "x": 0, "y": 1 },
					{ "time": 1.3, "x": 0.933, "y": 1, "curve": "stepped" },
					{ "time": 1.3333, "x": 1, "y": 1 },
					{ "time": 1.8333, "x": 0, "y": 1 },
					{ "time": 2.3333, "x": 1, "y": 1 },
					{ "time": 2.8333, "x": 0, "y": 1 },
					{ "time": 3.3333, "x": 1, "y": 1 },
					{ "time": 3.8333, "x": 0, "y": 1 },
					{ "time": 4.3333, "x": 1, "y": 1 },
					{ "time": 4.8333, "x": 0, "y": 1 },
					{ "time": 5, "x": 0.333, "y": 1 }
				]
			},
			"umeA4": {
				"rotate": [
					{ "time": 0, "angle": 132 },
					{ "time": 1.8, "angle": 2.4, "curve": "stepped" },
					{ "time": 1.8333, "angle": 0 },
					{ "time": 4.3333, "angle": 180 },
					{ "time": 5, "angle": 132 }
				],
				"translate": [
					{
						"time": 0,
						"x": 847.23,
						"y": -67.67,
						"curve": [ 0.454, 0.43, 0.832, 0.83 ]
					},
					{ "time": 1.8, "x": 873.17, "y": -754.36, "curve": "stepped" },
					{
						"time": 1.8333,
						"x": 816.35,
						"y": 749.58,
						"curve": [ 0.225, 0, 0.662, 0.54 ]
					},
					{ "time": 5, "x": 847.23, "y": -67.67 }
				],
				"scale": [
					{ "time": 0, "x": 0.667, "y": 1 },
					{ "time": 0.3333, "x": 0, "y": 1 },
					{ "time": 0.8333, "x": 1, "y": 1 },
					{ "time": 1.3333, "x": 0, "y": 1 },
					{ "time": 1.8, "x": 0.933, "y": 1, "curve": "stepped" },
					{ "time": 1.8333, "x": 1, "y": 1 },
					{ "time": 2.3333, "x": 0, "y": 1 },
					{ "time": 2.8333, "x": 1, "y": 1 },
					{ "time": 3.3333, "x": 0, "y": 1 },
					{ "time": 3.8333, "x": 1, "y": 1 },
					{ "time": 4.3333, "x": 0, "y": 1 },
					{ "time": 4.8333, "x": 1, "y": 1 },
					{ "time": 5, "x": 0.667, "y": 1 }
				]
			},
			"umeA5": {
				"rotate": [
					{ "time": 0, "angle": 168 },
					{ "time": 2.3, "angle": 2.4, "curve": "stepped" },
					{ "time": 2.3333, "angle": 0 },
					{ "time": 4.8333, "angle": 180 },
					{ "time": 5, "angle": 168 }
				],
				"translate": [
					{
						"time": 0,
						"x": -597.55,
						"y": 109.85,
						"curve": [ 0.449, 0.41, 0.851, 0.84 ]
					},
					{ "time": 2.3, "x": -812.78, "y": -747.98, "curve": "stepped" },
					{
						"time": 2.3333,
						"x": -437.04,
						"y": 749.58,
						"curve": [ 0.227, 0, 0.636, 0.49 ]
					},
					{ "time": 5, "x": -597.55, "y": 109.85 }
				],
				"scale": [
					{ "time": 0, "x": 0.333, "y": 1 },
					{ "time": 0.3333, "x": 1, "y": 1 },
					{ "time": 0.8333, "x": 0, "y": 1 },
					{ "time": 1.3333, "x": 1, "y": 1 },
					{ "time": 1.8333, "x": 0, "y": 1 },
					{ "time": 2.3, "x": 0.933, "y": 1, "curve": "stepped" },
					{ "time": 2.3333, "x": 1, "y": 1 },
					{ "time": 2.8333, "x": 0, "y": 1 },
					{ "time": 3.3333, "x": 1, "y": 1 },
					{ "time": 3.8333, "x": 0, "y": 1 },
					{ "time": 4.3333, "x": 1, "y": 1 },
					{ "time": 4.8333, "x": 0, "y": 1 },
					{ "time": 5, "x": 0.333, "y": 1 }
				]
			},
			"umeA6": {
				"rotate": [
					{ "time": 0, "angle": -156 },
					{ "time": 0.3333, "angle": 180 },
					{ "time": 2.8, "angle": 2.4, "curve": "stepped" },
					{ "time": 2.8333, "angle": 0 },
					{ "time": 5, "angle": -156 }
				],
				"translate": [
					{
						"time": 0,
						"x": -599.55,
						"y": 274.18,
						"curve": [ 0.431, 0.38, 0.861, 0.85 ]
					},
					{ "time": 2.8, "x": -434.82, "y": -747.93, "curve": "stepped" },
					{
						"time": 2.8333,
						"x": -676.17,
						"y": 749.58,
						"curve": [ 0.233, 0, 0.617, 0.45 ]
					},
					{ "time": 5, "x": -599.55, "y": 274.18 }
				],
				"scale": [
					{ "time": 0, "x": 0.667, "y": 1 },
					{ "time": 0.3333, "x": 0, "y": 1 },
					{ "time": 0.8333, "x": 1, "y": 1 },
					{ "time": 1.3333, "x": 0, "y": 1 },
					{ "time": 1.8333, "x": 1, "y": 1 },
					{ "time": 2.3333, "x": 0, "y": 1 },
					{ "time": 2.8, "x": 0.933, "y": 1, "curve": "stepped" },
					{ "time": 2.8333, "x": 1, "y": 1 },
					{ "time": 3.3333, "x": 0, "y": 1 },
					{ "time": 3.8333, "x": 1, "y": 1 },
					{ "time": 4.3333, "x": 0, "y": 1 },
					{ "time": 4.8333, "x": 1, "y": 1 },
					{ "time": 5, "x": 0.667, "y": 1 }
				]
			},
			"umeA7": {
				"rotate": [
					{ "time": 0, "angle": -120 },
					{ "time": 0.8333, "angle": 180 },
					{ "time": 3.3, "angle": 2.4, "curve": "stepped" },
					{ "time": 3.3333, "angle": 0 },
					{ "time": 5, "angle": -120 }
				],
				"translate": [
					{
						"time": 0,
						"x": 575.19,
						"y": 424.61,
						"curve": [ 0.405, 0.33, 0.866, 0.85 ]
					},
					{ "time": 3.3, "x": 374.48, "y": -747.89, "curve": "stepped" },
					{
						"time": 3.3333,
						"x": 630.82,
						"y": 749.58,
						"curve": [ 0.243, 0, 0.608, 0.42 ]
					},
					{ "time": 5, "x": 575.19, "y": 424.61 }
				],
				"scale": [
					{ "time": 0, "x": 0.333, "y": 1 },
					{ "time": 0.3333, "x": 1, "y": 1 },
					{ "time": 0.8333, "x": 0, "y": 1 },
					{ "time": 1.3333, "x": 1, "y": 1 },
					{ "time": 1.8333, "x": 0, "y": 1 },
					{ "time": 2.3333, "x": 1, "y": 1 },
					{ "time": 2.8333, "x": 0, "y": 1 },
					{ "time": 3.3, "x": 0.933, "y": 1, "curve": "stepped" },
					{ "time": 3.3333, "x": 1, "y": 1 },
					{ "time": 3.8333, "x": 0, "y": 1 },
					{ "time": 4.3333, "x": 1, "y": 1 },
					{ "time": 4.8333, "x": 0, "y": 1 },
					{ "time": 5, "x": 0.333, "y": 1 }
				]
			},
			"umeA8": {
				"rotate": [
					{ "time": 0, "angle": -84 },
					{ "time": 1.3333, "angle": 180 },
					{ "time": 3.8, "angle": 2.4, "curve": "stepped" },
					{ "time": 3.8333, "angle": 0 },
					{ "time": 5, "angle": -84 }
				],
				"translate": [
					{
						"time": 0,
						"x": -1170.63,
						"y": 558.66,
						"curve": [ 0.371, 0.27, 0.87, 0.85 ]
					},
					{ "time": 3.8, "x": -1112.1, "y": -747.83, "curve": "stepped" },
					{
						"time": 3.8333,
						"x": -1179.18,
						"y": 749.58,
						"curve": [ 0.259, 0, 0.609, 0.39 ]
					},
					{ "time": 5, "x": -1170.63, "y": 558.66 }
				],
				"scale": [
					{ "time": 0, "x": 0.667, "y": 1 },
					{ "time": 0.3333, "x": 0, "y": 1 },
					{ "time": 0.8333, "x": 1, "y": 1 },
					{ "time": 1.3333, "x": 0, "y": 1 },
					{ "time": 1.8333, "x": 1, "y": 1 },
					{ "time": 2.3333, "x": 0, "y": 1 },
					{ "time": 2.8333, "x": 1, "y": 1 },
					{ "time": 3.3333, "x": 0, "y": 1 },
					{ "time": 3.8, "x": 0.933, "y": 1, "curve": "stepped" },
					{ "time": 3.8333, "x": 1, "y": 1 },
					{ "time": 4.3333, "x": 0, "y": 1 },
					{ "time": 4.8333, "x": 1, "y": 1 },
					{ "time": 5, "x": 0.667, "y": 1 }
				]
			},
			"umeA9": {
				"rotate": [
					{ "time": 0, "angle": -48 },
					{ "time": 1.8333, "angle": 180 },
					{ "time": 4.3, "angle": 2.4, "curve": "stepped" },
					{ "time": 4.3333, "angle": 0 },
					{ "time": 5, "angle": -48 }
				],
				"translate": [
					{
						"time": 0,
						"x": 207.58,
						"y": 668.42,
						"curve": [ 0.327, 0.18, 0.87, 0.84 ]
					},
					{ "time": 4.3, "x": 160.62, "y": -747.78, "curve": "stepped" },
					{
						"time": 4.3333,
						"x": 210.27,
						"y": 749.58,
						"curve": [ 0.283, 0, 0.622, 0.36 ]
					},
					{ "time": 5, "x": 207.58, "y": 668.42 }
				],
				"scale": [
					{ "time": 0, "x": 0.333, "y": 1 },
					{ "time": 0.3333, "x": 1, "y": 1 },
					{ "time": 0.8333, "x": 0, "y": 1 },
					{ "time": 1.3333, "x": 1, "y": 1 },
					{ "time": 1.8333, "x": 0, "y": 1 },
					{ "time": 2.3333, "x": 1, "y": 1 },
					{ "time": 2.8333, "x": 0, "y": 1 },
					{ "time": 3.3333, "x": 1, "y": 1 },
					{ "time": 3.8333, "x": 0, "y": 1 },
					{ "time": 4.3, "x": 0.933, "y": 1, "curve": "stepped" },
					{ "time": 4.3333, "x": 1, "y": 1 },
					{ "time": 4.8333, "x": 0, "y": 1 },
					{ "time": 5, "x": 0.333, "y": 1 }
				]
			},
			"umeA10": {
				"rotate": [
					{ "time": 0, "angle": -12 },
					{ "time": 2.3333, "angle": 180 },
					{ "time": 4.8, "angle": 2.4, "curve": "stepped" },
					{ "time": 4.8333, "angle": 0 },
					{ "time": 5, "angle": -12 }
				],
				"translate": [
					{
						"time": 0,
						"x": -916.77,
						"y": 735.7,
						"curve": [ 0.271, 0.05, 0.869, 0.83 ]
					},
					{ "time": 4.8, "x": -632.59, "y": -747.83, "curve": "stepped" },
					{
						"time": 4.8333,
						"x": -919.43,
						"y": 749.58,
						"curve": [ 0.318, 0, 0.652, 0.34 ]
					},
					{ "time": 5, "x": -916.77, "y": 735.7 }
				],
				"scale": [
					{ "time": 0, "x": 0.667, "y": 1 },
					{ "time": 0.3333, "x": 0, "y": 1 },
					{ "time": 0.8333, "x": 1, "y": 1 },
					{ "time": 1.3333, "x": 0, "y": 1 },
					{ "time": 1.8333, "x": 1, "y": 1 },
					{ "time": 2.3333, "x": 0, "y": 1 },
					{ "time": 2.8333, "x": 1, "y": 1 },
					{ "time": 3.3333, "x": 0, "y": 1 },
					{ "time": 3.8333, "x": 1, "y": 1 },
					{ "time": 4.3333, "x": 0, "y": 1 },
					{ "time": 4.8, "x": 0.933, "y": 1, "curve": "stepped" },
					{ "time": 4.8333, "x": 1, "y": 1 },
					{ "time": 5, "x": 0.667, "y": 1 }
				]
			}
		}
	}
}
}