{
"skeleton": { "hash": "bNY2a9/3FF1z8WlAVRfZv1k+8cQ", "spine": "3.6.53", "width": 4096, "height": 1054 },
"bones": [
	{ "name": "root" },
	{ "name": "main_bg_bottom", "parent": "root", "length": 100 },
	{ "name": "main_bg_center", "parent": "root", "length": 100 },
	{ "name": "main_bg_flower01", "parent": "root", "length": 100 },
	{ "name": "main_bg_flower02", "parent": "root", "length": 100 },
	{ "name": "main_bg_leaf01", "parent": "root", "length": 100 },
	{ "name": "main_bg_leaf02", "parent": "root", "length": 100 },
	{ "name": "main_bg_left", "parent": "root", "length": 100 },
	{ "name": "main_bg_rain", "parent": "root", "length": 100 },
	{ "name": "main_bg_rain01", "parent": "main_bg_rain", "length": 100 },
	{ "name": "main_bg_rain02", "parent": "main_bg_rain", "length": 100 },
	{ "name": "main_bg_rain03", "parent": "main_bg_rain", "length": 100 },
	{ "name": "main_bg_rain04", "parent": "main_bg_rain", "length": 100 },
	{ "name": "main_bg_rain05", "parent": "main_bg_rain", "length": 100 },
	{ "name": "main_bg_rain06", "parent": "main_bg_rain", "length": 100 },
	{ "name": "main_bg_rain07", "parent": "main_bg_rain", "length": 100 },
	{ "name": "main_bg_rain08", "parent": "main_bg_rain", "length": 100 },
	{ "name": "main_bg_rain09", "parent": "main_bg_rain", "length": 100 },
	{ "name": "main_bg_rain10", "parent": "main_bg_rain", "length": 100 },
	{ "name": "main_bg_rain11", "parent": "main_bg_rain", "length": 100 },
	{ "name": "main_bg_rain12", "parent": "main_bg_rain", "length": 100 },
	{ "name": "main_bg_rain13", "parent": "main_bg_rain", "length": 100 },
	{ "name": "main_bg_rain14", "parent": "main_bg_rain", "length": 100 },
	{ "name": "main_bg_rain15", "parent": "main_bg_rain", "length": 100 },
	{ "name": "main_bg_rain16", "parent": "main_bg_rain", "length": 100 },
	{ "name": "main_bg_rain17", "parent": "main_bg_rain", "length": 100 },
	{ "name": "main_bg_rain18", "parent": "main_bg_rain", "length": 100 },
	{ "name": "main_bg_right", "parent": "root", "length": 100 },
	{ "name": "main_bg_top", "parent": "root", "length": 100 }
],
"slots": [
	{ "name": "main_bg_bottom_000", "bone": "main_bg_bottom", "attachment": "main_bg_bottom_000" },
	{ "name": "main_bg_center_000", "bone": "main_bg_center", "attachment": "main_bg_center_000" },
	{ "name": "main_bg_left_000", "bone": "main_bg_left", "attachment": "main_bg_left_000" },
	{ "name": "main_bg_right_000", "bone": "main_bg_right", "attachment": "main_bg_right_000" },
	{ "name": "main_bg_top_000", "bone": "main_bg_top", "attachment": "main_bg_top_000" },
	{ "name": "main_bg_flower_01", "bone": "main_bg_flower01", "attachment": "main_bg_flower_000" },
	{ "name": "main_bg_flower_02", "bone": "main_bg_flower02", "attachment": "main_bg_flower_000" },
	{ "name": "main_bg_leaf_01", "bone": "main_bg_leaf01", "attachment": "main_bg_leaf_000" },
	{ "name": "main_bg_leaf_02", "bone": "main_bg_leaf02", "attachment": "main_bg_leaf_000" },
	{ "name": "main_bg_rain_01", "bone": "main_bg_rain01", "attachment": "main_bg_rain_000", "blend": "additive" },
	{ "name": "main_bg_rain_16", "bone": "main_bg_rain16", "attachment": "main_bg_rain_000", "blend": "additive" },
	{ "name": "main_bg_rain_10", "bone": "main_bg_rain10", "attachment": "main_bg_rain_000", "blend": "additive" },
	{ "name": "main_bg_rain_13", "bone": "main_bg_rain13", "attachment": "main_bg_rain_000", "blend": "additive" },
	{ "name": "main_bg_rain_11", "bone": "main_bg_rain11", "attachment": "main_bg_rain_000", "blend": "additive" },
	{ "name": "main_bg_rain_14", "bone": "main_bg_rain14", "attachment": "main_bg_rain_000", "blend": "additive" },
	{ "name": "main_bg_rain_12", "bone": "main_bg_rain12", "attachment": "main_bg_rain_000", "blend": "additive" },
	{ "name": "main_bg_rain_15", "bone": "main_bg_rain15", "attachment": "main_bg_rain_000", "blend": "additive" },
	{ "name": "main_bg_rain_02", "bone": "main_bg_rain02", "attachment": "main_bg_rain_000", "blend": "additive" },
	{ "name": "main_bg_rain_17", "bone": "main_bg_rain17", "attachment": "main_bg_rain_000", "blend": "additive" },
	{ "name": "main_bg_rain_03", "bone": "main_bg_rain03", "attachment": "main_bg_rain_000", "blend": "additive" },
	{ "name": "main_bg_rain_18", "bone": "main_bg_rain18", "attachment": "main_bg_rain_000", "blend": "additive" },
	{ "name": "main_bg_rain_04", "bone": "main_bg_rain04", "attachment": "main_bg_rain_000", "blend": "additive" },
	{ "name": "main_bg_rain_05", "bone": "main_bg_rain05", "attachment": "main_bg_rain_000", "blend": "additive" },
	{ "name": "main_bg_rain_06", "bone": "main_bg_rain06", "attachment": "main_bg_rain_000", "blend": "additive" },
	{ "name": "main_bg_rain_07", "bone": "main_bg_rain07", "attachment": "main_bg_rain_000", "blend": "additive" },
	{ "name": "main_bg_rain_08", "bone": "main_bg_rain08", "attachment": "main_bg_rain_000", "blend": "additive" },
	{ "name": "main_bg_rain_09", "bone": "main_bg_rain09", "attachment": "main_bg_rain_000", "blend": "additive" }
],
"skins": {
	"default": {
		"main_bg_bottom_000": {
			"main_bg_bottom_000": { "width": 4096, "height": 812 }
		},
		"main_bg_center_000": {
			"main_bg_center_000": { "width": 2000, "height": 1008 }
		},
		"main_bg_flower_01": {
			"main_bg_flower_000": { "x": -25, "y": 275, "width": 300, "height": 550 }
		},
		"main_bg_flower_02": {
			"main_bg_flower_000": { "x": -25, "y": 275, "width": 300, "height": 550 }
		},
		"main_bg_leaf_01": {
			"main_bg_leaf_000": { "width": 100, "height": 200 }
		},
		"main_bg_leaf_02": {
			"main_bg_leaf_000": { "width": 100, "height": 200 }
		},
		"main_bg_left_000": {
			"main_bg_left_000": { "width": 1048, "height": 1008 }
		},
		"main_bg_rain_01": {
			"main_bg_rain_000": { "width": 300, "height": 800 }
		},
		"main_bg_rain_02": {
			"main_bg_rain_000": { "width": 300, "height": 800 }
		},
		"main_bg_rain_03": {
			"main_bg_rain_000": { "width": 300, "height": 800 }
		},
		"main_bg_rain_04": {
			"main_bg_rain_000": { "width": 300, "height": 800 }
		},
		"main_bg_rain_05": {
			"main_bg_rain_000": { "width": 300, "height": 800 }
		},
		"main_bg_rain_06": {
			"main_bg_rain_000": { "width": 300, "height": 800 }
		},
		"main_bg_rain_07": {
			"main_bg_rain_000": { "width": 300, "height": 800 }
		},
		"main_bg_rain_08": {
			"main_bg_rain_000": { "width": 300, "height": 800 }
		},
		"main_bg_rain_09": {
			"main_bg_rain_000": { "width": 300, "height": 800 }
		},
		"main_bg_rain_10": {
			"main_bg_rain_000": { "width": 300, "height": 800 }
		},
		"main_bg_rain_11": {
			"main_bg_rain_000": { "width": 300, "height": 800 }
		},
		"main_bg_rain_12": {
			"main_bg_rain_000": { "width": 300, "height": 800 }
		},
		"main_bg_rain_13": {
			"main_bg_rain_000": { "width": 300, "height": 800 }
		},
		"main_bg_rain_14": {
			"main_bg_rain_000": { "width": 300, "height": 800 }
		},
		"main_bg_rain_15": {
			"main_bg_rain_000": { "width": 300, "height": 800 }
		},
		"main_bg_rain_16": {
			"main_bg_rain_000": { "width": 300, "height": 800 }
		},
		"main_bg_rain_17": {
			"main_bg_rain_000": { "width": 300, "height": 800 }
		},
		"main_bg_rain_18": {
			"main_bg_rain_000": { "width": 300, "height": 800 }
		},
		"main_bg_right_000": {
			"main_bg_right_000": { "width": 1048, "height": 1008 }
		},
		"main_bg_top_000": {
			"main_bg_top_000": { "width": 4096, "height": 772 }
		}
	}
},
"animations": {
	"animation": {
		"bones": {
			"main_bg_top": {
				"translate": [
					{ "time": 0, "x": 0, "y": 910 }
				]
			},
			"main_bg_center": {
				"translate": [
					{ "time": 0, "x": 0, "y": 20 }
				]
			},
			"main_bg_left": {
				"translate": [
					{ "time": 0, "x": -1524, "y": 20 }
				]
			},
			"main_bg_right": {
				"translate": [
					{ "time": 0, "x": 1524, "y": 20 }
				]
			},
			"main_bg_bottom": {
				"translate": [
					{ "time": 0, "x": 0, "y": -890 }
				]
			},
			"main_bg_leaf01": {
				"translate": [
					{ "time": 0, "x": -1153.7, "y": -686 }
				]
			},
			"main_bg_flower01": {
				"rotate": [
					{
						"time": 0,
						"angle": 0,
						"curve": [ 0.25, 0, 0.75, 1 ]
					},
					{
						"time": 1,
						"angle": 2.5,
						"curve": [ 0.25, 0, 0.75, 1 ]
					},
					{ "time": 2, "angle": 0 }
				],
				"translate": [
					{ "time": 0, "x": -1156.19, "y": -744 }
				]
			},
			"main_bg_leaf02": {
				"translate": [
					{ "time": 0, "x": 1154.59, "y": -686 }
				],
				"scale": [
					{ "time": 0, "x": -1, "y": 1 }
				]
			},
			"main_bg_flower02": {
				"rotate": [
					{
						"time": 0,
						"angle": 1.25,
						"curve": [ 0.375, 0.5, 0.75, 1 ]
					},
					{
						"time": 0.5,
						"angle": 0,
						"curve": [ 0.25, 0, 0.75, 1 ]
					},
					{
						"time": 1.5,
						"angle": 2.5,
						"curve": [ 0.25, 0, 0.625, 0.5 ]
					},
					{ "time": 2, "angle": 1.25 }
				],
				"translate": [
					{ "time": 0, "x": 1145.38, "y": -739.97 }
				],
				"scale": [
					{ "time": 0, "x": -1, "y": 1 }
				]
			},
			"main_bg_rain01": {
				"translate": [
					{ "time": 0, "x": -1900, "y": 637.84 }
				],
				"scale": [
					{ "time": 0, "x": -1, "y": 1 }
				]
			},
			"main_bg_rain02": {
				"translate": [
					{ "time": 0, "x": -1559.28, "y": 560.09 }
				]
			},
			"main_bg_rain03": {
				"translate": [
					{ "time": 0, "x": -1185.24, "y": 637.84 }
				],
				"scale": [
					{ "time": 0, "x": -1, "y": 1 }
				]
			},
			"main_bg_rain04": {
				"translate": [
					{ "time": 0, "x": -810.74, "y": 881.35 }
				]
			},
			"main_bg_rain05": {
				"translate": [
					{ "time": 0, "x": -488.66, "y": 975.94 }
				],
				"scale": [
					{ "time": 0, "x": -1, "y": 1 }
				]
			},
			"main_bg_rain06": {
				"translate": [
					{ "time": 0, "x": -143.78, "y": 915.84 }
				]
			},
			"main_bg_rain07": {
				"translate": [
					{ "time": 0, "x": 212.59, "y": 1023.04 }
				],
				"scale": [
					{ "time": 0, "x": -1, "y": 1 }
				]
			},
			"main_bg_rain08": {
				"translate": [
					{ "time": 0, "x": 540.5, "y": 915.84 }
				]
			},
			"main_bg_rain09": {
				"translate": [
					{ "time": 0, "x": 836.89, "y": 972.59 }
				],
				"scale": [
					{ "time": 0, "x": -1, "y": 1 }
				]
			},
			"main_bg_rain10": {
				"translate": [
					{ "time": 0, "x": -1900, "y": -106.27 }
				],
				"scale": [
					{ "time": 0, "x": 1, "y": 1 }
				]
			},
			"main_bg_rain11": {
				"translate": [
					{ "time": 0, "x": -1559.48, "y": 51.38 }
				],
				"scale": [
					{ "time": 0, "x": -1, "y": 1 }
				]
			},
			"main_bg_rain12": {
				"translate": [
					{ "time": 0, "x": -1174.81, "y": -118.88 }
				],
				"scale": [
					{ "time": 0, "x": 1, "y": 1 }
				]
			},
			"main_bg_rain16": {
				"translate": [
					{ "time": 0, "x": 1473.71, "y": 637.84 }
				],
				"scale": [
					{ "time": 0, "x": -1, "y": 1 }
				]
			},
			"main_bg_rain17": {
				"translate": [
					{ "time": 0, "x": 1164.91, "y": 560.09 }
				]
			},
			"main_bg_rain18": {
				"translate": [
					{ "time": 0, "x": 1879.48, "y": 637.84 }
				],
				"scale": [
					{ "time": 0, "x": -1, "y": 1 }
				]
			},
			"main_bg_rain13": {
				"translate": [
					{ "time": 0, "x": 1517.85, "y": -106.27 }
				],
				"scale": [
					{ "time": 0, "x": 1, "y": 1 }
				]
			},
			"main_bg_rain14": {
				"translate": [
					{ "time": 0, "x": 1164.72, "y": 51.38 }
				],
				"scale": [
					{ "time": 0, "x": -1, "y": 1 }
				]
			},
			"main_bg_rain15": {
				"translate": [
					{ "time": 0, "x": 1845.76, "y": -118.88 }
				],
				"scale": [
					{ "time": 0, "x": 1, "y": 1 }
				]
			},
			"main_bg_rain": {
				"scale": [
					{ "time": 0, "x": 1, "y": 1, "curve": "stepped" },
					{ "time": 0.0667, "x": 1, "y": 1, "curve": "stepped" },
					{ "time": 0.1, "x": -1, "y": 1, "curve": "stepped" },
					{ "time": 0.1667, "x": -1, "y": 1, "curve": "stepped" },
					{ "time": 0.2, "x": 1, "y": 1, "curve": "stepped" },
					{ "time": 0.2667, "x": 1, "y": 1, "curve": "stepped" },
					{ "time": 0.3, "x": -1, "y": 1, "curve": "stepped" },
					{ "time": 0.3667, "x": -1, "y": 1, "curve": "stepped" },
					{ "time": 0.4, "x": 1, "y": 1, "curve": "stepped" },
					{ "time": 0.4667, "x": 1, "y": 1, "curve": "stepped" },
					{ "time": 0.5, "x": -1, "y": 1, "curve": "stepped" },
					{ "time": 0.5667, "x": -1, "y": 1, "curve": "stepped" },
					{ "time": 0.6, "x": 1, "y": 1, "curve": "stepped" },
					{ "time": 0.6667, "x": 1, "y": 1, "curve": "stepped" },
					{ "time": 0.7, "x": -1, "y": 1, "curve": "stepped" },
					{ "time": 0.7667, "x": -1, "y": 1, "curve": "stepped" },
					{ "time": 0.8, "x": 1, "y": 1, "curve": "stepped" },
					{ "time": 0.8667, "x": 1, "y": 1, "curve": "stepped" },
					{ "time": 0.9, "x": -1, "y": 1, "curve": "stepped" },
					{ "time": 0.9667, "x": -1, "y": 1, "curve": "stepped" },
					{ "time": 1, "x": 1, "y": 1, "curve": "stepped" },
					{ "time": 1.0667, "x": 1, "y": 1, "curve": "stepped" },
					{ "time": 1.1, "x": -1, "y": 1, "curve": "stepped" },
					{ "time": 1.1667, "x": -1, "y": 1, "curve": "stepped" },
					{ "time": 1.2, "x": 1, "y": 1, "curve": "stepped" },
					{ "time": 1.2667, "x": 1, "y": 1, "curve": "stepped" },
					{ "time": 1.3, "x": -1, "y": 1, "curve": "stepped" },
					{ "time": 1.3667, "x": -1, "y": 1, "curve": "stepped" },
					{ "time": 1.4, "x": 1, "y": 1, "curve": "stepped" },
					{ "time": 1.4667, "x": 1, "y": 1, "curve": "stepped" },
					{ "time": 1.5, "x": -1, "y": 1, "curve": "stepped" },
					{ "time": 1.5667, "x": -1, "y": 1, "curve": "stepped" },
					{ "time": 1.6, "x": 1, "y": 1, "curve": "stepped" },
					{ "time": 1.6667, "x": 1, "y": 1, "curve": "stepped" },
					{ "time": 1.7, "x": -1, "y": 1, "curve": "stepped" },
					{ "time": 1.7667, "x": -1, "y": 1, "curve": "stepped" },
					{ "time": 1.8, "x": 1, "y": 1, "curve": "stepped" },
					{ "time": 1.8667, "x": 1, "y": 1, "curve": "stepped" },
					{ "time": 1.9, "x": -1, "y": 1, "curve": "stepped" },
					{ "time": 1.9667, "x": -1, "y": 1 }
				]
			}
		}
	}
}
}