{
"skeleton": { "hash": "bnstq/ii3EyCFH4SCl9u/WJ4CKk", "spine": "3.6.53", "width": 400, "height": 336 },
"bones": [
	{ "name": "root" },
	{ "name": "CS_selectframe01", "parent": "root", "length": 100 },
	{ "name": "CS_sym_blank_effA01", "parent": "root", "length": 100 },
	{ "name": "CS_sym_blank_effB01", "parent": "root", "length": 100 },
	{ "name": "symbol1_single01", "parent": "root", "length": 100 }
],
"slots": [
	{ "name": "CS_selectframe01", "bone": "CS_selectframe01", "attachment": "CS_sym_blank_000" },
	{ "name": "symbol1_single01", "bone": "symbol1_single01", "attachment": "CS_chra_000" },
	{ "name": "CS_sym_blank_effA01", "bone": "CS_sym_blank_effA01", "attachment": "CS_sym_blank_effA_000", "blend": "additive" },
	{ "name": "CS_sym_blank_effB01", "bone": "CS_sym_blank_effB01", "attachment": "CS_sym_blank_effB_000", "blend": "additive" }
],
"skins": {
	"default": {
		"CS_selectframe01": {
			"CS_sym_blank_000": { "width": 400, "height": 336 }
		},
		"CS_sym_blank_effA01": {
			"CS_sym_blank_effA_000": { "width": 250, "height": 250 }
		},
		"CS_sym_blank_effB01": {
			"CS_sym_blank_effB_000": { "width": 200, "height": 168 }
		},
		"symbol1_single01": {
			"CS_chra_000": { "width": 400, "height": 336 },
			"CS_chra_001": { "width": 400, "height": 336 },
			"CS_chra_002": { "width": 400, "height": 336 },
			"CS_chra_003": { "width": 400, "height": 336 },
			"CS_chra_004": { "width": 400, "height": 336 }
		}
	}
},
"animations": {
	"CS_selectframe01_loop": {
		"slots": {
			"CS_sym_blank_effA01": {
				"color": [
					{
						"time": 0,
						"color": "ffffff00",
						"curve": [ 0.25, 0, 0.75, 1 ]
					},
					{
						"time": 0.6667,
						"color": "ffffffff",
						"curve": [ 0.25, 0, 0.75, 1 ]
					},
					{ "time": 1, "color": "ffffff00" }
				]
			},
			"CS_sym_blank_effB01": {
				"color": [
					{ "time": 0, "color": "ffffff00" }
				]
			},
			"symbol1_single01": {
				"color": [
					{ "time": 0, "color": "ffffff00" }
				]
			}
		},
		"bones": {
			"CS_selectframe01": {
				"translate": [
					{ "time": 0, "x": -680, "y": -258 }
				],
				"scale": [
					{ "time": 0, "x": 0.8, "y": 0.8 }
				]
			},
			"CS_sym_blank_effA01": {
				"translate": [
					{ "time": 0, "x": -680, "y": -258 }
				],
				"scale": [
					{
						"time": 0,
						"x": 1.6,
						"y": 1.6,
						"curve": [ 0.25, 0, 0.75, 1 ]
					},
					{ "time": 1, "x": 1.8, "y": 1.8 }
				]
			}
		}
	},
	"CS_selectframe01_select01": {
		"slots": {
			"CS_selectframe01": {
				"color": [
					{ "time": 0, "color": "ffffff00" }
				]
			},
			"CS_sym_blank_effA01": {
				"color": [
					{ "time": 0, "color": "ffffff98" },
					{ "time": 0.3333, "color": "ffffffcb" },
					{ "time": 0.6667, "color": "ffffff98" },
					{ "time": 1, "color": "ffffffcb" },
					{ "time": 1.3333, "color": "ffffff98" }
				]
			},
			"CS_sym_blank_effB01": {
				"color": [
					{ "time": 0, "color": "ffffffff" },
					{ "time": 0.3333, "color": "ffffff00" }
				]
			}
		},
		"bones": {
			"CS_selectframe01": {
				"translate": [
					{ "time": 0, "x": -680, "y": -258 }
				],
				"scale": [
					{ "time": 0, "x": 0.8, "y": 0.8 }
				]
			},
			"CS_sym_blank_effA01": {
				"translate": [
					{ "time": 0, "x": -680, "y": -258 }
				],
				"scale": [
					{ "time": 0, "x": 1.6, "y": 1.6 }
				]
			},
			"CS_sym_blank_effB01": {
				"translate": [
					{ "time": 0, "x": -680, "y": -258 }
				],
				"scale": [
					{ "time": 0, "x": 1.6, "y": 1.6 }
				]
			},
			"symbol1_single01": {
				"translate": [
					{ "time": 0, "x": -680, "y": -258 }
				],
				"scale": [
					{ "time": 0, "x": 0.8, "y": 0.8 }
				]
			}
		}
	},
	"CS_selectframe01_select02": {
		"slots": {
			"CS_selectframe01": {
				"color": [
					{ "time": 0, "color": "ffffff00" }
				]
			},
			"CS_sym_blank_effA01": {
				"color": [
					{ "time": 0, "color": "ffffff98" },
					{ "time": 0.3333, "color": "ffffffcb" },
					{ "time": 0.6667, "color": "ffffff98" },
					{ "time": 1, "color": "ffffffcb" },
					{ "time": 1.3333, "color": "ffffff98" }
				]
			},
			"CS_sym_blank_effB01": {
				"color": [
					{ "time": 0, "color": "ffffffff" },
					{ "time": 0.3333, "color": "ffffff00" }
				]
			},
			"symbol1_single01": {
				"attachment": [
					{ "time": 0, "name": "CS_chra_001" }
				]
			}
		},
		"bones": {
			"CS_selectframe01": {
				"translate": [
					{ "time": 0, "x": -680, "y": -258 }
				],
				"scale": [
					{ "time": 0, "x": 0.8, "y": 0.8 }
				]
			},
			"CS_sym_blank_effA01": {
				"translate": [
					{ "time": 0, "x": -680, "y": -258 }
				],
				"scale": [
					{ "time": 0, "x": 1.6, "y": 1.6 }
				]
			},
			"CS_sym_blank_effB01": {
				"translate": [
					{ "time": 0, "x": -680, "y": -258 }
				],
				"scale": [
					{ "time": 0, "x": 1.6, "y": 1.6 }
				]
			},
			"symbol1_single01": {
				"translate": [
					{ "time": 0, "x": -680, "y": -258 }
				],
				"scale": [
					{ "time": 0, "x": 0.8, "y": 0.8 }
				]
			}
		}
	},
	"CS_selectframe01_select03": {
		"slots": {
			"CS_selectframe01": {
				"color": [
					{ "time": 0, "color": "ffffff00" }
				]
			},
			"CS_sym_blank_effA01": {
				"color": [
					{ "time": 0, "color": "ffffff98" },
					{ "time": 0.3333, "color": "ffffffcb" },
					{ "time": 0.6667, "color": "ffffff98" },
					{ "time": 1, "color": "ffffffcb" },
					{ "time": 1.3333, "color": "ffffff98" }
				]
			},
			"CS_sym_blank_effB01": {
				"color": [
					{ "time": 0, "color": "ffffffff" },
					{ "time": 0.3333, "color": "ffffff00" }
				]
			},
			"symbol1_single01": {
				"attachment": [
					{ "time": 0, "name": "CS_chra_002" }
				]
			}
		},
		"bones": {
			"CS_selectframe01": {
				"translate": [
					{ "time": 0, "x": -680, "y": -258 }
				],
				"scale": [
					{ "time": 0, "x": 0.8, "y": 0.8 }
				]
			},
			"CS_sym_blank_effA01": {
				"translate": [
					{ "time": 0, "x": -680, "y": -258 }
				],
				"scale": [
					{ "time": 0, "x": 1.6, "y": 1.6 }
				]
			},
			"CS_sym_blank_effB01": {
				"translate": [
					{ "time": 0, "x": -680, "y": -258 }
				],
				"scale": [
					{ "time": 0, "x": 1.6, "y": 1.6 }
				]
			},
			"symbol1_single01": {
				"translate": [
					{ "time": 0, "x": -680, "y": -258 }
				],
				"scale": [
					{ "time": 0, "x": 0.8, "y": 0.8 }
				]
			}
		}
	},
	"CS_selectframe01_select04": {
		"slots": {
			"CS_selectframe01": {
				"color": [
					{ "time": 0, "color": "ffffff00" }
				]
			},
			"CS_sym_blank_effA01": {
				"color": [
					{ "time": 0, "color": "ffffff98" },
					{ "time": 0.3333, "color": "ffffffcb" },
					{ "time": 0.6667, "color": "ffffff98" },
					{ "time": 1, "color": "ffffffcb" },
					{ "time": 1.3333, "color": "ffffff98" }
				]
			},
			"CS_sym_blank_effB01": {
				"color": [
					{ "time": 0, "color": "ffffffff" },
					{ "time": 0.3333, "color": "ffffff00" }
				]
			},
			"symbol1_single01": {
				"attachment": [
					{ "time": 0, "name": "CS_chra_003" }
				]
			}
		},
		"bones": {
			"CS_selectframe01": {
				"translate": [
					{ "time": 0, "x": -680, "y": -258 }
				],
				"scale": [
					{ "time": 0, "x": 0.8, "y": 0.8 }
				]
			},
			"CS_sym_blank_effA01": {
				"translate": [
					{ "time": 0, "x": -680, "y": -258 }
				],
				"scale": [
					{ "time": 0, "x": 1.6, "y": 1.6 }
				]
			},
			"CS_sym_blank_effB01": {
				"translate": [
					{ "time": 0, "x": -680, "y": -258 }
				],
				"scale": [
					{ "time": 0, "x": 1.6, "y": 1.6 }
				]
			},
			"symbol1_single01": {
				"translate": [
					{ "time": 0, "x": -680, "y": -258 }
				],
				"scale": [
					{ "time": 0, "x": 0.8, "y": 0.8 }
				]
			}
		}
	},
	"CS_selectframe01_select05": {
		"slots": {
			"CS_selectframe01": {
				"color": [
					{ "time": 0, "color": "ffffff00" }
				]
			},
			"CS_sym_blank_effA01": {
				"color": [
					{ "time": 0, "color": "ffffff98" },
					{ "time": 0.3333, "color": "ffffffcb" },
					{ "time": 0.6667, "color": "ffffff98" },
					{ "time": 1, "color": "ffffffcb" },
					{ "time": 1.3333, "color": "ffffff98" }
				]
			},
			"CS_sym_blank_effB01": {
				"color": [
					{ "time": 0, "color": "ffffffff" },
					{ "time": 0.3333, "color": "ffffff00" }
				]
			},
			"symbol1_single01": {
				"attachment": [
					{ "time": 0, "name": "CS_chra_004" }
				]
			}
		},
		"bones": {
			"CS_selectframe01": {
				"translate": [
					{ "time": 0, "x": -680, "y": -258 }
				],
				"scale": [
					{ "time": 0, "x": 0.8, "y": 0.8 }
				]
			},
			"CS_sym_blank_effA01": {
				"translate": [
					{ "time": 0, "x": -680, "y": -258 }
				],
				"scale": [
					{ "time": 0, "x": 1.6, "y": 1.6 }
				]
			},
			"CS_sym_blank_effB01": {
				"translate": [
					{ "time": 0, "x": -680, "y": -258 }
				],
				"scale": [
					{ "time": 0, "x": 1.6, "y": 1.6 }
				]
			},
			"symbol1_single01": {
				"translate": [
					{ "time": 0, "x": -680, "y": -258 }
				],
				"scale": [
					{ "time": 0, "x": 0.8, "y": 0.8 }
				]
			}
		}
	},
	"CS_selectframe02_loop": {
		"slots": {
			"CS_sym_blank_effA01": {
				"color": [
					{
						"time": 0,
						"color": "ffffff00",
						"curve": [ 0.25, 0, 0.75, 1 ]
					},
					{
						"time": 0.6667,
						"color": "ffffffff",
						"curve": [ 0.25, 0, 0.75, 1 ]
					},
					{ "time": 1, "color": "ffffff00" }
				]
			},
			"CS_sym_blank_effB01": {
				"color": [
					{ "time": 0, "color": "ffffff00" }
				]
			},
			"symbol1_single01": {
				"color": [
					{ "time": 0, "color": "ffffff00" }
				]
			}
		},
		"bones": {
			"CS_selectframe01": {
				"translate": [
					{ "time": 0, "x": -340, "y": -258 }
				],
				"scale": [
					{ "time": 0, "x": 0.8, "y": 0.8 }
				]
			},
			"CS_sym_blank_effA01": {
				"translate": [
					{ "time": 0, "x": -340, "y": -258 }
				],
				"scale": [
					{
						"time": 0,
						"x": 1.6,
						"y": 1.6,
						"curve": [ 0.25, 0, 0.75, 1 ]
					},
					{ "time": 1, "x": 1.8, "y": 1.8 }
				]
			}
		}
	},
	"CS_selectframe02_select01": {
		"slots": {
			"CS_selectframe01": {
				"color": [
					{ "time": 0, "color": "ffffff00" }
				]
			},
			"CS_sym_blank_effA01": {
				"color": [
					{ "time": 0, "color": "ffffff98" },
					{ "time": 0.3333, "color": "ffffffcb" },
					{ "time": 0.6667, "color": "ffffff98" },
					{ "time": 1, "color": "ffffffcb" },
					{ "time": 1.3333, "color": "ffffff98" }
				]
			},
			"CS_sym_blank_effB01": {
				"color": [
					{ "time": 0, "color": "ffffffff" },
					{ "time": 0.3333, "color": "ffffff00" }
				]
			}
		},
		"bones": {
			"CS_selectframe01": {
				"translate": [
					{ "time": 0, "x": -340, "y": -258 }
				],
				"scale": [
					{ "time": 0, "x": 0.8, "y": 0.8 }
				]
			},
			"CS_sym_blank_effA01": {
				"translate": [
					{ "time": 0, "x": -340, "y": -258 }
				],
				"scale": [
					{ "time": 0, "x": 1.6, "y": 1.6 }
				]
			},
			"CS_sym_blank_effB01": {
				"translate": [
					{ "time": 0, "x": -340, "y": -258 }
				],
				"scale": [
					{ "time": 0, "x": 1.6, "y": 1.6 }
				]
			},
			"symbol1_single01": {
				"translate": [
					{ "time": 0, "x": -340, "y": -258 }
				],
				"scale": [
					{ "time": 0, "x": 0.8, "y": 0.8 }
				]
			}
		}
	},
	"CS_selectframe02_select02": {
		"slots": {
			"CS_selectframe01": {
				"color": [
					{ "time": 0, "color": "ffffff00" }
				]
			},
			"CS_sym_blank_effA01": {
				"color": [
					{ "time": 0, "color": "ffffff98" },
					{ "time": 0.3333, "color": "ffffffcb" },
					{ "time": 0.6667, "color": "ffffff98" },
					{ "time": 1, "color": "ffffffcb" },
					{ "time": 1.3333, "color": "ffffff98" }
				]
			},
			"CS_sym_blank_effB01": {
				"color": [
					{ "time": 0, "color": "ffffffff" },
					{ "time": 0.3333, "color": "ffffff00" }
				]
			},
			"symbol1_single01": {
				"attachment": [
					{ "time": 0, "name": "CS_chra_001" }
				]
			}
		},
		"bones": {
			"CS_selectframe01": {
				"translate": [
					{ "time": 0, "x": -340, "y": -258 }
				],
				"scale": [
					{ "time": 0, "x": 0.8, "y": 0.8 }
				]
			},
			"CS_sym_blank_effA01": {
				"translate": [
					{ "time": 0, "x": -340, "y": -258 }
				],
				"scale": [
					{ "time": 0, "x": 1.6, "y": 1.6 }
				]
			},
			"CS_sym_blank_effB01": {
				"translate": [
					{ "time": 0, "x": -340, "y": -258 }
				],
				"scale": [
					{ "time": 0, "x": 1.6, "y": 1.6 }
				]
			},
			"symbol1_single01": {
				"translate": [
					{ "time": 0, "x": -340, "y": -258 }
				],
				"scale": [
					{ "time": 0, "x": 0.8, "y": 0.8 }
				]
			}
		}
	},
	"CS_selectframe02_select03": {
		"slots": {
			"CS_selectframe01": {
				"color": [
					{ "time": 0, "color": "ffffff00" }
				]
			},
			"CS_sym_blank_effA01": {
				"color": [
					{ "time": 0, "color": "ffffff98" },
					{ "time": 0.3333, "color": "ffffffcb" },
					{ "time": 0.6667, "color": "ffffff98" },
					{ "time": 1, "color": "ffffffcb" },
					{ "time": 1.3333, "color": "ffffff98" }
				]
			},
			"CS_sym_blank_effB01": {
				"color": [
					{ "time": 0, "color": "ffffffff" },
					{ "time": 0.3333, "color": "ffffff00" }
				]
			},
			"symbol1_single01": {
				"attachment": [
					{ "time": 0, "name": "CS_chra_002" }
				]
			}
		},
		"bones": {
			"CS_selectframe01": {
				"translate": [
					{ "time": 0, "x": -340, "y": -258 }
				],
				"scale": [
					{ "time": 0, "x": 0.8, "y": 0.8 }
				]
			},
			"CS_sym_blank_effA01": {
				"translate": [
					{ "time": 0, "x": -340, "y": -258 }
				],
				"scale": [
					{ "time": 0, "x": 1.6, "y": 1.6 }
				]
			},
			"CS_sym_blank_effB01": {
				"translate": [
					{ "time": 0, "x": -340, "y": -258 }
				],
				"scale": [
					{ "time": 0, "x": 1.6, "y": 1.6 }
				]
			},
			"symbol1_single01": {
				"translate": [
					{ "time": 0, "x": -340, "y": -258 }
				],
				"scale": [
					{ "time": 0, "x": 0.8, "y": 0.8 }
				]
			}
		}
	},
	"CS_selectframe02_select04": {
		"slots": {
			"CS_selectframe01": {
				"color": [
					{ "time": 0, "color": "ffffff00" }
				]
			},
			"CS_sym_blank_effA01": {
				"color": [
					{ "time": 0, "color": "ffffff98" },
					{ "time": 0.3333, "color": "ffffffcb" },
					{ "time": 0.6667, "color": "ffffff98" },
					{ "time": 1, "color": "ffffffcb" },
					{ "time": 1.3333, "color": "ffffff98" }
				]
			},
			"CS_sym_blank_effB01": {
				"color": [
					{ "time": 0, "color": "ffffffff" },
					{ "time": 0.3333, "color": "ffffff00" }
				]
			},
			"symbol1_single01": {
				"attachment": [
					{ "time": 0, "name": "CS_chra_003" }
				]
			}
		},
		"bones": {
			"CS_selectframe01": {
				"translate": [
					{ "time": 0, "x": -340, "y": -258 }
				],
				"scale": [
					{ "time": 0, "x": 0.8, "y": 0.8 }
				]
			},
			"CS_sym_blank_effA01": {
				"translate": [
					{ "time": 0, "x": -340, "y": -258 }
				],
				"scale": [
					{ "time": 0, "x": 1.6, "y": 1.6 }
				]
			},
			"CS_sym_blank_effB01": {
				"translate": [
					{ "time": 0, "x": -340, "y": -258 }
				],
				"scale": [
					{ "time": 0, "x": 1.6, "y": 1.6 }
				]
			},
			"symbol1_single01": {
				"translate": [
					{ "time": 0, "x": -340, "y": -258 }
				],
				"scale": [
					{ "time": 0, "x": 0.8, "y": 0.8 }
				]
			}
		}
	},
	"CS_selectframe02_select05": {
		"slots": {
			"CS_selectframe01": {
				"color": [
					{ "time": 0, "color": "ffffff00" }
				]
			},
			"CS_sym_blank_effA01": {
				"color": [
					{ "time": 0, "color": "ffffff98" },
					{ "time": 0.3333, "color": "ffffffcb" },
					{ "time": 0.6667, "color": "ffffff98" },
					{ "time": 1, "color": "ffffffcb" },
					{ "time": 1.3333, "color": "ffffff98" }
				]
			},
			"CS_sym_blank_effB01": {
				"color": [
					{ "time": 0, "color": "ffffffff" },
					{ "time": 0.3333, "color": "ffffff00" }
				]
			},
			"symbol1_single01": {
				"attachment": [
					{ "time": 0, "name": "CS_chra_004" }
				]
			}
		},
		"bones": {
			"CS_selectframe01": {
				"translate": [
					{ "time": 0, "x": -340, "y": -258 }
				],
				"scale": [
					{ "time": 0, "x": 0.8, "y": 0.8 }
				]
			},
			"CS_sym_blank_effA01": {
				"translate": [
					{ "time": 0, "x": -340, "y": -258 }
				],
				"scale": [
					{ "time": 0, "x": 1.6, "y": 1.6 }
				]
			},
			"CS_sym_blank_effB01": {
				"translate": [
					{ "time": 0, "x": -340, "y": -258 }
				],
				"scale": [
					{ "time": 0, "x": 1.6, "y": 1.6 }
				]
			},
			"symbol1_single01": {
				"translate": [
					{ "time": 0, "x": -340, "y": -258 }
				],
				"scale": [
					{ "time": 0, "x": 0.8, "y": 0.8 }
				]
			}
		}
	},
	"CS_selectframe03_loop": {
		"slots": {
			"CS_sym_blank_effA01": {
				"color": [
					{
						"time": 0,
						"color": "ffffff00",
						"curve": [ 0.25, 0, 0.75, 1 ]
					},
					{
						"time": 0.6667,
						"color": "ffffffff",
						"curve": [ 0.25, 0, 0.75, 1 ]
					},
					{ "time": 1, "color": "ffffff00" }
				]
			},
			"CS_sym_blank_effB01": {
				"color": [
					{ "time": 0, "color": "ffffff00" }
				]
			},
			"symbol1_single01": {
				"color": [
					{ "time": 0, "color": "ffffff00" }
				]
			}
		},
		"bones": {
			"CS_selectframe01": {
				"translate": [
					{ "time": 0, "x": 0, "y": -258 }
				],
				"scale": [
					{ "time": 0, "x": 0.8, "y": 0.8 }
				]
			},
			"CS_sym_blank_effA01": {
				"translate": [
					{ "time": 0, "x": 0, "y": -258 }
				],
				"scale": [
					{
						"time": 0,
						"x": 1.6,
						"y": 1.6,
						"curve": [ 0.25, 0, 0.75, 1 ]
					},
					{ "time": 1, "x": 1.8, "y": 1.8 }
				]
			}
		}
	},
	"CS_selectframe03_select01": {
		"slots": {
			"CS_selectframe01": {
				"color": [
					{ "time": 0, "color": "ffffff00" }
				]
			},
			"CS_sym_blank_effA01": {
				"color": [
					{ "time": 0, "color": "ffffff98" },
					{ "time": 0.3333, "color": "ffffffcb" },
					{ "time": 0.6667, "color": "ffffff98" },
					{ "time": 1, "color": "ffffffcb" },
					{ "time": 1.3333, "color": "ffffff98" }
				]
			},
			"CS_sym_blank_effB01": {
				"color": [
					{ "time": 0, "color": "ffffffff" },
					{ "time": 0.3333, "color": "ffffff00" }
				]
			}
		},
		"bones": {
			"CS_selectframe01": {
				"translate": [
					{ "time": 0, "x": 0, "y": -258 }
				],
				"scale": [
					{ "time": 0, "x": 0.8, "y": 0.8 }
				]
			},
			"CS_sym_blank_effA01": {
				"translate": [
					{ "time": 0, "x": 0, "y": -258 }
				],
				"scale": [
					{ "time": 0, "x": 1.6, "y": 1.6 }
				]
			},
			"CS_sym_blank_effB01": {
				"translate": [
					{ "time": 0, "x": 0, "y": -258 }
				],
				"scale": [
					{ "time": 0, "x": 1.6, "y": 1.6 }
				]
			},
			"symbol1_single01": {
				"translate": [
					{ "time": 0, "x": 0, "y": -258 }
				],
				"scale": [
					{ "time": 0, "x": 0.8, "y": 0.8 }
				]
			}
		}
	},
	"CS_selectframe03_select02": {
		"slots": {
			"CS_selectframe01": {
				"color": [
					{ "time": 0, "color": "ffffff00" }
				]
			},
			"CS_sym_blank_effA01": {
				"color": [
					{ "time": 0, "color": "ffffff98" },
					{ "time": 0.3333, "color": "ffffffcb" },
					{ "time": 0.6667, "color": "ffffff98" },
					{ "time": 1, "color": "ffffffcb" },
					{ "time": 1.3333, "color": "ffffff98" }
				]
			},
			"CS_sym_blank_effB01": {
				"color": [
					{ "time": 0, "color": "ffffffff" },
					{ "time": 0.3333, "color": "ffffff00" }
				]
			},
			"symbol1_single01": {
				"attachment": [
					{ "time": 0, "name": "CS_chra_001" }
				]
			}
		},
		"bones": {
			"CS_selectframe01": {
				"translate": [
					{ "time": 0, "x": 0, "y": -258 }
				],
				"scale": [
					{ "time": 0, "x": 0.8, "y": 0.8 }
				]
			},
			"CS_sym_blank_effA01": {
				"translate": [
					{ "time": 0, "x": 0, "y": -258 }
				],
				"scale": [
					{ "time": 0, "x": 1.6, "y": 1.6 }
				]
			},
			"CS_sym_blank_effB01": {
				"translate": [
					{ "time": 0, "x": 0, "y": -258 }
				],
				"scale": [
					{ "time": 0, "x": 1.6, "y": 1.6 }
				]
			},
			"symbol1_single01": {
				"translate": [
					{ "time": 0, "x": 0, "y": -258 }
				],
				"scale": [
					{ "time": 0, "x": 0.8, "y": 0.8 }
				]
			}
		}
	},
	"CS_selectframe03_select03": {
		"slots": {
			"CS_selectframe01": {
				"color": [
					{ "time": 0, "color": "ffffff00" }
				]
			},
			"CS_sym_blank_effA01": {
				"color": [
					{ "time": 0, "color": "ffffff98" },
					{ "time": 0.3333, "color": "ffffffcb" },
					{ "time": 0.6667, "color": "ffffff98" },
					{ "time": 1, "color": "ffffffcb" },
					{ "time": 1.3333, "color": "ffffff98" }
				]
			},
			"CS_sym_blank_effB01": {
				"color": [
					{ "time": 0, "color": "ffffffff" },
					{ "time": 0.3333, "color": "ffffff00" }
				]
			},
			"symbol1_single01": {
				"attachment": [
					{ "time": 0, "name": "CS_chra_002" }
				]
			}
		},
		"bones": {
			"CS_selectframe01": {
				"translate": [
					{ "time": 0, "x": 0, "y": -258 }
				],
				"scale": [
					{ "time": 0, "x": 0.8, "y": 0.8 }
				]
			},
			"CS_sym_blank_effA01": {
				"translate": [
					{ "time": 0, "x": 0, "y": -258 }
				],
				"scale": [
					{ "time": 0, "x": 1.6, "y": 1.6 }
				]
			},
			"CS_sym_blank_effB01": {
				"translate": [
					{ "time": 0, "x": 0, "y": -258 }
				],
				"scale": [
					{ "time": 0, "x": 1.6, "y": 1.6 }
				]
			},
			"symbol1_single01": {
				"translate": [
					{ "time": 0, "x": 0, "y": -258 }
				],
				"scale": [
					{ "time": 0, "x": 0.8, "y": 0.8 }
				]
			}
		}
	},
	"CS_selectframe03_select04": {
		"slots": {
			"CS_selectframe01": {
				"color": [
					{ "time": 0, "color": "ffffff00" }
				]
			},
			"CS_sym_blank_effA01": {
				"color": [
					{ "time": 0, "color": "ffffff98" },
					{ "time": 0.3333, "color": "ffffffcb" },
					{ "time": 0.6667, "color": "ffffff98" },
					{ "time": 1, "color": "ffffffcb" },
					{ "time": 1.3333, "color": "ffffff98" }
				]
			},
			"CS_sym_blank_effB01": {
				"color": [
					{ "time": 0, "color": "ffffffff" },
					{ "time": 0.3333, "color": "ffffff00" }
				]
			},
			"symbol1_single01": {
				"attachment": [
					{ "time": 0, "name": "CS_chra_003" }
				]
			}
		},
		"bones": {
			"CS_selectframe01": {
				"translate": [
					{ "time": 0, "x": 0, "y": -258 }
				],
				"scale": [
					{ "time": 0, "x": 0.8, "y": 0.8 }
				]
			},
			"CS_sym_blank_effA01": {
				"translate": [
					{ "time": 0, "x": 0, "y": -258 }
				],
				"scale": [
					{ "time": 0, "x": 1.6, "y": 1.6 }
				]
			},
			"CS_sym_blank_effB01": {
				"translate": [
					{ "time": 0, "x": 0, "y": -258 }
				],
				"scale": [
					{ "time": 0, "x": 1.6, "y": 1.6 }
				]
			},
			"symbol1_single01": {
				"translate": [
					{ "time": 0, "x": 0, "y": -258 }
				],
				"scale": [
					{ "time": 0, "x": 0.8, "y": 0.8 }
				]
			}
		}
	},
	"CS_selectframe03_select05": {
		"slots": {
			"CS_selectframe01": {
				"color": [
					{ "time": 0, "color": "ffffff00" }
				]
			},
			"CS_sym_blank_effA01": {
				"color": [
					{ "time": 0, "color": "ffffff98" },
					{ "time": 0.3333, "color": "ffffffcb" },
					{ "time": 0.6667, "color": "ffffff98" },
					{ "time": 1, "color": "ffffffcb" },
					{ "time": 1.3333, "color": "ffffff98" }
				]
			},
			"CS_sym_blank_effB01": {
				"color": [
					{ "time": 0, "color": "ffffffff" },
					{ "time": 0.3333, "color": "ffffff00" }
				]
			},
			"symbol1_single01": {
				"attachment": [
					{ "time": 0, "name": "CS_chra_004" }
				]
			}
		},
		"bones": {
			"CS_selectframe01": {
				"translate": [
					{ "time": 0, "x": 0, "y": -258 }
				],
				"scale": [
					{ "time": 0, "x": 0.8, "y": 0.8 }
				]
			},
			"CS_sym_blank_effA01": {
				"translate": [
					{ "time": 0, "x": 0, "y": -258 }
				],
				"scale": [
					{ "time": 0, "x": 1.6, "y": 1.6 }
				]
			},
			"CS_sym_blank_effB01": {
				"translate": [
					{ "time": 0, "x": 0, "y": -258 }
				],
				"scale": [
					{ "time": 0, "x": 1.6, "y": 1.6 }
				]
			},
			"symbol1_single01": {
				"translate": [
					{ "time": 0, "x": 0, "y": -258 }
				],
				"scale": [
					{ "time": 0, "x": 0.8, "y": 0.8 }
				]
			}
		}
	}
}
}