{"frames": {

"coin.png":
{
	"frame": {"x":1,"y":1,"w":46,"h":46},
	"rotated": false,
	"trimmed": false,
	"spriteSourceSize": {"x":0,"y":0,"w":46,"h":46},
	"sourceSize": {"w":46,"h":46}
},
"coin1.png":
{
	"frame": {"x":1,"y":49,"w":46,"h":46},
	"rotated": false,
	"trimmed": false,
	"spriteSourceSize": {"x":0,"y":0,"w":46,"h":46},
	"sourceSize": {"w":46,"h":46}
},
"coin2.png":
{
	"frame": {"x":1,"y":129,"w":40,"h":36},
	"rotated": false,
	"trimmed": true,
	"spriteSourceSize": {"x":3,"y":5,"w":40,"h":36},
	"sourceSize": {"w":46,"h":46}
},
"coin3.png":
{
	"frame": {"x":1,"y":97,"w":44,"h":30},
	"rotated": false,
	"trimmed": true,
	"spriteSourceSize": {"x":1,"y":8,"w":44,"h":30},
	"sourceSize": {"w":46,"h":46}
}},
"meta": {
	"app": "https://www.codeandweb.com/texturepacker",
	"version": "1.0",
	"image": "coins.png",
	"format": "RGBA8888",
	"size": {"w":48,"h":166},
	"scale": "0.25",
	"smartupdate": "$TexturePacker:SmartUpdate:100e337637e7b1b8b41bf12d8841abb7:4f9a935ad4ce06d4ca0e8c62f5a7c28c:e202b9740f12ec54412b311ba9ac3313$"
}
}
