{
"skeleton": { "hash": "uRSlEL/DlUezNlljCDrt3/2k81o", "spine": "3.6.53", "width": 400, "height": 492 },
"bones": [
	{ "name": "root" },
	{ "name": "CS_deta_frame01", "parent": "root", "length": 100 },
	{ "name": "CS_deta_frame_eff01", "parent": "root", "length": 100 },
	{ "name": "CS_deta_name01", "parent": "root", "length": 100 },
	{ "name": "symbol1_single01", "parent": "root", "length": 100 }
],
"slots": [
	{ "name": "CS_deta_frame01", "bone": "CS_deta_frame01", "attachment": "CS_deta_frame_000" },
	{ "name": "symbol1_single01", "bone": "symbol1_single01", "attachment": "CS_chra_gray_004" },
	{ "name": "CS_deta_name01", "bone": "CS_deta_name01", "attachment": "CS_deta_name_gray_004" },
	{ "name": "CS_deta_frame_eff01", "bone": "CS_deta_frame_eff01", "attachment": "CS_deta_frame_eff_000" }
],
"skins": {
	"default": {
		"CS_deta_frame01": {
			"CS_deta_frame_000": { "width": 246, "height": 492 }
		},
		"CS_deta_frame_eff01": {
			"CS_deta_frame_eff_000": { "width": 124, "height": 246 }
		},
		"CS_deta_name01": {
			"CS_deta_name_000": { "width": 224, "height": 64 },
			"CS_deta_name_001": { "width": 224, "height": 64 },
			"CS_deta_name_002": { "width": 224, "height": 64 },
			"CS_deta_name_003": { "width": 224, "height": 64 },
			"CS_deta_name_004": { "width": 224, "height": 64 },
			"CS_deta_name_gray_000": { "width": 224, "height": 64 },
			"CS_deta_name_gray_001": { "width": 224, "height": 64 },
			"CS_deta_name_gray_002": { "width": 224, "height": 64 },
			"CS_deta_name_gray_003": { "width": 224, "height": 64 },
			"CS_deta_name_gray_004": { "width": 224, "height": 64 }
		},
		"symbol1_single01": {
			"CS_chra_000": { "width": 400, "height": 336 },
			"CS_chra_001": { "width": 400, "height": 336 },
			"CS_chra_002": { "width": 400, "height": 336 },
			"CS_chra_003": { "width": 400, "height": 336 },
			"CS_chra_004": { "width": 400, "height": 336 },
			"CS_chra_gray_000": { "width": 400, "height": 336 },
			"CS_chra_gray_001": { "width": 400, "height": 336 },
			"CS_chra_gray_002": { "width": 400, "height": 336 },
			"CS_chra_gray_003": { "width": 400, "height": 336 },
			"CS_chra_gray_004": { "width": 400, "height": 336 }
		}
	}
},
"animations": {
	"CS_charadeta01_gray": {
		"slots": {
			"CS_deta_frame01": {
				"color": [
					{ "time": 0, "color": "ffffffcb", "curve": "stepped" },
					{ "time": 1, "color": "ffffffcb" }
				]
			},
			"CS_deta_frame_eff01": {
				"color": [
					{ "time": 0, "color": "ffffff00" }
				]
			},
			"CS_deta_name01": {
				"attachment": [
					{ "time": 0, "name": "CS_deta_name_gray_000" }
				]
			},
			"symbol1_single01": {
				"attachment": [
					{ "time": 0, "name": "CS_chra_gray_000" }
				]
			}
		},
		"bones": {
			"CS_deta_name01": {
				"translate": [
					{ "time": 0, "x": -580, "y": 236, "curve": "stepped" },
					{ "time": 1, "x": -580, "y": 236 }
				]
			},
			"CS_deta_frame01": {
				"translate": [
					{ "time": 0, "x": -580, "y": 230, "curve": "stepped" },
					{ "time": 1, "x": -580, "y": 230 }
				]
			},
			"symbol1_single01": {
				"translate": [
					{ "time": 0, "x": -580, "y": 360, "curve": "stepped" },
					{ "time": 1, "x": -580, "y": 360 }
				],
				"scale": [
					{ "time": 0, "x": 0.5, "y": 0.5 }
				]
			}
		}
	},
	"CS_charadeta01_push": {
		"slots": {
			"CS_deta_frame01": {
				"color": [
					{ "time": 0, "color": "ffffffcb", "curve": "stepped" },
					{ "time": 2, "color": "ffffffcb" }
				]
			},
			"CS_deta_frame_eff01": {
				"color": [
					{ "time": 0, "color": "ffffffff" },
					{ "time": 0.3333, "color": "ffffff00" }
				]
			},
			"CS_deta_name01": {
				"attachment": [
					{ "time": 0, "name": "CS_deta_name_000" }
				]
			},
			"symbol1_single01": {
				"attachment": [
					{ "time": 0, "name": "CS_chra_000" }
				]
			}
		},
		"bones": {
			"CS_deta_frame01": {
				"translate": [
					{ "time": 0, "x": -580, "y": 230, "curve": "stepped" },
					{ "time": 2, "x": -580, "y": 230 }
				]
			},
			"symbol1_single01": {
				"translate": [
					{ "time": 0, "x": -580, "y": 360, "curve": "stepped" },
					{ "time": 2, "x": -580, "y": 360 }
				],
				"scale": [
					{ "time": 0, "x": 0.5, "y": 0.5 }
				]
			},
			"CS_deta_name01": {
				"translate": [
					{ "time": 0, "x": -580, "y": 236, "curve": "stepped" },
					{ "time": 2, "x": -580, "y": 236 }
				]
			},
			"CS_deta_frame_eff01": {
				"translate": [
					{ "time": 0, "x": -580, "y": 230, "curve": "stepped" },
					{ "time": 0.3333, "x": -580, "y": 230 }
				],
				"scale": [
					{ "time": 0, "x": 2, "y": 2 }
				]
			}
		}
	},
	"CS_charadeta02_gray": {
		"slots": {
			"CS_deta_frame01": {
				"color": [
					{ "time": 0, "color": "ffffffcb", "curve": "stepped" },
					{ "time": 1, "color": "ffffffcb" }
				]
			},
			"CS_deta_frame_eff01": {
				"color": [
					{ "time": 0, "color": "ffffff00" }
				]
			},
			"CS_deta_name01": {
				"attachment": [
					{ "time": 0, "name": "CS_deta_name_gray_001" }
				]
			},
			"symbol1_single01": {
				"attachment": [
					{ "time": 0, "name": "CS_chra_gray_001" }
				]
			}
		},
		"bones": {
			"CS_deta_name01": {
				"translate": [
					{ "time": 0, "x": -290, "y": 236, "curve": "stepped" },
					{ "time": 1, "x": -290, "y": 236 }
				]
			},
			"CS_deta_frame01": {
				"translate": [
					{ "time": 0, "x": -290, "y": 230, "curve": "stepped" },
					{ "time": 1, "x": -290, "y": 230 }
				]
			},
			"symbol1_single01": {
				"translate": [
					{ "time": 0, "x": -290, "y": 360, "curve": "stepped" },
					{ "time": 1, "x": -290, "y": 360 }
				],
				"scale": [
					{ "time": 0, "x": 0.5, "y": 0.5 }
				]
			}
		}
	},
	"CS_charadeta02_push": {
		"slots": {
			"CS_deta_frame01": {
				"color": [
					{ "time": 0, "color": "ffffffcb", "curve": "stepped" },
					{ "time": 2, "color": "ffffffcb" }
				]
			},
			"CS_deta_frame_eff01": {
				"color": [
					{ "time": 0, "color": "ffffffff" },
					{ "time": 0.3333, "color": "ffffff00" }
				]
			},
			"CS_deta_name01": {
				"attachment": [
					{ "time": 0, "name": "CS_deta_name_001" }
				]
			},
			"symbol1_single01": {
				"attachment": [
					{ "time": 0, "name": "CS_chra_001" }
				]
			}
		},
		"bones": {
			"CS_deta_frame01": {
				"translate": [
					{ "time": 0, "x": -290, "y": 230, "curve": "stepped" },
					{ "time": 2, "x": -290, "y": 230 }
				]
			},
			"symbol1_single01": {
				"translate": [
					{ "time": 0, "x": -290, "y": 360, "curve": "stepped" },
					{ "time": 2, "x": -290, "y": 360 }
				],
				"scale": [
					{ "time": 0, "x": 0.5, "y": 0.5 }
				]
			},
			"CS_deta_name01": {
				"translate": [
					{ "time": 0, "x": -290, "y": 236, "curve": "stepped" },
					{ "time": 2, "x": -290, "y": 236 }
				]
			},
			"CS_deta_frame_eff01": {
				"translate": [
					{ "time": 0, "x": -290, "y": 230, "curve": "stepped" },
					{ "time": 0.3333, "x": -290, "y": 230 }
				],
				"scale": [
					{ "time": 0, "x": 2, "y": 2 }
				]
			}
		}
	},
	"CS_charadeta03_gray": {
		"slots": {
			"CS_deta_frame01": {
				"color": [
					{ "time": 0, "color": "ffffffcb", "curve": "stepped" },
					{ "time": 1, "color": "ffffffcb" }
				]
			},
			"CS_deta_frame_eff01": {
				"color": [
					{ "time": 0, "color": "ffffff00" }
				]
			},
			"CS_deta_name01": {
				"attachment": [
					{ "time": 0, "name": "CS_deta_name_gray_002" }
				]
			},
			"symbol1_single01": {
				"attachment": [
					{ "time": 0, "name": "CS_chra_gray_002" }
				]
			}
		},
		"bones": {
			"CS_deta_name01": {
				"translate": [
					{ "time": 0, "x": 0, "y": 236, "curve": "stepped" },
					{ "time": 1, "x": 0, "y": 236 }
				]
			},
			"CS_deta_frame01": {
				"translate": [
					{ "time": 0, "x": 0, "y": 230, "curve": "stepped" },
					{ "time": 1, "x": 0, "y": 230 }
				]
			},
			"symbol1_single01": {
				"translate": [
					{ "time": 0, "x": 0, "y": 360, "curve": "stepped" },
					{ "time": 1, "x": 0, "y": 360 }
				],
				"scale": [
					{ "time": 0, "x": 0.5, "y": 0.5 }
				]
			}
		}
	},
	"CS_charadeta03_push": {
		"slots": {
			"CS_deta_frame01": {
				"color": [
					{ "time": 0, "color": "ffffffcb", "curve": "stepped" },
					{ "time": 2, "color": "ffffffcb" }
				]
			},
			"CS_deta_frame_eff01": {
				"color": [
					{ "time": 0, "color": "ffffffff" },
					{ "time": 0.3333, "color": "ffffff00" }
				]
			},
			"CS_deta_name01": {
				"attachment": [
					{ "time": 0, "name": "CS_deta_name_002" }
				]
			},
			"symbol1_single01": {
				"attachment": [
					{ "time": 0, "name": "CS_chra_002" }
				]
			}
		},
		"bones": {
			"CS_deta_frame01": {
				"translate": [
					{ "time": 0, "x": 0, "y": 230, "curve": "stepped" },
					{ "time": 2, "x": 0, "y": 230 }
				]
			},
			"symbol1_single01": {
				"translate": [
					{ "time": 0, "x": 0, "y": 360, "curve": "stepped" },
					{ "time": 2, "x": 0, "y": 360 }
				],
				"scale": [
					{ "time": 0, "x": 0.5, "y": 0.5 }
				]
			},
			"CS_deta_name01": {
				"translate": [
					{ "time": 0, "x": 0, "y": 236, "curve": "stepped" },
					{ "time": 2, "x": 0, "y": 236 }
				]
			},
			"CS_deta_frame_eff01": {
				"translate": [
					{ "time": 0, "x": 0, "y": 230, "curve": "stepped" },
					{ "time": 0.3333, "x": 0, "y": 230 }
				],
				"scale": [
					{ "time": 0, "x": 2, "y": 2 }
				]
			}
		}
	},
	"CS_charadeta04_gray": {
		"slots": {
			"CS_deta_frame01": {
				"color": [
					{ "time": 0, "color": "ffffffcb", "curve": "stepped" },
					{ "time": 1, "color": "ffffffcb" }
				]
			},
			"CS_deta_frame_eff01": {
				"color": [
					{ "time": 0, "color": "ffffff00" }
				]
			},
			"CS_deta_name01": {
				"attachment": [
					{ "time": 0, "name": "CS_deta_name_gray_003" }
				]
			},
			"symbol1_single01": {
				"attachment": [
					{ "time": 0, "name": "CS_chra_gray_003" }
				]
			}
		},
		"bones": {
			"CS_deta_name01": {
				"translate": [
					{ "time": 0, "x": 290, "y": 236, "curve": "stepped" },
					{ "time": 1, "x": 290, "y": 236 }
				]
			},
			"CS_deta_frame01": {
				"translate": [
					{ "time": 0, "x": 290, "y": 230, "curve": "stepped" },
					{ "time": 1, "x": 290, "y": 230 }
				]
			},
			"symbol1_single01": {
				"translate": [
					{ "time": 0, "x": 290, "y": 360, "curve": "stepped" },
					{ "time": 1, "x": 290, "y": 360 }
				],
				"scale": [
					{ "time": 0, "x": 0.5, "y": 0.5 }
				]
			}
		}
	},
	"CS_charadeta04_push": {
		"slots": {
			"CS_deta_frame01": {
				"color": [
					{ "time": 0, "color": "ffffffcb", "curve": "stepped" },
					{ "time": 2, "color": "ffffffcb" }
				]
			},
			"CS_deta_frame_eff01": {
				"color": [
					{ "time": 0, "color": "ffffffff" },
					{ "time": 0.3333, "color": "ffffff00" }
				]
			},
			"CS_deta_name01": {
				"attachment": [
					{ "time": 0, "name": "CS_deta_name_003" }
				]
			},
			"symbol1_single01": {
				"attachment": [
					{ "time": 0, "name": "CS_chra_003" }
				]
			}
		},
		"bones": {
			"CS_deta_frame01": {
				"translate": [
					{ "time": 0, "x": 290, "y": 230, "curve": "stepped" },
					{ "time": 2, "x": 290, "y": 230 }
				]
			},
			"symbol1_single01": {
				"translate": [
					{ "time": 0, "x": 290, "y": 360, "curve": "stepped" },
					{ "time": 2, "x": 290, "y": 360 }
				],
				"scale": [
					{ "time": 0, "x": 0.5, "y": 0.5 }
				]
			},
			"CS_deta_name01": {
				"translate": [
					{ "time": 0, "x": 290, "y": 236, "curve": "stepped" },
					{ "time": 2, "x": 290, "y": 236 }
				]
			},
			"CS_deta_frame_eff01": {
				"translate": [
					{ "time": 0, "x": 290, "y": 230, "curve": "stepped" },
					{ "time": 0.3333, "x": 290, "y": 230 }
				],
				"scale": [
					{ "time": 0, "x": 2, "y": 2 }
				]
			}
		}
	},
	"CS_charadeta05_gray": {
		"slots": {
			"CS_deta_frame01": {
				"color": [
					{ "time": 0, "color": "ffffffcb", "curve": "stepped" },
					{ "time": 1, "color": "ffffffcb" }
				]
			},
			"CS_deta_frame_eff01": {
				"color": [
					{ "time": 0, "color": "ffffff00" }
				]
			},
			"CS_deta_name01": {
				"attachment": [
					{ "time": 0, "name": "CS_deta_name_gray_004" }
				]
			}
		},
		"bones": {
			"CS_deta_name01": {
				"translate": [
					{ "time": 0, "x": 580, "y": 236, "curve": "stepped" },
					{ "time": 1, "x": 580, "y": 236 }
				]
			},
			"CS_deta_frame01": {
				"translate": [
					{ "time": 0, "x": 580, "y": 230, "curve": "stepped" },
					{ "time": 1, "x": 580, "y": 230 }
				]
			},
			"symbol1_single01": {
				"translate": [
					{ "time": 0, "x": 580, "y": 360, "curve": "stepped" },
					{ "time": 1, "x": 580, "y": 360 }
				],
				"scale": [
					{ "time": 0, "x": 0.5, "y": 0.5 }
				]
			}
		}
	},
	"CS_charadeta05_push": {
		"slots": {
			"CS_deta_frame01": {
				"color": [
					{ "time": 0, "color": "ffffffcb", "curve": "stepped" },
					{ "time": 2, "color": "ffffffcb" }
				]
			},
			"CS_deta_frame_eff01": {
				"color": [
					{ "time": 0, "color": "ffffffff" },
					{ "time": 0.3333, "color": "ffffff00" }
				]
			},
			"CS_deta_name01": {
				"attachment": [
					{ "time": 0, "name": "CS_deta_name_004" }
				]
			},
			"symbol1_single01": {
				"attachment": [
					{ "time": 0, "name": "CS_chra_004" }
				]
			}
		},
		"bones": {
			"CS_deta_frame01": {
				"translate": [
					{ "time": 0, "x": 580, "y": 230, "curve": "stepped" },
					{ "time": 2, "x": 580, "y": 230 }
				]
			},
			"symbol1_single01": {
				"translate": [
					{ "time": 0, "x": 580, "y": 360, "curve": "stepped" },
					{ "time": 2, "x": 580, "y": 360 }
				],
				"scale": [
					{ "time": 0, "x": 0.5, "y": 0.5 }
				]
			},
			"CS_deta_name01": {
				"translate": [
					{ "time": 0, "x": 580, "y": 236, "curve": "stepped" },
					{ "time": 2, "x": 580, "y": 236 }
				]
			},
			"CS_deta_frame_eff01": {
				"translate": [
					{ "time": 0, "x": 580, "y": 230, "curve": "stepped" },
					{ "time": 0.3333, "x": 580, "y": 230 }
				],
				"scale": [
					{ "time": 0, "x": 2, "y": 2 }
				]
			}
		}
	}
}
}