{
    "frames": {
        "bonus_skip_btn_000.png": {
            "frame": {
                "x": 1,
                "y": 1,
                "w": 225,
                "h": 120
            },
            "rotated": false,
            "trimmed": false,
            "spriteSourceSize": {
                "x": 1,
                "y": 1,
                "w": 225,
                "h": 120
            },
            "sourceSize": {
                "w": 225,
                "h": 120
            }
        }
    },
    "meta": {
        "app": "https://www.codeandweb.com/texturepacker",
        "version": "1.0",
        "image": "bonus_skip_btn.png",
        "format": "RGBA8888",
        "size": {
            "x": 227,
            "y": 122
        },
        "scale": "1",
        "smartupdate": ":SmartUpdate:9b583d22af8f0ae7d50a8367138013ee:d1c6288b2d0ff9c79498c9c0adf1a45d:52d0177126e04c5f0346411608750823$"
    }
}