{
	"global": {
		"loading": "CARGANDO"
	},
	"ingame": {
		"skip": "SALTAR",
		"freespins": "GIROS GRATIS",
		"totalwin": "PREMIO TOTAL",
		"congrats": "¡FELICIDADES!",
		"youwon": "HA GANADO",
		"infreespins": "EN LA RONDA DE BONUS DE GIROS GRATIS",
		"domsymbol": "SÍMBOLO DOMINANTE",
		"dominantwin": "Su símbolo de\npersonaje dominante\ndurante la ronda de\nbonus de giros gratis",
		"win": "PREMIO",
		"characters": "SELECCIONE TRES\nPERSONAJES",
		"betsize": "APUESTA TOTAL",
		"battle": "BATALLA DE GIROS GRATIS",
		"battleexplain": "El último superviviente y ganador\nde la batalla será el símbolo\nde personaje dominante durante la\nronda de bonus de giros gratis",
		"bigwin": "GRAN PREMIO",
		"megawin": "MEGA PREMIO",
		"epicwin": "PREMIO ÉPICO"
	}
}