{
	"global": {
		"loading": "LADATAAN"
	},
	"ingame": {
		"skip": "OHITA",
		"freespins": "ILMAISKIERROSTA",
		"totalwin": "KOKONAISVOITTO",
		"congrats": "ONNITTELUT!",
		"youwon": "VOITIT",
		"infreespins": "ILMAISKIERROSBONUKSESTA",
		"domsymbol": "HALLITSEVA SYMBOLI",
		"dominantwin": "Hallitseva\nhahmosymbolisi\nilmaiskierrosbonuksen\naikana",
		"win": "VOITTO",
		"characters": "VALITSE 3\nHAHMOA",
		"betsize": "KOKONAISPANOS",
		"battle": "ILMAISKIERROSTAISTELU",
		"battleexplain": "Viimeinen selviytyjä ja taistelun\nvoittaja on hallitseva\nhahmosymboli ilmaiskierrosbonuksen\naikana",
		"bigwin": "ISO VOITTO",
		"megawin": "MEGAVOITTO",
		"epicwin": "EEPPINEN VOITTO"
	}
}