{
	"global": {
		"loading": "加載中"
	},
	"ingame": {
		"skip": "略過",
		"freespins": "免費旋轉",
		"totalwin": "總獎金",
		"congrats": "恭喜！",
		"youwon": "您贏得了",
		"infreespins": "在免費旋轉紅利回合中",
		"domsymbol": "主要符號",
		"dominantwin": "在免費旋轉\n紅利回合中\n您的主要\n人物符號",
		"win": "獎金",
		"characters": "選擇三位人物",
		"betsize": "總投注",
		"battle": "免費旋轉戰鬥",
		"battleexplain": "戰鬥的最後倖存者\n及勝者將在免費\n旋轉紅利回合中成為\n主要人物符號",
		"bigwin": "大獎",
		"megawin": "巨額大獎",
		"epicwin": "史詩大獎"
	}
}