{
"skeleton": { "hash": "i1K+1LuRAp0uu+Avp6ncc2JBMyM", "spine": "3.6.53", "width": 384, "height": 270 },
"bones": [
	{ "name": "root" },
	{ "name": "wipe01", "parent": "root", "length": 100 },
	{ "name": "wipe02", "parent": "root", "length": 100 },
	{ "name": "wipe03", "parent": "root", "length": 100 },
	{ "name": "wipe04", "parent": "root", "length": 100 }
],
"slots": [
	{ "name": "wipe01", "bone": "wipe01", "attachment": "wipe_eff_000" },
	{ "name": "wipe02", "bone": "wipe02", "attachment": "wipe_eff_000" },
	{ "name": "wipe03", "bone": "wipe03", "attachment": "wipe_eff_000" },
	{ "name": "wipe04", "bone": "wipe04", "attachment": "wipe_eff_000" }
],
"skins": {
	"default": {
		"wipe01": {
			"wipe_eff_000": { "width": 384, "height": 270 }
		},
		"wipe02": {
			"wipe_eff_000": { "width": 384, "height": 270 }
		},
		"wipe03": {
			"wipe_eff_000": { "width": 384, "height": 270 }
		},
		"wipe04": {
			"wipe_eff_000": { "width": 384, "height": 270 }
		}
	}
},
"animations": {
	"wipe_eff": {
		"slots": {
			"wipe01": {
				"color": [
					{ "time": 0, "color": "ffffffff", "curve": "stepped" },
					{ "time": 1, "color": "ffffffff", "curve": "stepped" },
					{ "time": 2, "color": "ffffffff", "curve": "stepped" },
					{ "time": 3.4333, "color": "ffffffff" },
					{ "time": 3.4667, "color": "ffffff00" }
				]
			},
			"wipe02": {
				"color": [
					{ "time": 0, "color": "ffffff00", "curve": "stepped" },
					{ "time": 0.3333, "color": "ffffff00" },
					{ "time": 0.3667, "color": "ffffffff", "curve": "stepped" },
					{ "time": 1, "color": "ffffffff", "curve": "stepped" },
					{ "time": 2, "color": "ffffffff", "curve": "stepped" },
					{ "time": 3.8, "color": "ffffffff" },
					{ "time": 3.8333, "color": "ffffff00" }
				]
			},
			"wipe03": {
				"color": [
					{ "time": 0, "color": "ffffffff", "curve": "stepped" },
					{ "time": 1, "color": "ffffffff", "curve": "stepped" },
					{ "time": 2, "color": "ffffffff", "curve": "stepped" },
					{ "time": 3.4333, "color": "ffffffff" },
					{ "time": 3.4667, "color": "ffffff00" }
				]
			},
			"wipe04": {
				"color": [
					{ "time": 0, "color": "ffffff00", "curve": "stepped" },
					{ "time": 0.3333, "color": "ffffff00" },
					{ "time": 0.3667, "color": "ffffffff", "curve": "stepped" },
					{ "time": 1, "color": "ffffffff", "curve": "stepped" },
					{ "time": 2, "color": "ffffffff", "curve": "stepped" },
					{ "time": 3.8, "color": "ffffffff" },
					{ "time": 3.8333, "color": "ffffff00" }
				]
			}
		},
		"bones": {
			"wipe01": {
				"translate": [
					{
						"time": 0,
						"x": 1480,
						"y": 0,
						"curve": [ 0.25, 0, 0.75, 1 ]
					},
					{ "time": 1, "x": 231.35, "y": 0, "curve": "stepped" },
					{
						"time": 2,
						"x": 231.35,
						"y": 0,
						"curve": [ 0.25, 0, 0.75, 1 ]
					},
					{ "time": 3.4667, "x": -1600, "y": 0 }
				],
				"scale": [
					{ "time": 0, "x": 3.2, "y": 4 },
					{
						"time": 0.6667,
						"x": 4.8,
						"y": 4,
						"curve": [ 0.25, 0, 0.75, 1 ]
					},
					{ "time": 1, "x": 4.6, "y": 4, "curve": "stepped" },
					{
						"time": 2,
						"x": 4.6,
						"y": 4,
						"curve": [ 0.25, 0, 0.75, 1 ]
					},
					{ "time": 3.4667, "x": 4, "y": 4 }
				]
			},
			"wipe02": {
				"translate": [
					{ "time": 0, "x": 1480, "y": 0, "curve": "stepped" },
					{
						"time": 0.3667,
						"x": 1480,
						"y": 0,
						"curve": [ 0.25, 0, 0.75, 1 ]
					},
					{ "time": 1, "x": 689.19, "y": 0, "curve": "stepped" },
					{
						"time": 2,
						"x": 689.19,
						"y": 0,
						"curve": [ 0.25, 0, 0.75, 1 ]
					},
					{ "time": 3.8333, "x": -1600, "y": 0 }
				],
				"scale": [
					{
						"time": 0.3667,
						"x": 3.2,
						"y": 4,
						"curve": [ 0.25, 0, 0.75, 1 ]
					},
					{ "time": 1, "x": 4.8, "y": 4, "curve": "stepped" },
					{
						"time": 2,
						"x": 4.8,
						"y": 4,
						"curve": [ 0.25, 0, 0.75, 1 ]
					},
					{ "time": 3.8333, "x": 4, "y": 4 }
				]
			},
			"wipe03": {
				"translate": [
					{
						"time": 0,
						"x": -1480,
						"y": 0,
						"curve": [ 0.164, 0.21, 0.75, 1 ]
					},
					{ "time": 1, "x": -231.35, "y": 0, "curve": "stepped" },
					{
						"time": 2,
						"x": -231.35,
						"y": 0,
						"curve": [ 0.25, 0, 0.75, 1 ]
					},
					{ "time": 3.4667, "x": 1600, "y": 0 }
				],
				"scale": [
					{
						"time": 0,
						"x": -3.2,
						"y": 4,
						"curve": [ 0.25, 0, 0.75, 1 ]
					},
					{
						"time": 0.6667,
						"x": -4.8,
						"y": 4,
						"curve": [ 0.25, 0, 0.75, 1 ]
					},
					{ "time": 1, "x": -4.6, "y": 4, "curve": "stepped" },
					{
						"time": 2,
						"x": -4.6,
						"y": 4,
						"curve": [ 0.235, 0.32, 0.775, 1 ]
					},
					{ "time": 3.4667, "x": -4, "y": 4 }
				]
			},
			"wipe04": {
				"translate": [
					{ "time": 0, "x": -1480, "y": 0, "curve": "stepped" },
					{
						"time": 0.3667,
						"x": -1480,
						"y": 0,
						"curve": [ 0.164, 0.21, 0.75, 1 ]
					},
					{ "time": 1, "x": -689.19, "y": 0, "curve": "stepped" },
					{
						"time": 2,
						"x": -689.19,
						"y": 0,
						"curve": [ 0.25, 0, 0.75, 1 ]
					},
					{ "time": 3.8333, "x": 1600, "y": 0 }
				],
				"scale": [
					{
						"time": 0.3667,
						"x": -3.2,
						"y": 4,
						"curve": [ 0.25, 0, 0.75, 1 ]
					},
					{ "time": 1, "x": -4.8, "y": 4, "curve": "stepped" },
					{
						"time": 2,
						"x": -4.8,
						"y": 4,
						"curve": [ 0.071, 0.12, 0.75, 1 ]
					},
					{ "time": 3.8333, "x": -3.95, "y": 4 }
				]
			},
			"root": {
				"scale": [
					{ "time": 0, "x": 1.34, "y": 1.34 }
				]
			}
		},
		"drawOrder": [
			{
				"time": 0,
				"offsets": [
					{ "slot": "wipe01", "offset": 3 },
					{ "slot": "wipe04", "offset": -3 }
				]
			}
		]
	}
}
}