{"frames": {

"symbol1_simple_blur.png":
{
	"frame": {"x":1,"y":1,"w":50,"h":50},
	"rotated": false,
	"trimmed": false,
	"spriteSourceSize": {"x":0,"y":0,"w":50,"h":50},
	"sourceSize": {"w":50,"h":50}
},
"symbol2_simple_blur.png":
{
	"frame": {"x":313,"y":1,"w":49,"h":50},
	"rotated": false,
	"trimmed": true,
	"spriteSourceSize": {"x":1,"y":0,"w":49,"h":50},
	"sourceSize": {"w":50,"h":50}
},
"symbol3_simple_blur.png":
{
	"frame": {"x":364,"y":1,"w":48,"h":50},
	"rotated": false,
	"trimmed": true,
	"spriteSourceSize": {"x":2,"y":0,"w":48,"h":50},
	"sourceSize": {"w":50,"h":50}
},
"symbol4_simple_blur.png":
{
	"frame": {"x":464,"y":1,"w":47,"h":50},
	"rotated": false,
	"trimmed": true,
	"spriteSourceSize": {"x":0,"y":0,"w":47,"h":50},
	"sourceSize": {"w":50,"h":50}
},
"symbol5_simple_blur.png":
{
	"frame": {"x":513,"y":1,"w":44,"h":50},
	"rotated": false,
	"trimmed": true,
	"spriteSourceSize": {"x":2,"y":0,"w":44,"h":50},
	"sourceSize": {"w":50,"h":50}
},
"symbol6_simple_blur.png":
{
	"frame": {"x":414,"y":1,"w":48,"h":50},
	"rotated": false,
	"trimmed": true,
	"spriteSourceSize": {"x":0,"y":0,"w":48,"h":50},
	"sourceSize": {"w":50,"h":50}
},
"symbol_single1_blur.png":
{
	"frame": {"x":53,"y":1,"w":50,"h":50},
	"rotated": false,
	"trimmed": false,
	"spriteSourceSize": {"x":0,"y":0,"w":50,"h":50},
	"sourceSize": {"w":50,"h":50}
},
"symbol_single2_blur.png":
{
	"frame": {"x":105,"y":1,"w":50,"h":50},
	"rotated": false,
	"trimmed": false,
	"spriteSourceSize": {"x":0,"y":0,"w":50,"h":50},
	"sourceSize": {"w":50,"h":50}
},
"symbol_single3_blur.png":
{
	"frame": {"x":157,"y":1,"w":50,"h":50},
	"rotated": false,
	"trimmed": false,
	"spriteSourceSize": {"x":0,"y":0,"w":50,"h":50},
	"sourceSize": {"w":50,"h":50}
},
"symbol_single4_blur.png":
{
	"frame": {"x":209,"y":1,"w":50,"h":50},
	"rotated": false,
	"trimmed": false,
	"spriteSourceSize": {"x":0,"y":0,"w":50,"h":50},
	"sourceSize": {"w":50,"h":50}
},
"symbol_single5_blur.png":
{
	"frame": {"x":261,"y":1,"w":50,"h":50},
	"rotated": false,
	"trimmed": false,
	"spriteSourceSize": {"x":0,"y":0,"w":50,"h":50},
	"sourceSize": {"w":50,"h":50}
}},
"meta": {
	"app": "https://www.codeandweb.com/texturepacker",
	"version": "1.0",
	"image": "symbols_blur.png",
	"format": "RGBA5555",
	"size": {"w":558,"h":52},
	"scale": "0.25",
	"smartupdate": "$TexturePacker:SmartUpdate:339b20dd66d762653868e59dcfcd34dd:b4ee998cccfb86a1ffb0dbd8334ccc46:255524ee9fd4a2bcad281432710313fe$"
}
}
