{"frames": {

"symbol5_triple_anm_000.png":
{
	"frame": {"x":1,"y":1,"w":200,"h":504},
	"rotated": false,
	"trimmed": false,
	"spriteSourceSize": {"x":0,"y":0,"w":200,"h":504},
	"sourceSize": {"w":200,"h":504}
},
"symbol5_triple_anm_001.png":
{
	"frame": {"x":1,"y":507,"w":200,"h":504},
	"rotated": false,
	"trimmed": false,
	"spriteSourceSize": {"x":0,"y":0,"w":200,"h":504},
	"sourceSize": {"w":200,"h":504}
},
"symbol5_triple_anm_002.png":
{
	"frame": {"x":203,"y":1,"w":200,"h":504},
	"rotated": false,
	"trimmed": false,
	"spriteSourceSize": {"x":0,"y":0,"w":200,"h":504},
	"sourceSize": {"w":200,"h":504}
},
"symbol5_triple_anm_003.png":
{
	"frame": {"x":203,"y":507,"w":200,"h":504},
	"rotated": false,
	"trimmed": false,
	"spriteSourceSize": {"x":0,"y":0,"w":200,"h":504},
	"sourceSize": {"w":200,"h":504}
},
"symbol5_triple_anm_004.png":
{
	"frame": {"x":405,"y":1,"w":200,"h":504},
	"rotated": false,
	"trimmed": false,
	"spriteSourceSize": {"x":0,"y":0,"w":200,"h":504},
	"sourceSize": {"w":200,"h":504}
},
"symbol5_triple_anm_005.png":
{
	"frame": {"x":405,"y":507,"w":200,"h":504},
	"rotated": false,
	"trimmed": false,
	"spriteSourceSize": {"x":0,"y":0,"w":200,"h":504},
	"sourceSize": {"w":200,"h":504}
},
"symbol5_triple_anm_006.png":
{
	"frame": {"x":607,"y":1,"w":200,"h":504},
	"rotated": false,
	"trimmed": false,
	"spriteSourceSize": {"x":0,"y":0,"w":200,"h":504},
	"sourceSize": {"w":200,"h":504}
},
"symbol5_triple_anm_007.png":
{
	"frame": {"x":607,"y":507,"w":200,"h":504},
	"rotated": false,
	"trimmed": false,
	"spriteSourceSize": {"x":0,"y":0,"w":200,"h":504},
	"sourceSize": {"w":200,"h":504}
},
"symbol5_triple_anm_008.png":
{
	"frame": {"x":809,"y":1,"w":200,"h":504},
	"rotated": false,
	"trimmed": false,
	"spriteSourceSize": {"x":0,"y":0,"w":200,"h":504},
	"sourceSize": {"w":200,"h":504}
},
"symbol5_triple_anm_009.png":
{
	"frame": {"x":809,"y":507,"w":200,"h":504},
	"rotated": false,
	"trimmed": false,
	"spriteSourceSize": {"x":0,"y":0,"w":200,"h":504},
	"sourceSize": {"w":200,"h":504}
},
"symbol5_triple_anm_010.png":
{
	"frame": {"x":1011,"y":1,"w":200,"h":504},
	"rotated": false,
	"trimmed": false,
	"spriteSourceSize": {"x":0,"y":0,"w":200,"h":504},
	"sourceSize": {"w":200,"h":504}
},
"symbol5_triple_anm_011.png":
{
	"frame": {"x":1011,"y":507,"w":200,"h":504},
	"rotated": false,
	"trimmed": false,
	"spriteSourceSize": {"x":0,"y":0,"w":200,"h":504},
	"sourceSize": {"w":200,"h":504}
},
"symbol5_triple_anm_012.png":
{
	"frame": {"x":1213,"y":1,"w":200,"h":504},
	"rotated": false,
	"trimmed": false,
	"spriteSourceSize": {"x":0,"y":0,"w":200,"h":504},
	"sourceSize": {"w":200,"h":504}
},
"symbol5_triple_anm_013.png":
{
	"frame": {"x":1213,"y":507,"w":200,"h":504},
	"rotated": false,
	"trimmed": false,
	"spriteSourceSize": {"x":0,"y":0,"w":200,"h":504},
	"sourceSize": {"w":200,"h":504}
},
"symbol5_triple_anm_014.png":
{
	"frame": {"x":1415,"y":1,"w":200,"h":504},
	"rotated": false,
	"trimmed": false,
	"spriteSourceSize": {"x":0,"y":0,"w":200,"h":504},
	"sourceSize": {"w":200,"h":504}
},
"symbol5_triple_anm_015.png":
{
	"frame": {"x":1415,"y":507,"w":200,"h":504},
	"rotated": false,
	"trimmed": false,
	"spriteSourceSize": {"x":0,"y":0,"w":200,"h":504},
	"sourceSize": {"w":200,"h":504}
},
"symbol5_triple_anm_016.png":
{
	"frame": {"x":1617,"y":1,"w":200,"h":504},
	"rotated": false,
	"trimmed": false,
	"spriteSourceSize": {"x":0,"y":0,"w":200,"h":504},
	"sourceSize": {"w":200,"h":504}
},
"symbol5_triple_anm_017.png":
{
	"frame": {"x":1617,"y":507,"w":200,"h":504},
	"rotated": false,
	"trimmed": false,
	"spriteSourceSize": {"x":0,"y":0,"w":200,"h":504},
	"sourceSize": {"w":200,"h":504}
},
"symbol5_triple_anm_018.png":
{
	"frame": {"x":1819,"y":1,"w":200,"h":504},
	"rotated": false,
	"trimmed": false,
	"spriteSourceSize": {"x":0,"y":0,"w":200,"h":504},
	"sourceSize": {"w":200,"h":504}
},
"symbol5_triple_anm_019.png":
{
	"frame": {"x":1819,"y":507,"w":200,"h":504},
	"rotated": false,
	"trimmed": false,
	"spriteSourceSize": {"x":0,"y":0,"w":200,"h":504},
	"sourceSize": {"w":200,"h":504}
},
"symbol5_triple_anm_020.png":
{
	"frame": {"x":2021,"y":1,"w":200,"h":504},
	"rotated": false,
	"trimmed": false,
	"spriteSourceSize": {"x":0,"y":0,"w":200,"h":504},
	"sourceSize": {"w":200,"h":504}
},
"symbol5_triple_anm_021.png":
{
	"frame": {"x":2021,"y":507,"w":200,"h":504},
	"rotated": false,
	"trimmed": false,
	"spriteSourceSize": {"x":0,"y":0,"w":200,"h":504},
	"sourceSize": {"w":200,"h":504}
},
"symbol5_triple_anm_022.png":
{
	"frame": {"x":2223,"y":1,"w":200,"h":504},
	"rotated": false,
	"trimmed": false,
	"spriteSourceSize": {"x":0,"y":0,"w":200,"h":504},
	"sourceSize": {"w":200,"h":504}
},
"symbol5_triple_anm_023.png":
{
	"frame": {"x":2223,"y":507,"w":200,"h":504},
	"rotated": false,
	"trimmed": false,
	"spriteSourceSize": {"x":0,"y":0,"w":200,"h":504},
	"sourceSize": {"w":200,"h":504}
},
"symbol5_triple_anm_024.png":
{
	"frame": {"x":2425,"y":1,"w":200,"h":504},
	"rotated": false,
	"trimmed": false,
	"spriteSourceSize": {"x":0,"y":0,"w":200,"h":504},
	"sourceSize": {"w":200,"h":504}
},
"symbol5_triple_anm_025.png":
{
	"frame": {"x":2425,"y":507,"w":200,"h":504},
	"rotated": false,
	"trimmed": false,
	"spriteSourceSize": {"x":0,"y":0,"w":200,"h":504},
	"sourceSize": {"w":200,"h":504}
},
"symbol5_triple_anm_026.png":
{
	"frame": {"x":2627,"y":1,"w":200,"h":504},
	"rotated": false,
	"trimmed": false,
	"spriteSourceSize": {"x":0,"y":0,"w":200,"h":504},
	"sourceSize": {"w":200,"h":504}
},
"symbol5_triple_anm_027.png":
{
	"frame": {"x":2627,"y":507,"w":200,"h":504},
	"rotated": false,
	"trimmed": false,
	"spriteSourceSize": {"x":0,"y":0,"w":200,"h":504},
	"sourceSize": {"w":200,"h":504}
},
"symbol5_triple_anm_028.png":
{
	"frame": {"x":2829,"y":1,"w":200,"h":504},
	"rotated": false,
	"trimmed": false,
	"spriteSourceSize": {"x":0,"y":0,"w":200,"h":504},
	"sourceSize": {"w":200,"h":504}
},
"symbol5_triple_anm_029.png":
{
	"frame": {"x":2829,"y":507,"w":200,"h":504},
	"rotated": false,
	"trimmed": false,
	"spriteSourceSize": {"x":0,"y":0,"w":200,"h":504},
	"sourceSize": {"w":200,"h":504}
}},
"meta": {
	"app": "https://www.codeandweb.com/texturepacker",
	"version": "1.0",
	"image": "symbol5_triple_anm.png",
	"format": "RGBA8888",
	"size": {"w":3030,"h":1012},
	"scale": "0.5",
	"smartupdate": "$TexturePacker:SmartUpdate:6f5296542c65be751d62d179a17d2162:11c0d43a1a2baac19f501fd146b75c05:8e7237ff0ee63930366e5905686f21d8$"
}
}
