{"frames": {

"symbol_bonus_00000.png":
{
	"frame": {"x":2294,"y":321,"w":226,"h":177},
	"rotated": false,
	"trimmed": true,
	"spriteSourceSize": {"x":38,"y":223,"w":226,"h":177},
	"sourceSize": {"w":325,"h":400}
},
"symbol_bonus_00001.png":
{
	"frame": {"x":1917,"y":532,"w":321,"h":376},
	"rotated": true,
	"trimmed": true,
	"spriteSourceSize": {"x":2,"y":24,"w":321,"h":376},
	"sourceSize": {"w":325,"h":400}
},
"symbol_bonus_00002.png":
{
	"frame": {"x":0,"y":0,"w":321,"h":381},
	"rotated": false,
	"trimmed": true,
	"spriteSourceSize": {"x":2,"y":19,"w":321,"h":381},
	"sourceSize": {"w":325,"h":400}
},
"symbol_bonus_00003.png":
{
	"frame": {"x":0,"y":381,"w":321,"h":381},
	"rotated": false,
	"trimmed": true,
	"spriteSourceSize": {"x":2,"y":19,"w":321,"h":381},
	"sourceSize": {"w":325,"h":400}
},
"symbol_bonus_00004.png":
{
	"frame": {"x":0,"y":762,"w":321,"h":381},
	"rotated": false,
	"trimmed": true,
	"spriteSourceSize": {"x":2,"y":19,"w":321,"h":381},
	"sourceSize": {"w":325,"h":400}
},
"symbol_bonus_00005.png":
{
	"frame": {"x":0,"y":1143,"w":321,"h":381},
	"rotated": false,
	"trimmed": true,
	"spriteSourceSize": {"x":2,"y":19,"w":321,"h":381},
	"sourceSize": {"w":325,"h":400}
},
"symbol_bonus_00006.png":
{
	"frame": {"x":0,"y":1524,"w":321,"h":381},
	"rotated": false,
	"trimmed": true,
	"spriteSourceSize": {"x":2,"y":19,"w":321,"h":381},
	"sourceSize": {"w":325,"h":400}
},
"symbol_bonus_00007.png":
{
	"frame": {"x":321,"y":0,"w":321,"h":381},
	"rotated": false,
	"trimmed": true,
	"spriteSourceSize": {"x":2,"y":19,"w":321,"h":381},
	"sourceSize": {"w":325,"h":400}
},
"symbol_bonus_00008.png":
{
	"frame": {"x":321,"y":381,"w":321,"h":381},
	"rotated": false,
	"trimmed": true,
	"spriteSourceSize": {"x":2,"y":19,"w":321,"h":381},
	"sourceSize": {"w":325,"h":400}
},
"symbol_bonus_00009.png":
{
	"frame": {"x":321,"y":762,"w":321,"h":381},
	"rotated": false,
	"trimmed": true,
	"spriteSourceSize": {"x":2,"y":19,"w":321,"h":381},
	"sourceSize": {"w":325,"h":400}
},
"symbol_bonus_00010.png":
{
	"frame": {"x":321,"y":1143,"w":321,"h":381},
	"rotated": false,
	"trimmed": true,
	"spriteSourceSize": {"x":2,"y":19,"w":321,"h":381},
	"sourceSize": {"w":325,"h":400}
},
"symbol_bonus_00011.png":
{
	"frame": {"x":321,"y":1524,"w":321,"h":381},
	"rotated": false,
	"trimmed": true,
	"spriteSourceSize": {"x":2,"y":19,"w":321,"h":381},
	"sourceSize": {"w":325,"h":400}
},
"symbol_bonus_00012.png":
{
	"frame": {"x":642,"y":0,"w":321,"h":381},
	"rotated": false,
	"trimmed": true,
	"spriteSourceSize": {"x":2,"y":19,"w":321,"h":381},
	"sourceSize": {"w":325,"h":400}
},
"symbol_bonus_00013.png":
{
	"frame": {"x":642,"y":381,"w":321,"h":381},
	"rotated": false,
	"trimmed": true,
	"spriteSourceSize": {"x":2,"y":19,"w":321,"h":381},
	"sourceSize": {"w":325,"h":400}
},
"symbol_bonus_00014.png":
{
	"frame": {"x":642,"y":762,"w":321,"h":381},
	"rotated": false,
	"trimmed": true,
	"spriteSourceSize": {"x":2,"y":19,"w":321,"h":381},
	"sourceSize": {"w":325,"h":400}
},
"symbol_bonus_00015.png":
{
	"frame": {"x":642,"y":1143,"w":321,"h":381},
	"rotated": false,
	"trimmed": true,
	"spriteSourceSize": {"x":2,"y":19,"w":321,"h":381},
	"sourceSize": {"w":325,"h":400}
},
"symbol_bonus_00016.png":
{
	"frame": {"x":642,"y":1524,"w":321,"h":381},
	"rotated": false,
	"trimmed": true,
	"spriteSourceSize": {"x":2,"y":19,"w":321,"h":381},
	"sourceSize": {"w":325,"h":400}
},
"symbol_bonus_00017.png":
{
	"frame": {"x":963,"y":0,"w":321,"h":381},
	"rotated": true,
	"trimmed": true,
	"spriteSourceSize": {"x":2,"y":19,"w":321,"h":381},
	"sourceSize": {"w":325,"h":400}
},
"symbol_bonus_00018.png":
{
	"frame": {"x":1344,"y":0,"w":321,"h":381},
	"rotated": true,
	"trimmed": true,
	"spriteSourceSize": {"x":2,"y":19,"w":321,"h":381},
	"sourceSize": {"w":325,"h":400}
},
"symbol_bonus_00019.png":
{
	"frame": {"x":1725,"y":0,"w":321,"h":381},
	"rotated": true,
	"trimmed": true,
	"spriteSourceSize": {"x":2,"y":19,"w":321,"h":381},
	"sourceSize": {"w":325,"h":400}
},
"symbol_bonus_00020.png":
{
	"frame": {"x":2106,"y":0,"w":321,"h":381},
	"rotated": true,
	"trimmed": true,
	"spriteSourceSize": {"x":2,"y":19,"w":321,"h":381},
	"sourceSize": {"w":325,"h":400}
},
"symbol_bonus_00021.png":
{
	"frame": {"x":963,"y":321,"w":321,"h":381},
	"rotated": false,
	"trimmed": true,
	"spriteSourceSize": {"x":2,"y":19,"w":321,"h":381},
	"sourceSize": {"w":325,"h":400}
},
"symbol_bonus_00022.png":
{
	"frame": {"x":963,"y":702,"w":321,"h":381},
	"rotated": false,
	"trimmed": true,
	"spriteSourceSize": {"x":2,"y":19,"w":321,"h":381},
	"sourceSize": {"w":325,"h":400}
},
"symbol_bonus_00023.png":
{
	"frame": {"x":963,"y":1083,"w":319,"h":381},
	"rotated": false,
	"trimmed": true,
	"spriteSourceSize": {"x":3,"y":19,"w":319,"h":381},
	"sourceSize": {"w":325,"h":400}
},
"symbol_bonus_00024.png":
{
	"frame": {"x":963,"y":1464,"w":317,"h":381},
	"rotated": false,
	"trimmed": true,
	"spriteSourceSize": {"x":4,"y":19,"w":317,"h":381},
	"sourceSize": {"w":325,"h":400}
},
"symbol_bonus_00025.png":
{
	"frame": {"x":1280,"y":1464,"w":211,"h":381},
	"rotated": false,
	"trimmed": true,
	"spriteSourceSize": {"x":57,"y":19,"w":211,"h":381},
	"sourceSize": {"w":325,"h":400}
},
"symbol_bonus_00026.png":
{
	"frame": {"x":1282,"y":1083,"w":211,"h":381},
	"rotated": false,
	"trimmed": true,
	"spriteSourceSize": {"x":57,"y":19,"w":211,"h":381},
	"sourceSize": {"w":325,"h":400}
},
"symbol_bonus_00027.png":
{
	"frame": {"x":1491,"y":1464,"w":211,"h":381},
	"rotated": false,
	"trimmed": true,
	"spriteSourceSize": {"x":57,"y":19,"w":211,"h":381},
	"sourceSize": {"w":325,"h":400}
},
"symbol_bonus_00028.png":
{
	"frame": {"x":1284,"y":321,"w":211,"h":381},
	"rotated": false,
	"trimmed": true,
	"spriteSourceSize": {"x":57,"y":19,"w":211,"h":381},
	"sourceSize": {"w":325,"h":400}
},
"symbol_bonus_00029.png":
{
	"frame": {"x":1284,"y":702,"w":211,"h":381},
	"rotated": false,
	"trimmed": true,
	"spriteSourceSize": {"x":57,"y":19,"w":211,"h":381},
	"sourceSize": {"w":325,"h":400}
},
"symbol_bonus_00030.png":
{
	"frame": {"x":1493,"y":1083,"w":211,"h":381},
	"rotated": false,
	"trimmed": true,
	"spriteSourceSize": {"x":57,"y":19,"w":211,"h":381},
	"sourceSize": {"w":325,"h":400}
},
"symbol_bonus_00031.png":
{
	"frame": {"x":1702,"y":1464,"w":211,"h":381},
	"rotated": false,
	"trimmed": true,
	"spriteSourceSize": {"x":57,"y":19,"w":211,"h":381},
	"sourceSize": {"w":325,"h":400}
},
"symbol_bonus_00032.png":
{
	"frame": {"x":1704,"y":321,"w":207,"h":381},
	"rotated": false,
	"trimmed": true,
	"spriteSourceSize": {"x":59,"y":19,"w":207,"h":381},
	"sourceSize": {"w":325,"h":400}
},
"symbol_bonus_00033.png":
{
	"frame": {"x":1495,"y":321,"w":203,"h":381},
	"rotated": false,
	"trimmed": true,
	"spriteSourceSize": {"x":61,"y":19,"w":203,"h":381},
	"sourceSize": {"w":325,"h":400}
},
"symbol_bonus_00034.png":
{
	"frame": {"x":1913,"y":1464,"w":203,"h":381},
	"rotated": false,
	"trimmed": true,
	"spriteSourceSize": {"x":61,"y":19,"w":203,"h":381},
	"sourceSize": {"w":325,"h":400}
},
"symbol_bonus_00035.png":
{
	"frame": {"x":1915,"y":1083,"w":203,"h":381},
	"rotated": false,
	"trimmed": true,
	"spriteSourceSize": {"x":61,"y":19,"w":203,"h":381},
	"sourceSize": {"w":325,"h":400}
},
"symbol_bonus_00036.png":
{
	"frame": {"x":1913,"y":321,"w":211,"h":381},
	"rotated": true,
	"trimmed": true,
	"spriteSourceSize": {"x":57,"y":19,"w":211,"h":381},
	"sourceSize": {"w":325,"h":400}
},
"symbol_bonus_00037.png":
{
	"frame": {"x":1495,"y":702,"w":211,"h":381},
	"rotated": false,
	"trimmed": true,
	"spriteSourceSize": {"x":57,"y":19,"w":211,"h":381},
	"sourceSize": {"w":325,"h":400}
},
"symbol_bonus_00038.png":
{
	"frame": {"x":1704,"y":1083,"w":211,"h":381},
	"rotated": false,
	"trimmed": true,
	"spriteSourceSize": {"x":57,"y":19,"w":211,"h":381},
	"sourceSize": {"w":325,"h":400}
},
"symbol_bonus_00039.png":
{
	"frame": {"x":1706,"y":702,"w":211,"h":381},
	"rotated": false,
	"trimmed": true,
	"spriteSourceSize": {"x":57,"y":19,"w":211,"h":381},
	"sourceSize": {"w":325,"h":400}
},
"symbol_bonus_00040.png":
{
	"frame": {"x":2294,"y":498,"w":211,"h":381},
	"rotated": false,
	"trimmed": true,
	"spriteSourceSize": {"x":57,"y":19,"w":211,"h":381},
	"sourceSize": {"w":325,"h":400}
},
"symbol_bonus_00041.png":
{
	"frame": {"x":2118,"y":1064,"w":211,"h":378},
	"rotated": true,
	"trimmed": true,
	"spriteSourceSize": {"x":57,"y":22,"w":211,"h":378},
	"sourceSize": {"w":325,"h":400}
},
"symbol_bonus_00042.png":
{
	"frame": {"x":1917,"y":853,"w":211,"h":363},
	"rotated": true,
	"trimmed": true,
	"spriteSourceSize": {"x":57,"y":37,"w":211,"h":363},
	"sourceSize": {"w":325,"h":400}
},
"symbol_bonus_00043.png":
{
	"frame": {"x":2118,"y":1275,"w":203,"h":347},
	"rotated": true,
	"trimmed": true,
	"spriteSourceSize": {"x":61,"y":53,"w":203,"h":347},
	"sourceSize": {"w":325,"h":400}
},
"symbol_bonus_00044.png":
{
	"frame": {"x":2280,"y":879,"w":203,"h":178},
	"rotated": false,
	"trimmed": true,
	"spriteSourceSize": {"x":61,"y":222,"w":203,"h":178},
	"sourceSize": {"w":325,"h":400}
},
"symbol_bonus_00045.png":
{
	"frame": {"x":2116,"y":1478,"w":203,"h":177},
	"rotated": true,
	"trimmed": true,
	"spriteSourceSize": {"x":61,"y":223,"w":203,"h":177},
	"sourceSize": {"w":325,"h":400}
}},
"meta": {
	"app": "https://www.codeandweb.com/texturepacker",
	"version": "1.0",
	"image": "symbol_bonus.png",
	"format": "RGBA8888",
	"size": {"w":2520,"h":1905},
	"scale": "0.5",
	"smartupdate": "$TexturePacker:SmartUpdate:1f2794e8fbd7a13a9edcfe71f6889f32:81a46673754aa59027b24a922df36d46:305d749f52c25872d7f4fcfa533f9749$"
}
}
